(kicad_symbol_lib (version 20211014) (generator kicad_symbol_editor)
  (symbol "M24C02-WMN6TP" (pin_names (offset 0.762)) (in_bom yes) (on_board yes)
    (property "Reference" "IC" (id 0) (at 21.59 7.62 0)
      (effects (font (size 1.27 1.27)) (justify left))
    )
    (property "Value" "M24C02-WMN6TP" (id 1) (at 21.59 5.08 0)
      (effects (font (size 1.27 1.27)) (justify left))
    )
    (property "Footprint" "SOIC127P600X175-8N" (id 2) (at 21.59 2.54 0)
      (effects (font (size 1.27 1.27)) (justify left) hide)
    )
    (property "Datasheet" "http://www.st.com/st-web-ui/static/active/en/resource/technical/document/datasheet/DM00071904.pdf" (id 3) (at 21.59 0 0)
      (effects (font (size 1.27 1.27)) (justify left) hide)
    )
    (property "Description" "M24C02-WMN6TP, Serial EEPROM Memory 2kbit, Serial-I2C, 900ns 2.5 to 5.5V, 8-Pin SOIC" (id 4) (at 21.59 -2.54 0)
      (effects (font (size 1.27 1.27)) (justify left) hide)
    )
    (property "Height" "1.75" (id 5) (at 21.59 -5.08 0)
      (effects (font (size 1.27 1.27)) (justify left) hide)
    )
    (property "Manufacturer_Name" "STMicroelectronics" (id 6) (at 21.59 -7.62 0)
      (effects (font (size 1.27 1.27)) (justify left) hide)
    )
    (property "Manufacturer_Part_Number" "M24C02-WMN6TP" (id 7) (at 21.59 -10.16 0)
      (effects (font (size 1.27 1.27)) (justify left) hide)
    )
    (property "Mouser Part Number" "511-M24C02-WMN6TP" (id 8) (at 21.59 -12.7 0)
      (effects (font (size 1.27 1.27)) (justify left) hide)
    )
    (property "Mouser Price/Stock" "https://www.mouser.co.uk/ProductDetail/STMicroelectronics/M24C02-WMN6TP?qs=%252B9pWl1iD4MV6%252BhhMP%2F%252BxlQ%3D%3D" (id 9) (at 21.59 -15.24 0)
      (effects (font (size 1.27 1.27)) (justify left) hide)
    )
    (property "Arrow Part Number" "M24C02-WMN6TP" (id 10) (at 21.59 -17.78 0)
      (effects (font (size 1.27 1.27)) (justify left) hide)
    )
    (property "Arrow Price/Stock" "https://www.arrow.com/en/products/m24c02-wmn6tp/stmicroelectronics" (id 11) (at 21.59 -20.32 0)
      (effects (font (size 1.27 1.27)) (justify left) hide)
    )
    (property "ki_description" "M24C02-WMN6TP, Serial EEPROM Memory 2kbit, Serial-I2C, 900ns 2.5 to 5.5V, 8-Pin SOIC" (id 12) (at 0 0 0)
      (effects (font (size 1.27 1.27)) hide)
    )
    (symbol "M24C02-WMN6TP_0_0"
      (pin passive line (at 0 0 0) (length 5.08)
        (name "E0" (effects (font (size 1.27 1.27))))
        (number "1" (effects (font (size 1.27 1.27))))
      )
      (pin passive line (at 0 -2.54 0) (length 5.08)
        (name "E1" (effects (font (size 1.27 1.27))))
        (number "2" (effects (font (size 1.27 1.27))))
      )
      (pin passive line (at 0 -5.08 0) (length 5.08)
        (name "E2" (effects (font (size 1.27 1.27))))
        (number "3" (effects (font (size 1.27 1.27))))
      )
      (pin passive line (at 0 -7.62 0) (length 5.08)
        (name "VSS" (effects (font (size 1.27 1.27))))
        (number "4" (effects (font (size 1.27 1.27))))
      )
      (pin passive line (at 25.4 -7.62 180) (length 5.08)
        (name "SDA" (effects (font (size 1.27 1.27))))
        (number "5" (effects (font (size 1.27 1.27))))
      )
      (pin passive line (at 25.4 -5.08 180) (length 5.08)
        (name "SCL" (effects (font (size 1.27 1.27))))
        (number "6" (effects (font (size 1.27 1.27))))
      )
      (pin passive line (at 25.4 -2.54 180) (length 5.08)
        (name "~{WC}" (effects (font (size 1.27 1.27))))
        (number "7" (effects (font (size 1.27 1.27))))
      )
      (pin passive line (at 25.4 0 180) (length 5.08)
        (name "VCC" (effects (font (size 1.27 1.27))))
        (number "8" (effects (font (size 1.27 1.27))))
      )
    )
    (symbol "M24C02-WMN6TP_0_1"
      (polyline
        (pts
          (xy 5.08 2.54)
          (xy 20.32 2.54)
          (xy 20.32 -10.16)
          (xy 5.08 -10.16)
          (xy 5.08 2.54)
        )
        (stroke (width 0.1524) (type default) (color 0 0 0 0))
        (fill (type none))
      )
    )
  )
)
