PCBNEW-LibModule-V1  2022-03-02 17:00:38
# encoding utf-8
Units mm
$INDEX
QFP50P900X900X160-48N
$EndINDEX
$MODULE QFP50P900X900X160-48N
Po 0 0 0 15 621fa2b6 00000000 ~~
Li QFP50P900X900X160-48N
Cd 48 pinout
Kw Integrated Circuit
Sc 0
At SMD
AR 
Op 0 0 0
T0 0 0 1.27 1.27 0 0.254 N V 21 N "IC**"
T1 0 0 1.27 1.27 0 0.254 N I 21 N "QFP50P900X900X160-48N"
DS -5.225 -5.225 5.225 -5.225 0.05 24
DS 5.225 -5.225 5.225 5.225 0.05 24
DS 5.225 5.225 -5.225 5.225 0.05 24
DS -5.225 5.225 -5.225 -5.225 0.05 24
DS -3.5 -3.5 3.5 -3.5 0.1 24
DS 3.5 -3.5 3.5 3.5 0.1 24
DS 3.5 3.5 -3.5 3.5 0.1 24
DS -3.5 3.5 -3.5 -3.5 0.1 24
DS -3.5 -3 -3 -3.5 0.1 24
DS -3.15 -3.15 3.15 -3.15 0.2 21
DS 3.15 -3.15 3.15 3.15 0.2 21
DS 3.15 3.15 -3.15 3.15 0.2 21
DS -3.15 3.15 -3.15 -3.15 0.2 21
DC -4.725 -3.5 -4.85 -3.5 0.254 21
$PAD
Po -4.238 -2.75
Sh "1" R 0.3 1.475 0 0 900
At SMD N 00888000
Ne 0 ""
$EndPAD
$PAD
Po -4.238 -2.25
Sh "2" R 0.3 1.475 0 0 900
At SMD N 00888000
Ne 0 ""
$EndPAD
$PAD
Po -4.238 -1.75
Sh "3" R 0.3 1.475 0 0 900
At SMD N 00888000
Ne 0 ""
$EndPAD
$PAD
Po -4.238 -1.25
Sh "4" R 0.3 1.475 0 0 900
At SMD N 00888000
Ne 0 ""
$EndPAD
$PAD
Po -4.238 -0.75
Sh "5" R 0.3 1.475 0 0 900
At SMD N 00888000
Ne 0 ""
$EndPAD
$PAD
Po -4.238 -0.25
Sh "6" R 0.3 1.475 0 0 900
At SMD N 00888000
Ne 0 ""
$EndPAD
$PAD
Po -4.238 0.25
Sh "7" R 0.3 1.475 0 0 900
At SMD N 00888000
Ne 0 ""
$EndPAD
$PAD
Po -4.238 0.75
Sh "8" R 0.3 1.475 0 0 900
At SMD N 00888000
Ne 0 ""
$EndPAD
$PAD
Po -4.238 1.25
Sh "9" R 0.3 1.475 0 0 900
At SMD N 00888000
Ne 0 ""
$EndPAD
$PAD
Po -4.238 1.75
Sh "10" R 0.3 1.475 0 0 900
At SMD N 00888000
Ne 0 ""
$EndPAD
$PAD
Po -4.238 2.25
Sh "11" R 0.3 1.475 0 0 900
At SMD N 00888000
Ne 0 ""
$EndPAD
$PAD
Po -4.238 2.75
Sh "12" R 0.3 1.475 0 0 900
At SMD N 00888000
Ne 0 ""
$EndPAD
$PAD
Po -2.75 4.238
Sh "13" R 0.3 1.475 0 0 0
At SMD N 00888000
Ne 0 ""
$EndPAD
$PAD
Po -2.25 4.238
Sh "14" R 0.3 1.475 0 0 0
At SMD N 00888000
Ne 0 ""
$EndPAD
$PAD
Po -1.75 4.238
Sh "15" R 0.3 1.475 0 0 0
At SMD N 00888000
Ne 0 ""
$EndPAD
$PAD
Po -1.25 4.238
Sh "16" R 0.3 1.475 0 0 0
At SMD N 00888000
Ne 0 ""
$EndPAD
$PAD
Po -0.75 4.238
Sh "17" R 0.3 1.475 0 0 0
At SMD N 00888000
Ne 0 ""
$EndPAD
$PAD
Po -0.25 4.238
Sh "18" R 0.3 1.475 0 0 0
At SMD N 00888000
Ne 0 ""
$EndPAD
$PAD
Po 0.25 4.238
Sh "19" R 0.3 1.475 0 0 0
At SMD N 00888000
Ne 0 ""
$EndPAD
$PAD
Po 0.75 4.238
Sh "20" R 0.3 1.475 0 0 0
At SMD N 00888000
Ne 0 ""
$EndPAD
$PAD
Po 1.25 4.238
Sh "21" R 0.3 1.475 0 0 0
At SMD N 00888000
Ne 0 ""
$EndPAD
$PAD
Po 1.75 4.238
Sh "22" R 0.3 1.475 0 0 0
At SMD N 00888000
Ne 0 ""
$EndPAD
$PAD
Po 2.25 4.238
Sh "23" R 0.3 1.475 0 0 0
At SMD N 00888000
Ne 0 ""
$EndPAD
$PAD
Po 2.75 4.238
Sh "24" R 0.3 1.475 0 0 0
At SMD N 00888000
Ne 0 ""
$EndPAD
$PAD
Po 4.238 2.75
Sh "25" R 0.3 1.475 0 0 900
At SMD N 00888000
Ne 0 ""
$EndPAD
$PAD
Po 4.238 2.25
Sh "26" R 0.3 1.475 0 0 900
At SMD N 00888000
Ne 0 ""
$EndPAD
$PAD
Po 4.238 1.75
Sh "27" R 0.3 1.475 0 0 900
At SMD N 00888000
Ne 0 ""
$EndPAD
$PAD
Po 4.238 1.25
Sh "28" R 0.3 1.475 0 0 900
At SMD N 00888000
Ne 0 ""
$EndPAD
$PAD
Po 4.238 0.75
Sh "29" R 0.3 1.475 0 0 900
At SMD N 00888000
Ne 0 ""
$EndPAD
$PAD
Po 4.238 0.25
Sh "30" R 0.3 1.475 0 0 900
At SMD N 00888000
Ne 0 ""
$EndPAD
$PAD
Po 4.238 -0.25
Sh "31" R 0.3 1.475 0 0 900
At SMD N 00888000
Ne 0 ""
$EndPAD
$PAD
Po 4.238 -0.75
Sh "32" R 0.3 1.475 0 0 900
At SMD N 00888000
Ne 0 ""
$EndPAD
$PAD
Po 4.238 -1.25
Sh "33" R 0.3 1.475 0 0 900
At SMD N 00888000
Ne 0 ""
$EndPAD
$PAD
Po 4.238 -1.75
Sh "34" R 0.3 1.475 0 0 900
At SMD N 00888000
Ne 0 ""
$EndPAD
$PAD
Po 4.238 -2.25
Sh "35" R 0.3 1.475 0 0 900
At SMD N 00888000
Ne 0 ""
$EndPAD
$PAD
Po 4.238 -2.75
Sh "36" R 0.3 1.475 0 0 900
At SMD N 00888000
Ne 0 ""
$EndPAD
$PAD
Po 2.75 -4.238
Sh "37" R 0.3 1.475 0 0 0
At SMD N 00888000
Ne 0 ""
$EndPAD
$PAD
Po 2.25 -4.238
Sh "38" R 0.3 1.475 0 0 0
At SMD N 00888000
Ne 0 ""
$EndPAD
$PAD
Po 1.75 -4.238
Sh "39" R 0.3 1.475 0 0 0
At SMD N 00888000
Ne 0 ""
$EndPAD
$PAD
Po 1.25 -4.238
Sh "40" R 0.3 1.475 0 0 0
At SMD N 00888000
Ne 0 ""
$EndPAD
$PAD
Po 0.75 -4.238
Sh "41" R 0.3 1.475 0 0 0
At SMD N 00888000
Ne 0 ""
$EndPAD
$PAD
Po 0.25 -4.238
Sh "42" R 0.3 1.475 0 0 0
At SMD N 00888000
Ne 0 ""
$EndPAD
$PAD
Po -0.25 -4.238
Sh "43" R 0.3 1.475 0 0 0
At SMD N 00888000
Ne 0 ""
$EndPAD
$PAD
Po -0.75 -4.238
Sh "44" R 0.3 1.475 0 0 0
At SMD N 00888000
Ne 0 ""
$EndPAD
$PAD
Po -1.25 -4.238
Sh "45" R 0.3 1.475 0 0 0
At SMD N 00888000
Ne 0 ""
$EndPAD
$PAD
Po -1.75 -4.238
Sh "46" R 0.3 1.475 0 0 0
At SMD N 00888000
Ne 0 ""
$EndPAD
$PAD
Po -2.25 -4.238
Sh "47" R 0.3 1.475 0 0 0
At SMD N 00888000
Ne 0 ""
$EndPAD
$PAD
Po -2.75 -4.238
Sh "48" R 0.3 1.475 0 0 0
At SMD N 00888000
Ne 0 ""
$EndPAD
$EndMODULE QFP50P900X900X160-48N
$EndLIBRARY
