(kicad_sch (version 20211123) (generator eeschema)

  (uuid 00318b70-98db-4150-aae9-0fe9db9b4f56)

  (paper "A4")

  (lib_symbols
    (symbol "Device:D_Zener" (pin_numbers hide) (pin_names (offset 1.016) hide) (in_bom yes) (on_board yes)
      (property "Reference" "D" (id 0) (at 0 2.54 0)
        (effects (font (size 1.27 1.27)))
      )
      (property "Value" "D_Zener" (id 1) (at 0 -2.54 0)
        (effects (font (size 1.27 1.27)))
      )
      (property "Footprint" "" (id 2) (at 0 0 0)
        (effects (font (size 1.27 1.27)) hide)
      )
      (property "Datasheet" "~" (id 3) (at 0 0 0)
        (effects (font (size 1.27 1.27)) hide)
      )
      (property "ki_keywords" "diode" (id 4) (at 0 0 0)
        (effects (font (size 1.27 1.27)) hide)
      )
      (property "ki_description" "Zener diode" (id 5) (at 0 0 0)
        (effects (font (size 1.27 1.27)) hide)
      )
      (property "ki_fp_filters" "TO-???* *_Diode_* *SingleDiode* D_*" (id 6) (at 0 0 0)
        (effects (font (size 1.27 1.27)) hide)
      )
      (symbol "D_Zener_0_1"
        (polyline
          (pts
            (xy 1.27 0)
            (xy -1.27 0)
          )
          (stroke (width 0) (type default) (color 0 0 0 0))
          (fill (type none))
        )
        (polyline
          (pts
            (xy -1.27 -1.27)
            (xy -1.27 1.27)
            (xy -0.762 1.27)
          )
          (stroke (width 0.254) (type default) (color 0 0 0 0))
          (fill (type none))
        )
        (polyline
          (pts
            (xy 1.27 -1.27)
            (xy 1.27 1.27)
            (xy -1.27 0)
            (xy 1.27 -1.27)
          )
          (stroke (width 0.254) (type default) (color 0 0 0 0))
          (fill (type none))
        )
      )
      (symbol "D_Zener_1_1"
        (pin passive line (at -3.81 0 0) (length 2.54)
          (name "K" (effects (font (size 1.27 1.27))))
          (number "1" (effects (font (size 1.27 1.27))))
        )
        (pin passive line (at 3.81 0 180) (length 2.54)
          (name "A" (effects (font (size 1.27 1.27))))
          (number "2" (effects (font (size 1.27 1.27))))
        )
      )
    )
    (symbol "Device:LED" (pin_numbers hide) (pin_names (offset 1.016) hide) (in_bom yes) (on_board yes)
      (property "Reference" "D" (id 0) (at 0 2.54 0)
        (effects (font (size 1.27 1.27)))
      )
      (property "Value" "LED" (id 1) (at 0 -2.54 0)
        (effects (font (size 1.27 1.27)))
      )
      (property "Footprint" "" (id 2) (at 0 0 0)
        (effects (font (size 1.27 1.27)) hide)
      )
      (property "Datasheet" "~" (id 3) (at 0 0 0)
        (effects (font (size 1.27 1.27)) hide)
      )
      (property "ki_keywords" "LED diode" (id 4) (at 0 0 0)
        (effects (font (size 1.27 1.27)) hide)
      )
      (property "ki_description" "Light emitting diode" (id 5) (at 0 0 0)
        (effects (font (size 1.27 1.27)) hide)
      )
      (property "ki_fp_filters" "LED* LED_SMD:* LED_THT:*" (id 6) (at 0 0 0)
        (effects (font (size 1.27 1.27)) hide)
      )
      (symbol "LED_0_1"
        (polyline
          (pts
            (xy -1.27 -1.27)
            (xy -1.27 1.27)
          )
          (stroke (width 0.254) (type default) (color 0 0 0 0))
          (fill (type none))
        )
        (polyline
          (pts
            (xy -1.27 0)
            (xy 1.27 0)
          )
          (stroke (width 0) (type default) (color 0 0 0 0))
          (fill (type none))
        )
        (polyline
          (pts
            (xy 1.27 -1.27)
            (xy 1.27 1.27)
            (xy -1.27 0)
            (xy 1.27 -1.27)
          )
          (stroke (width 0.254) (type default) (color 0 0 0 0))
          (fill (type none))
        )
        (polyline
          (pts
            (xy -3.048 -0.762)
            (xy -4.572 -2.286)
            (xy -3.81 -2.286)
            (xy -4.572 -2.286)
            (xy -4.572 -1.524)
          )
          (stroke (width 0) (type default) (color 0 0 0 0))
          (fill (type none))
        )
        (polyline
          (pts
            (xy -1.778 -0.762)
            (xy -3.302 -2.286)
            (xy -2.54 -2.286)
            (xy -3.302 -2.286)
            (xy -3.302 -1.524)
          )
          (stroke (width 0) (type default) (color 0 0 0 0))
          (fill (type none))
        )
      )
      (symbol "LED_1_1"
        (pin passive line (at -3.81 0 0) (length 2.54)
          (name "K" (effects (font (size 1.27 1.27))))
          (number "1" (effects (font (size 1.27 1.27))))
        )
        (pin passive line (at 3.81 0 180) (length 2.54)
          (name "A" (effects (font (size 1.27 1.27))))
          (number "2" (effects (font (size 1.27 1.27))))
        )
      )
    )
    (symbol "Device:Q_NPN_BCE" (pin_names (offset 0) hide) (in_bom yes) (on_board yes)
      (property "Reference" "Q" (id 0) (at 5.08 1.27 0)
        (effects (font (size 1.27 1.27)) (justify left))
      )
      (property "Value" "Q_NPN_BCE" (id 1) (at 5.08 -1.27 0)
        (effects (font (size 1.27 1.27)) (justify left))
      )
      (property "Footprint" "" (id 2) (at 5.08 2.54 0)
        (effects (font (size 1.27 1.27)) hide)
      )
      (property "Datasheet" "~" (id 3) (at 0 0 0)
        (effects (font (size 1.27 1.27)) hide)
      )
      (property "ki_keywords" "transistor NPN" (id 4) (at 0 0 0)
        (effects (font (size 1.27 1.27)) hide)
      )
      (property "ki_description" "NPN transistor, base/collector/emitter" (id 5) (at 0 0 0)
        (effects (font (size 1.27 1.27)) hide)
      )
      (symbol "Q_NPN_BCE_0_1"
        (polyline
          (pts
            (xy 0.635 0.635)
            (xy 2.54 2.54)
          )
          (stroke (width 0) (type default) (color 0 0 0 0))
          (fill (type none))
        )
        (polyline
          (pts
            (xy 0.635 -0.635)
            (xy 2.54 -2.54)
            (xy 2.54 -2.54)
          )
          (stroke (width 0) (type default) (color 0 0 0 0))
          (fill (type none))
        )
        (polyline
          (pts
            (xy 0.635 1.905)
            (xy 0.635 -1.905)
            (xy 0.635 -1.905)
          )
          (stroke (width 0.508) (type default) (color 0 0 0 0))
          (fill (type none))
        )
        (polyline
          (pts
            (xy 1.27 -1.778)
            (xy 1.778 -1.27)
            (xy 2.286 -2.286)
            (xy 1.27 -1.778)
            (xy 1.27 -1.778)
          )
          (stroke (width 0) (type default) (color 0 0 0 0))
          (fill (type outline))
        )
        (circle (center 1.27 0) (radius 2.8194)
          (stroke (width 0.254) (type default) (color 0 0 0 0))
          (fill (type none))
        )
      )
      (symbol "Q_NPN_BCE_1_1"
        (pin input line (at -5.08 0 0) (length 5.715)
          (name "B" (effects (font (size 1.27 1.27))))
          (number "1" (effects (font (size 1.27 1.27))))
        )
        (pin passive line (at 2.54 5.08 270) (length 2.54)
          (name "C" (effects (font (size 1.27 1.27))))
          (number "2" (effects (font (size 1.27 1.27))))
        )
        (pin passive line (at 2.54 -5.08 90) (length 2.54)
          (name "E" (effects (font (size 1.27 1.27))))
          (number "3" (effects (font (size 1.27 1.27))))
        )
      )
    )
    (symbol "Device:R" (pin_numbers hide) (pin_names (offset 0)) (in_bom yes) (on_board yes)
      (property "Reference" "R" (id 0) (at 2.032 0 90)
        (effects (font (size 1.27 1.27)))
      )
      (property "Value" "R" (id 1) (at 0 0 90)
        (effects (font (size 1.27 1.27)))
      )
      (property "Footprint" "" (id 2) (at -1.778 0 90)
        (effects (font (size 1.27 1.27)) hide)
      )
      (property "Datasheet" "~" (id 3) (at 0 0 0)
        (effects (font (size 1.27 1.27)) hide)
      )
      (property "ki_keywords" "R res resistor" (id 4) (at 0 0 0)
        (effects (font (size 1.27 1.27)) hide)
      )
      (property "ki_description" "Resistor" (id 5) (at 0 0 0)
        (effects (font (size 1.27 1.27)) hide)
      )
      (property "ki_fp_filters" "R_*" (id 6) (at 0 0 0)
        (effects (font (size 1.27 1.27)) hide)
      )
      (symbol "R_0_1"
        (rectangle (start -1.016 -2.54) (end 1.016 2.54)
          (stroke (width 0.254) (type default) (color 0 0 0 0))
          (fill (type none))
        )
      )
      (symbol "R_1_1"
        (pin passive line (at 0 3.81 270) (length 1.27)
          (name "~" (effects (font (size 1.27 1.27))))
          (number "1" (effects (font (size 1.27 1.27))))
        )
        (pin passive line (at 0 -3.81 90) (length 1.27)
          (name "~" (effects (font (size 1.27 1.27))))
          (number "2" (effects (font (size 1.27 1.27))))
        )
      )
    )
    (symbol "TP4056:TP4056" (pin_names (offset 0.762)) (in_bom yes) (on_board yes)
      (property "Reference" "J" (id 0) (at 31.75 7.62 0)
        (effects (font (size 1.27 1.27)) (justify left))
      )
      (property "Value" "TP4056" (id 1) (at 31.75 5.08 0)
        (effects (font (size 1.27 1.27)) (justify left))
      )
      (property "Footprint" "SOIC127P600X175-9N" (id 2) (at 31.75 2.54 0)
        (effects (font (size 1.27 1.27)) (justify left) hide)
      )
      (property "Datasheet" "https://dlnmh9ip6v2uc.cloudfront.net/datasheets/Prototyping/TP4056.pdf" (id 3) (at 31.75 0 0)
        (effects (font (size 1.27 1.27)) (justify left) hide)
      )
      (property "Description" "1A Standalone Linear Li-lon Battery Charger, SOP-8" (id 4) (at 31.75 -2.54 0)
        (effects (font (size 1.27 1.27)) (justify left) hide)
      )
      (property "Height" "1.75" (id 5) (at 31.75 -5.08 0)
        (effects (font (size 1.27 1.27)) (justify left) hide)
      )
      (property "Manufacturer_Name" "NanJing Top Power" (id 6) (at 31.75 -7.62 0)
        (effects (font (size 1.27 1.27)) (justify left) hide)
      )
      (property "Manufacturer_Part_Number" "TP4056" (id 7) (at 31.75 -10.16 0)
        (effects (font (size 1.27 1.27)) (justify left) hide)
      )
      (property "Mouser Part Number" "" (id 8) (at 31.75 -12.7 0)
        (effects (font (size 1.27 1.27)) (justify left) hide)
      )
      (property "Mouser Price/Stock" "" (id 9) (at 31.75 -15.24 0)
        (effects (font (size 1.27 1.27)) (justify left) hide)
      )
      (property "Arrow Part Number" "" (id 10) (at 31.75 -17.78 0)
        (effects (font (size 1.27 1.27)) (justify left) hide)
      )
      (property "Arrow Price/Stock" "" (id 11) (at 31.75 -20.32 0)
        (effects (font (size 1.27 1.27)) (justify left) hide)
      )
      (property "ki_description" "1A Standalone Linear Li-lon Battery Charger, SOP-8" (id 12) (at 0 0 0)
        (effects (font (size 1.27 1.27)) hide)
      )
      (symbol "TP4056_0_0"
        (pin passive line (at 0 0 0) (length 5.08)
          (name "TEMP1" (effects (font (size 1.27 1.27))))
          (number "1" (effects (font (size 1.27 1.27))))
        )
        (pin passive line (at 0 -2.54 0) (length 5.08)
          (name "PROG2" (effects (font (size 1.27 1.27))))
          (number "2" (effects (font (size 1.27 1.27))))
        )
        (pin passive line (at 0 -5.08 0) (length 5.08)
          (name "GND_3" (effects (font (size 1.27 1.27))))
          (number "3" (effects (font (size 1.27 1.27))))
        )
        (pin passive line (at 0 -7.62 0) (length 5.08)
          (name "VCC4" (effects (font (size 1.27 1.27))))
          (number "4" (effects (font (size 1.27 1.27))))
        )
        (pin passive line (at 35.56 -7.62 180) (length 5.08)
          (name "BAT" (effects (font (size 1.27 1.27))))
          (number "5" (effects (font (size 1.27 1.27))))
        )
        (pin passive line (at 35.56 -5.08 180) (length 5.08)
          (name "~{STDBY}" (effects (font (size 1.27 1.27))))
          (number "6" (effects (font (size 1.27 1.27))))
        )
        (pin passive line (at 35.56 -2.54 180) (length 5.08)
          (name "~{CHRG}" (effects (font (size 1.27 1.27))))
          (number "7" (effects (font (size 1.27 1.27))))
        )
        (pin passive line (at 35.56 0 180) (length 5.08)
          (name "CE" (effects (font (size 1.27 1.27))))
          (number "8" (effects (font (size 1.27 1.27))))
        )
        (pin passive line (at 17.78 -20.32 90) (length 5.08)
          (name "EP" (effects (font (size 1.27 1.27))))
          (number "9" (effects (font (size 1.27 1.27))))
        )
      )
      (symbol "TP4056_0_1"
        (polyline
          (pts
            (xy 5.08 2.54)
            (xy 30.48 2.54)
            (xy 30.48 -15.24)
            (xy 5.08 -15.24)
            (xy 5.08 2.54)
          )
          (stroke (width 0.1524) (type default) (color 0 0 0 0))
          (fill (type none))
        )
      )
    )
    (symbol "power:+5V" (power) (pin_names (offset 0)) (in_bom yes) (on_board yes)
      (property "Reference" "#PWR" (id 0) (at 0 -3.81 0)
        (effects (font (size 1.27 1.27)) hide)
      )
      (property "Value" "+5V" (id 1) (at 0 3.556 0)
        (effects (font (size 1.27 1.27)))
      )
      (property "Footprint" "" (id 2) (at 0 0 0)
        (effects (font (size 1.27 1.27)) hide)
      )
      (property "Datasheet" "" (id 3) (at 0 0 0)
        (effects (font (size 1.27 1.27)) hide)
      )
      (property "ki_keywords" "power-flag" (id 4) (at 0 0 0)
        (effects (font (size 1.27 1.27)) hide)
      )
      (property "ki_description" "Power symbol creates a global label with name \"+5V\"" (id 5) (at 0 0 0)
        (effects (font (size 1.27 1.27)) hide)
      )
      (symbol "+5V_0_1"
        (polyline
          (pts
            (xy -0.762 1.27)
            (xy 0 2.54)
          )
          (stroke (width 0) (type default) (color 0 0 0 0))
          (fill (type none))
        )
        (polyline
          (pts
            (xy 0 0)
            (xy 0 2.54)
          )
          (stroke (width 0) (type default) (color 0 0 0 0))
          (fill (type none))
        )
        (polyline
          (pts
            (xy 0 2.54)
            (xy 0.762 1.27)
          )
          (stroke (width 0) (type default) (color 0 0 0 0))
          (fill (type none))
        )
      )
      (symbol "+5V_1_1"
        (pin power_in line (at 0 0 90) (length 0) hide
          (name "+5V" (effects (font (size 1.27 1.27))))
          (number "1" (effects (font (size 1.27 1.27))))
        )
      )
    )
    (symbol "power:GND" (power) (pin_names (offset 0)) (in_bom yes) (on_board yes)
      (property "Reference" "#PWR" (id 0) (at 0 -6.35 0)
        (effects (font (size 1.27 1.27)) hide)
      )
      (property "Value" "GND" (id 1) (at 0 -3.81 0)
        (effects (font (size 1.27 1.27)))
      )
      (property "Footprint" "" (id 2) (at 0 0 0)
        (effects (font (size 1.27 1.27)) hide)
      )
      (property "Datasheet" "" (id 3) (at 0 0 0)
        (effects (font (size 1.27 1.27)) hide)
      )
      (property "ki_keywords" "power-flag" (id 4) (at 0 0 0)
        (effects (font (size 1.27 1.27)) hide)
      )
      (property "ki_description" "Power symbol creates a global label with name \"GND\" , ground" (id 5) (at 0 0 0)
        (effects (font (size 1.27 1.27)) hide)
      )
      (symbol "GND_0_1"
        (polyline
          (pts
            (xy 0 0)
            (xy 0 -1.27)
            (xy 1.27 -1.27)
            (xy 0 -2.54)
            (xy -1.27 -1.27)
            (xy 0 -1.27)
          )
          (stroke (width 0) (type default) (color 0 0 0 0))
          (fill (type none))
        )
      )
      (symbol "GND_1_1"
        (pin power_in line (at 0 0 270) (length 0) hide
          (name "GND" (effects (font (size 1.27 1.27))))
          (number "1" (effects (font (size 1.27 1.27))))
        )
      )
    )
    (symbol "pspice:C" (pin_names (offset 0.254)) (in_bom yes) (on_board yes)
      (property "Reference" "C" (id 0) (at 2.54 3.81 90)
        (effects (font (size 1.27 1.27)))
      )
      (property "Value" "C" (id 1) (at 2.54 -3.81 90)
        (effects (font (size 1.27 1.27)))
      )
      (property "Footprint" "" (id 2) (at 0 0 0)
        (effects (font (size 1.27 1.27)) hide)
      )
      (property "Datasheet" "~" (id 3) (at 0 0 0)
        (effects (font (size 1.27 1.27)) hide)
      )
      (property "ki_keywords" "simulation" (id 4) (at 0 0 0)
        (effects (font (size 1.27 1.27)) hide)
      )
      (property "ki_description" "Capacitor symbol for simulation only" (id 5) (at 0 0 0)
        (effects (font (size 1.27 1.27)) hide)
      )
      (symbol "C_0_1"
        (polyline
          (pts
            (xy -3.81 -1.27)
            (xy 3.81 -1.27)
          )
          (stroke (width 0) (type default) (color 0 0 0 0))
          (fill (type none))
        )
        (polyline
          (pts
            (xy -3.81 1.27)
            (xy 3.81 1.27)
          )
          (stroke (width 0) (type default) (color 0 0 0 0))
          (fill (type none))
        )
      )
      (symbol "C_1_1"
        (pin passive line (at 0 6.35 270) (length 5.08)
          (name "~" (effects (font (size 1.016 1.016))))
          (number "1" (effects (font (size 1.016 1.016))))
        )
        (pin passive line (at 0 -6.35 90) (length 5.08)
          (name "~" (effects (font (size 1.016 1.016))))
          (number "2" (effects (font (size 1.016 1.016))))
        )
      )
    )
    (symbol "pspice:MPMOS" (pin_names (offset 0)) (in_bom yes) (on_board yes)
      (property "Reference" "M" (id 0) (at 7.62 1.27 0)
        (effects (font (size 1.27 1.27)) (justify left))
      )
      (property "Value" "MPMOS" (id 1) (at 7.62 -1.27 0)
        (effects (font (size 1.27 1.27)) (justify left))
      )
      (property "Footprint" "" (id 2) (at 0 0 0)
        (effects (font (size 1.27 1.27)) hide)
      )
      (property "Datasheet" "~" (id 3) (at 0 0 0)
        (effects (font (size 1.27 1.27)) hide)
      )
      (property "ki_keywords" "mosfet pmos simulation" (id 4) (at 0 0 0)
        (effects (font (size 1.27 1.27)) hide)
      )
      (property "ki_description" "P-channel MOSFET symbol for simulation only" (id 5) (at 0 0 0)
        (effects (font (size 1.27 1.27)) hide)
      )
      (symbol "MPMOS_0_1"
        (polyline
          (pts
            (xy -1.27 2.54)
            (xy -1.27 -2.54)
          )
          (stroke (width 0) (type default) (color 0 0 0 0))
          (fill (type none))
        )
        (polyline
          (pts
            (xy -0.635 -2.54)
            (xy 2.54 -2.54)
          )
          (stroke (width 0) (type default) (color 0 0 0 0))
          (fill (type none))
        )
        (polyline
          (pts
            (xy 2.54 2.54)
            (xy -0.635 2.54)
          )
          (stroke (width 0) (type default) (color 0 0 0 0))
          (fill (type none))
        )
        (polyline
          (pts
            (xy 5.08 0)
            (xy -0.635 0)
          )
          (stroke (width 0) (type default) (color 0 0 0 0))
          (fill (type none))
        )
        (polyline
          (pts
            (xy 5.08 0)
            (xy 3.175 0.635)
            (xy 3.175 -0.635)
            (xy 5.08 0)
          )
          (stroke (width 0) (type default) (color 0 0 0 0))
          (fill (type outline))
        )
      )
      (symbol "MPMOS_1_1"
        (polyline
          (pts
            (xy -0.635 -2.54)
            (xy -0.635 2.54)
          )
          (stroke (width 0) (type default) (color 0 0 0 0))
          (fill (type none))
        )
        (pin passive line (at 2.54 -5.08 90) (length 2.54)
          (name "D" (effects (font (size 1.27 1.27))))
          (number "1" (effects (font (size 1.27 1.27))))
        )
        (pin input line (at -5.08 0 0) (length 3.81)
          (name "G" (effects (font (size 1.27 1.27))))
          (number "2" (effects (font (size 1.27 1.27))))
        )
        (pin passive line (at 2.54 5.08 270) (length 2.54)
          (name "S" (effects (font (size 1.27 1.27))))
          (number "3" (effects (font (size 1.27 1.27))))
        )
        (pin input line (at 5.08 5.08 270) (length 5.08)
          (name "B" (effects (font (size 1.27 1.27))))
          (number "4" (effects (font (size 1.27 1.27))))
        )
      )
    )
  )

  (junction (at 200.66 20.32) (diameter 0) (color 0 0 0 0)
    (uuid 06c71e75-e09f-4219-afd5-9e6e67627ae6)
  )
  (junction (at 140.97 22.86) (diameter 0) (color 0 0 0 0)
    (uuid 2c984ac2-767e-44f4-868d-7b98bd590220)
  )
  (junction (at 218.44 33.02) (diameter 0) (color 0 0 0 0)
    (uuid 6683fd65-1d7a-4346-82d9-8b47e3a6b10d)
  )
  (junction (at 29.21 30.48) (diameter 0) (color 0 0 0 0)
    (uuid 6f0beb23-01c0-4b73-a1ff-1f6deecabfd4)
  )
  (junction (at 168.91 22.86) (diameter 0) (color 0 0 0 0)
    (uuid bab55e30-315c-4961-8c43-1dc3f66ed42e)
  )
  (junction (at 77.47 76.2) (diameter 0) (color 0 0 0 0)
    (uuid de6a4e73-f0e7-487c-984e-32bdac1cdae0)
  )
  (junction (at 153.67 44.45) (diameter 0) (color 0 0 0 0)
    (uuid eeb0396a-9e82-4f6d-a2f0-a09d9ce590ba)
  )
  (junction (at 77.47 64.77) (diameter 0) (color 0 0 0 0)
    (uuid f35f6ff2-7b26-46ab-9042-d72e206caa23)
  )
  (junction (at 153.67 31.75) (diameter 0) (color 0 0 0 0)
    (uuid f7015b05-60b6-4621-b189-2cad47ece0b8)
  )

  (wire (pts (xy 80.01 59.69) (xy 82.55 59.69))
    (stroke (width 0) (type default) (color 0 0 0 0))
    (uuid 092c85e2-e880-4e93-851a-bef5ed7d4bbb)
  )
  (wire (pts (xy 140.97 31.75) (xy 153.67 31.75))
    (stroke (width 0) (type default) (color 0 0 0 0))
    (uuid 0ad7aa3f-d4ad-4d2e-86e1-a65cb8c7444c)
  )
  (wire (pts (xy 101.6 46.99) (xy 109.22 46.99))
    (stroke (width 0) (type default) (color 0 0 0 0))
    (uuid 14281479-3383-4511-85b3-f05050fd48be)
  )
  (wire (pts (xy 129.54 22.86) (xy 140.97 22.86))
    (stroke (width 0) (type default) (color 0 0 0 0))
    (uuid 2446140e-9b67-49ec-bccd-ab521794840e)
  )
  (wire (pts (xy 40.64 44.45) (xy 39.37 44.45))
    (stroke (width 0) (type default) (color 0 0 0 0))
    (uuid 26052a20-48f0-408b-b44d-306aafa02b40)
  )
  (wire (pts (xy 200.66 20.32) (xy 200.66 22.86))
    (stroke (width 0) (type default) (color 0 0 0 0))
    (uuid 262b3284-daae-4ce2-92c9-59b3221a37d1)
  )
  (wire (pts (xy 140.97 22.86) (xy 148.59 22.86))
    (stroke (width 0) (type default) (color 0 0 0 0))
    (uuid 26e3bd7b-ac86-4770-997e-30727e850cb8)
  )
  (wire (pts (xy 71.12 26.67) (xy 68.58 26.67))
    (stroke (width 0) (type default) (color 0 0 0 0))
    (uuid 294f9c34-0e4a-437d-96c6-c14e0c5c68b2)
  )
  (wire (pts (xy 76.2 46.99) (xy 81.28 46.99))
    (stroke (width 0) (type default) (color 0 0 0 0))
    (uuid 2a0118e3-18ff-40e2-9ca5-fd0d37d073a4)
  )
  (wire (pts (xy 39.37 44.45) (xy 39.37 30.48))
    (stroke (width 0) (type default) (color 0 0 0 0))
    (uuid 2b5888db-84b1-4ae9-b58c-9698ab12443b)
  )
  (wire (pts (xy 76.2 52.07) (xy 77.47 52.07))
    (stroke (width 0) (type default) (color 0 0 0 0))
    (uuid 41dc5b5f-3af6-4451-a598-ae2e3dd62c28)
  )
  (wire (pts (xy 77.47 52.07) (xy 77.47 64.77))
    (stroke (width 0) (type default) (color 0 0 0 0))
    (uuid 4355e6ce-a142-40ae-a8f0-50a47e85acf4)
  )
  (polyline (pts (xy 180.34 12.7) (xy 180.34 57.15))
    (stroke (width 0) (type default) (color 0 0 0 0))
    (uuid 4693e7ad-398c-4735-accd-da9a829a1e09)
  )

  (wire (pts (xy 13.97 48.26) (xy 13.97 46.99))
    (stroke (width 0) (type default) (color 0 0 0 0))
    (uuid 492150f5-5358-464d-9ca4-75a28c7fd5cf)
  )
  (wire (pts (xy 77.47 76.2) (xy 80.01 76.2))
    (stroke (width 0) (type default) (color 0 0 0 0))
    (uuid 49b27631-7dc4-4c27-9a08-e13f43e06f15)
  )
  (wire (pts (xy 92.71 76.2) (xy 95.25 76.2))
    (stroke (width 0) (type default) (color 0 0 0 0))
    (uuid 5376a037-597d-4623-ab54-f3bd463d85ef)
  )
  (wire (pts (xy 76.2 49.53) (xy 80.01 49.53))
    (stroke (width 0) (type default) (color 0 0 0 0))
    (uuid 574aa21f-3b47-4ebc-abfd-72e6eec2a95b)
  )
  (wire (pts (xy 223.52 22.86) (xy 233.68 22.86))
    (stroke (width 0) (type default) (color 0 0 0 0))
    (uuid 5ad91bd1-48b1-4c71-8c42-3e88efd715e2)
  )
  (wire (pts (xy 158.75 22.86) (xy 168.91 22.86))
    (stroke (width 0) (type default) (color 0 0 0 0))
    (uuid 5cb1391f-60e3-426a-b338-e838b5ff9a36)
  )
  (wire (pts (xy 83.82 26.67) (xy 88.9 26.67))
    (stroke (width 0) (type default) (color 0 0 0 0))
    (uuid 5e65746b-8628-4f2e-a897-95c10d61e555)
  )
  (wire (pts (xy 77.47 76.2) (xy 77.47 80.01))
    (stroke (width 0) (type default) (color 0 0 0 0))
    (uuid 6265590d-5bb4-4e96-aec6-d2eab1c0634a)
  )
  (wire (pts (xy 29.21 27.94) (xy 29.21 30.48))
    (stroke (width 0) (type default) (color 0 0 0 0))
    (uuid 62fbad10-7a58-4dfc-bdec-2c47689a71c3)
  )
  (wire (pts (xy 90.17 59.69) (xy 93.98 59.69))
    (stroke (width 0) (type default) (color 0 0 0 0))
    (uuid 64841c21-c35e-4ce5-badf-c65659777a02)
  )
  (polyline (pts (xy 119.38 12.7) (xy 119.38 87.63))
    (stroke (width 0) (type default) (color 0 0 0 0))
    (uuid 64b624c5-9b67-4c85-a580-7950fc0a4860)
  )

  (wire (pts (xy 153.67 44.45) (xy 153.67 48.26))
    (stroke (width 0) (type default) (color 0 0 0 0))
    (uuid 6bb4b04f-e7a1-4f09-9b5f-5e4291572770)
  )
  (wire (pts (xy 77.47 64.77) (xy 82.55 64.77))
    (stroke (width 0) (type default) (color 0 0 0 0))
    (uuid 6d77e46e-f144-43fd-8870-bdae5857d384)
  )
  (wire (pts (xy 80.01 49.53) (xy 80.01 59.69))
    (stroke (width 0) (type default) (color 0 0 0 0))
    (uuid 7396bcad-912f-4a5e-aa62-780eeb681c2f)
  )
  (wire (pts (xy 218.44 43.18) (xy 218.44 45.72))
    (stroke (width 0) (type default) (color 0 0 0 0))
    (uuid 763164c0-98ef-4b3a-b250-73a665ff707b)
  )
  (wire (pts (xy 88.9 46.99) (xy 93.98 46.99))
    (stroke (width 0) (type default) (color 0 0 0 0))
    (uuid 78475931-c7c5-436c-a41d-81ad4145df18)
  )
  (wire (pts (xy 218.44 33.02) (xy 218.44 35.56))
    (stroke (width 0) (type default) (color 0 0 0 0))
    (uuid 7ce2f71f-507c-47d4-baae-17bc9ab5a16c)
  )
  (wire (pts (xy 153.67 44.45) (xy 168.91 44.45))
    (stroke (width 0) (type default) (color 0 0 0 0))
    (uuid 822e1eaf-571b-4cf3-a0d1-5d9dc3867f51)
  )
  (wire (pts (xy 76.2 44.45) (xy 76.2 38.1))
    (stroke (width 0) (type default) (color 0 0 0 0))
    (uuid 82cc7bc7-04b2-4127-aaa6-b54c13268605)
  )
  (wire (pts (xy 200.66 20.32) (xy 213.36 20.32))
    (stroke (width 0) (type default) (color 0 0 0 0))
    (uuid 87194ec6-989e-429c-a1f8-7cb754dcb796)
  )
  (wire (pts (xy 77.47 64.77) (xy 77.47 76.2))
    (stroke (width 0) (type default) (color 0 0 0 0))
    (uuid 885e64f8-e67c-4f83-94c7-9c0ade1dc5b3)
  )
  (wire (pts (xy 21.59 30.48) (xy 29.21 30.48))
    (stroke (width 0) (type default) (color 0 0 0 0))
    (uuid 8f7463cf-dd14-4d18-85cf-aeaff4e2669b)
  )
  (wire (pts (xy 140.97 22.86) (xy 140.97 24.13))
    (stroke (width 0) (type default) (color 0 0 0 0))
    (uuid 95b4440a-fbbe-43a1-9705-e167090723b2)
  )
  (polyline (pts (xy 119.38 57.15) (xy 180.34 57.15))
    (stroke (width 0) (type default) (color 0 0 0 0))
    (uuid 96614564-faae-49a8-b756-d9171a350c81)
  )

  (wire (pts (xy 153.67 31.75) (xy 153.67 36.83))
    (stroke (width 0) (type default) (color 0 0 0 0))
    (uuid a7f0c3fd-c1c5-4fc2-8f02-69c3242f2b86)
  )
  (wire (pts (xy 218.44 30.48) (xy 218.44 33.02))
    (stroke (width 0) (type default) (color 0 0 0 0))
    (uuid a872bfd3-1b03-43b5-bcec-3d13d5f6bf15)
  )
  (wire (pts (xy 26.67 46.99) (xy 40.64 46.99))
    (stroke (width 0) (type default) (color 0 0 0 0))
    (uuid adfd0e76-a418-4191-858d-bc5e8658ed6a)
  )
  (wire (pts (xy 68.58 26.67) (xy 68.58 30.48))
    (stroke (width 0) (type default) (color 0 0 0 0))
    (uuid b505bb24-da6f-4fad-a897-730f4a13caa4)
  )
  (wire (pts (xy 29.21 30.48) (xy 39.37 30.48))
    (stroke (width 0) (type default) (color 0 0 0 0))
    (uuid b6728536-d919-4da0-8a12-621242dd4b72)
  )
  (wire (pts (xy 218.44 33.02) (xy 200.66 33.02))
    (stroke (width 0) (type default) (color 0 0 0 0))
    (uuid b7358b2b-30e0-4602-9907-63b08bef97aa)
  )
  (wire (pts (xy 29.21 39.37) (xy 29.21 40.64))
    (stroke (width 0) (type default) (color 0 0 0 0))
    (uuid b7518c01-e7d0-405a-9758-1b90f0c5a767)
  )
  (wire (pts (xy 168.91 22.86) (xy 172.72 22.86))
    (stroke (width 0) (type default) (color 0 0 0 0))
    (uuid b907bcbb-a9b4-4a36-b6cb-ab54995fb91a)
  )
  (polyline (pts (xy 180.34 55.88) (xy 241.3 55.88))
    (stroke (width 0) (type default) (color 0 0 0 0))
    (uuid c125b022-b14c-495c-a0f4-35f3ea8e8597)
  )

  (wire (pts (xy 76.2 38.1) (xy 91.44 38.1))
    (stroke (width 0) (type default) (color 0 0 0 0))
    (uuid c4ea04e0-361a-4676-aac9-ab951d0ccce5)
  )
  (wire (pts (xy 191.77 20.32) (xy 200.66 20.32))
    (stroke (width 0) (type default) (color 0 0 0 0))
    (uuid c68dabf5-4f2d-48fd-94fe-05a361fa2bd4)
  )
  (wire (pts (xy 29.21 30.48) (xy 29.21 31.75))
    (stroke (width 0) (type default) (color 0 0 0 0))
    (uuid cb8d0950-1359-4e93-84ab-7dbfe3d565be)
  )
  (polyline (pts (xy 12.7 87.63) (xy 119.38 87.63))
    (stroke (width 0) (type default) (color 0 0 0 0))
    (uuid ccce4134-3e5c-414f-a6a2-62a8d99d2f5d)
  )

  (wire (pts (xy 30.48 52.07) (xy 40.64 52.07))
    (stroke (width 0) (type default) (color 0 0 0 0))
    (uuid cd368607-3670-4d64-8fc8-e9a8b9909dcc)
  )
  (wire (pts (xy 153.67 30.48) (xy 153.67 31.75))
    (stroke (width 0) (type default) (color 0 0 0 0))
    (uuid d1f4522e-f9ee-4c82-857c-cd77b6cf41de)
  )
  (polyline (pts (xy 241.3 12.7) (xy 241.3 55.88))
    (stroke (width 0) (type default) (color 0 0 0 0))
    (uuid dc823455-f42e-4f03-97c8-976f7ad74991)
  )

  (wire (pts (xy 168.91 44.45) (xy 168.91 22.86))
    (stroke (width 0) (type default) (color 0 0 0 0))
    (uuid e6810060-b8c0-4bcb-b2f2-7d863f358f00)
  )
  (wire (pts (xy 101.6 59.69) (xy 109.22 59.69))
    (stroke (width 0) (type default) (color 0 0 0 0))
    (uuid e8d9a88b-9db8-4154-8d68-059b9705cc64)
  )
  (wire (pts (xy 29.21 17.78) (xy 29.21 20.32))
    (stroke (width 0) (type default) (color 0 0 0 0))
    (uuid e979f307-c4e6-4d4f-ab11-9318dfd68ec8)
  )
  (wire (pts (xy 20.32 49.53) (xy 40.64 49.53))
    (stroke (width 0) (type default) (color 0 0 0 0))
    (uuid eeb9a7f8-7b0e-4b96-9c31-a2594f014d50)
  )
  (wire (pts (xy 13.97 46.99) (xy 19.05 46.99))
    (stroke (width 0) (type default) (color 0 0 0 0))
    (uuid f70d9898-56e3-46f6-a32d-61223d4cbf02)
  )
  (wire (pts (xy 200.66 33.02) (xy 200.66 30.48))
    (stroke (width 0) (type default) (color 0 0 0 0))
    (uuid f8e49edc-35cd-404f-89f8-426182c83f97)
  )

  (text "Voltage Polarity Protection Circuit" (at 181.61 15.24 0)
    (effects (font (size 1.27 1.27)) (justify left bottom))
    (uuid 0f2d9282-2702-4702-a6f5-fca957a33d52)
  )
  (text "Power_v0.01" (at 186.69 190.5 0)
    (effects (font (size 1.27 1.27)) (justify left bottom))
    (uuid 9255d0be-32c8-4a63-bbea-901e3a81a6b6)
  )
  (text "Battery, Protection, Reverse Protection, UVLO, Regulation"
    (at 132.08 102.87 0)
    (effects (font (size 1.27 1.27)) (justify left bottom))
    (uuid ad4d3bd1-7295-4eea-a5c5-a926366f2281)
  )
  (text "Volatge Regulator" (at 120.65 15.24 0)
    (effects (font (size 1.27 1.27)) (justify left bottom))
    (uuid e6601205-2281-49dc-8b3c-18aa618858f0)
  )
  (text "TP4056 1A Standalone Linear Li-lon Battery Charger with Thermal\nRegulation in SOP-8 "
    (at 12.7 16.51 0)
    (effects (font (size 1.27 1.27)) (justify left bottom))
    (uuid e945252f-18e8-45c6-845e-33c8b8c11242)
  )

  (global_label "Vout" (shape output) (at 172.72 22.86 0) (fields_autoplaced)
    (effects (font (size 1.27 1.27)) (justify left))
    (uuid 29574dd5-64d8-4115-bd66-85d603c02cb1)
    (property "Intersheet References" "${INTERSHEET_REFS}" (id 0) (at 179.2455 22.7806 0)
      (effects (font (size 1.27 1.27)) (justify left) hide)
    )
  )
  (global_label "BAT-" (shape output) (at 95.25 76.2 0) (fields_autoplaced)
    (effects (font (size 1.27 1.27)) (justify left))
    (uuid 3a118b35-8fea-47a4-9b0d-fc850077ff46)
    (property "Intersheet References" "${INTERSHEET_REFS}" (id 0) (at 102.5617 76.1206 0)
      (effects (font (size 1.27 1.27)) (justify left) hide)
    )
  )
  (global_label "BAT-" (shape output) (at 21.59 30.48 180) (fields_autoplaced)
    (effects (font (size 1.27 1.27)) (justify right))
    (uuid 5d5cfbc1-a859-408c-aee8-9a6703975d80)
    (property "Intersheet References" "${INTERSHEET_REFS}" (id 0) (at 14.2783 30.4006 0)
      (effects (font (size 1.27 1.27)) (justify right) hide)
    )
  )
  (global_label "PIN x" (shape output) (at 191.77 20.32 180) (fields_autoplaced)
    (effects (font (size 1.27 1.27)) (justify right))
    (uuid 7d0c62c9-cdb6-455a-95e1-1c5a84175463)
    (property "Intersheet References" "${INTERSHEET_REFS}" (id 0) (at 184.1559 20.2406 0)
      (effects (font (size 1.27 1.27)) (justify right) hide)
    )
  )
  (global_label "BAT+" (shape output) (at 233.68 22.86 0) (fields_autoplaced)
    (effects (font (size 1.27 1.27)) (justify left))
    (uuid 8c991f32-4d02-4ca5-a9c6-b215bbaa554c)
    (property "Intersheet References" "${INTERSHEET_REFS}" (id 0) (at 240.9917 22.9394 0)
      (effects (font (size 1.27 1.27)) (justify left) hide)
    )
  )
  (global_label "BAT+" (shape output) (at 82.55 64.77 0) (fields_autoplaced)
    (effects (font (size 1.27 1.27)) (justify left))
    (uuid ed2a6822-79e7-40f7-8953-96fef2688432)
    (property "Intersheet References" "${INTERSHEET_REFS}" (id 0) (at 89.8617 64.6906 0)
      (effects (font (size 1.27 1.27)) (justify left) hide)
    )
  )

  (symbol (lib_id "power:+5V") (at 29.21 17.78 270) (unit 1)
    (in_bom yes) (on_board yes)
    (uuid 0a97193e-eceb-4849-ba80-ee0ced3edd37)
    (property "Reference" "#PWR?" (id 0) (at 25.4 17.78 0)
      (effects (font (size 1.27 1.27)) hide)
    )
    (property "Value" "+5V" (id 1) (at 32.4612 18.161 90)
      (effects (font (size 1.27 1.27)) (justify left))
    )
    (property "Footprint" "" (id 2) (at 29.21 17.78 0)
      (effects (font (size 1.27 1.27)) hide)
    )
    (property "Datasheet" "" (id 3) (at 29.21 17.78 0)
      (effects (font (size 1.27 1.27)) hide)
    )
    (pin "1" (uuid 5a3eb954-f1eb-4d6d-8b82-aec7cdf6e2ac))
  )

  (symbol (lib_id "Device:R") (at 22.86 46.99 90) (unit 1)
    (in_bom yes) (on_board yes) (fields_autoplaced)
    (uuid 183d0dca-e129-4d97-8db0-1236608eb25a)
    (property "Reference" "ChrgR3" (id 0) (at 22.86 40.64 90))
    (property "Value" "R" (id 1) (at 22.86 43.18 90))
    (property "Footprint" "" (id 2) (at 22.86 48.768 90)
      (effects (font (size 1.27 1.27)) hide)
    )
    (property "Datasheet" "~" (id 3) (at 22.86 46.99 0)
      (effects (font (size 1.27 1.27)) hide)
    )
    (pin "1" (uuid d51a9141-0a9a-4111-adfc-56c6144f11b3))
    (pin "2" (uuid 3dbfd1f7-b391-49fe-91c1-b8bcea648d64))
  )

  (symbol (lib_id "power:+5V") (at 109.22 46.99 270) (unit 1)
    (in_bom yes) (on_board yes)
    (uuid 22e199ed-ed4f-4848-81eb-e3bb4b0f8824)
    (property "Reference" "#PWR?" (id 0) (at 105.41 46.99 0)
      (effects (font (size 1.27 1.27)) hide)
    )
    (property "Value" "+5V" (id 1) (at 112.4712 47.371 90)
      (effects (font (size 1.27 1.27)) (justify left))
    )
    (property "Footprint" "" (id 2) (at 109.22 46.99 0)
      (effects (font (size 1.27 1.27)) hide)
    )
    (property "Datasheet" "" (id 3) (at 109.22 46.99 0)
      (effects (font (size 1.27 1.27)) hide)
    )
    (pin "1" (uuid 013d22c9-c2e7-46e8-ac6c-6b428fd52549))
  )

  (symbol (lib_id "Device:LED") (at 97.79 46.99 0) (unit 1)
    (in_bom yes) (on_board yes) (fields_autoplaced)
    (uuid 38dee1ef-5c60-49c5-bea5-98e28f147ea8)
    (property "Reference" "RedLED" (id 0) (at 96.2025 40.64 0))
    (property "Value" "LED" (id 1) (at 96.2025 43.18 0))
    (property "Footprint" "" (id 2) (at 97.79 46.99 0)
      (effects (font (size 1.27 1.27)) hide)
    )
    (property "Datasheet" "~" (id 3) (at 97.79 46.99 0)
      (effects (font (size 1.27 1.27)) hide)
    )
    (pin "1" (uuid 5983587d-33da-4253-8e0f-20700297c412))
    (pin "2" (uuid dbaefcd4-b9ed-4ce2-924d-8bd0b7d6ff1f))
  )

  (symbol (lib_id "power:GND") (at 68.58 30.48 0) (unit 1)
    (in_bom yes) (on_board yes) (fields_autoplaced)
    (uuid 39301ec0-52f4-4ccb-8e04-447bfe641209)
    (property "Reference" "#PWR?" (id 0) (at 68.58 36.83 0)
      (effects (font (size 1.27 1.27)) hide)
    )
    (property "Value" "GND" (id 1) (at 68.58 35.56 0))
    (property "Footprint" "" (id 2) (at 68.58 30.48 0)
      (effects (font (size 1.27 1.27)) hide)
    )
    (property "Datasheet" "" (id 3) (at 68.58 30.48 0)
      (effects (font (size 1.27 1.27)) hide)
    )
    (pin "1" (uuid 01c21a89-4d47-468c-9abd-92eac2c3a293))
  )

  (symbol (lib_id "pspice:C") (at 77.47 26.67 270) (mirror x) (unit 1)
    (in_bom yes) (on_board yes) (fields_autoplaced)
    (uuid 3a2c4d06-3d40-4cb7-ae67-52d5bf259522)
    (property "Reference" "ChrgC2" (id 0) (at 77.47 17.78 90))
    (property "Value" "10uF" (id 1) (at 77.47 20.32 90))
    (property "Footprint" "" (id 2) (at 77.47 26.67 0)
      (effects (font (size 1.27 1.27)) hide)
    )
    (property "Datasheet" "~" (id 3) (at 77.47 26.67 0)
      (effects (font (size 1.27 1.27)) hide)
    )
    (pin "1" (uuid 16ddd46d-e7d7-45b5-9a31-c82ebb1ff1c6))
    (pin "2" (uuid 656d4118-0bfe-4834-85c1-42a3cf39a8d3))
  )

  (symbol (lib_id "power:GND") (at 13.97 48.26 0) (unit 1)
    (in_bom yes) (on_board yes) (fields_autoplaced)
    (uuid 3c0ad9ec-2245-434c-b495-f5957c2b4364)
    (property "Reference" "#PWR?" (id 0) (at 13.97 54.61 0)
      (effects (font (size 1.27 1.27)) hide)
    )
    (property "Value" "GND" (id 1) (at 13.97 53.34 0))
    (property "Footprint" "" (id 2) (at 13.97 48.26 0)
      (effects (font (size 1.27 1.27)) hide)
    )
    (property "Datasheet" "" (id 3) (at 13.97 48.26 0)
      (effects (font (size 1.27 1.27)) hide)
    )
    (pin "1" (uuid f02d319e-1ea8-4806-9ce5-3f63b31ed577))
  )

  (symbol (lib_id "power:+5V") (at 30.48 52.07 90) (mirror x) (unit 1)
    (in_bom yes) (on_board yes)
    (uuid 43a0ff19-8ee8-4ac5-b63f-9bda8aa77d44)
    (property "Reference" "#PWR?" (id 0) (at 34.29 52.07 0)
      (effects (font (size 1.27 1.27)) hide)
    )
    (property "Value" "+5V" (id 1) (at 27.2288 52.451 90)
      (effects (font (size 1.27 1.27)) (justify left))
    )
    (property "Footprint" "" (id 2) (at 30.48 52.07 0)
      (effects (font (size 1.27 1.27)) hide)
    )
    (property "Datasheet" "" (id 3) (at 30.48 52.07 0)
      (effects (font (size 1.27 1.27)) hide)
    )
    (pin "1" (uuid 0215396e-6d31-4d1b-be6a-f1522b16d094))
  )

  (symbol (lib_id "power:GND") (at 218.44 45.72 0) (unit 1)
    (in_bom yes) (on_board yes) (fields_autoplaced)
    (uuid 4508ddaa-9a49-4c85-95d9-8850a194207a)
    (property "Reference" "#PWR?" (id 0) (at 218.44 52.07 0)
      (effects (font (size 1.27 1.27)) hide)
    )
    (property "Value" "GND" (id 1) (at 218.44 50.8 0))
    (property "Footprint" "" (id 2) (at 218.44 45.72 0)
      (effects (font (size 1.27 1.27)) hide)
    )
    (property "Datasheet" "" (id 3) (at 218.44 45.72 0)
      (effects (font (size 1.27 1.27)) hide)
    )
    (pin "1" (uuid 8c20544c-576c-4aad-929e-b65966407df5))
  )

  (symbol (lib_id "power:GND") (at 153.67 48.26 0) (unit 1)
    (in_bom yes) (on_board yes) (fields_autoplaced)
    (uuid 538c0ae4-f3a5-46c3-b6a4-ec674c4aa9c9)
    (property "Reference" "#PWR?" (id 0) (at 153.67 54.61 0)
      (effects (font (size 1.27 1.27)) hide)
    )
    (property "Value" "GND" (id 1) (at 153.67 53.34 0))
    (property "Footprint" "" (id 2) (at 153.67 48.26 0)
      (effects (font (size 1.27 1.27)) hide)
    )
    (property "Datasheet" "" (id 3) (at 153.67 48.26 0)
      (effects (font (size 1.27 1.27)) hide)
    )
    (pin "1" (uuid d0bd297a-8f16-4abb-af6f-c7c18fbea300))
  )

  (symbol (lib_id "Device:R") (at 218.44 39.37 0) (unit 1)
    (in_bom yes) (on_board yes) (fields_autoplaced)
    (uuid 727aba87-f867-4510-ab7d-6277cd94d92d)
    (property "Reference" "R?" (id 0) (at 220.98 38.0999 0)
      (effects (font (size 1.27 1.27)) (justify left))
    )
    (property "Value" "R" (id 1) (at 220.98 40.6399 0)
      (effects (font (size 1.27 1.27)) (justify left))
    )
    (property "Footprint" "" (id 2) (at 216.662 39.37 90)
      (effects (font (size 1.27 1.27)) hide)
    )
    (property "Datasheet" "~" (id 3) (at 218.44 39.37 0)
      (effects (font (size 1.27 1.27)) hide)
    )
    (pin "1" (uuid 3001fc79-0e77-40cb-b6bc-dc743f647f5d))
    (pin "2" (uuid a2adc7e4-ec90-44c6-b7fe-96a060d2d251))
  )

  (symbol (lib_id "power:GND") (at 29.21 40.64 0) (unit 1)
    (in_bom yes) (on_board yes) (fields_autoplaced)
    (uuid 75822df3-68c6-43df-9850-e4ef8258c293)
    (property "Reference" "#PWR?" (id 0) (at 29.21 46.99 0)
      (effects (font (size 1.27 1.27)) hide)
    )
    (property "Value" "GND" (id 1) (at 29.21 45.72 0))
    (property "Footprint" "" (id 2) (at 29.21 40.64 0)
      (effects (font (size 1.27 1.27)) hide)
    )
    (property "Datasheet" "" (id 3) (at 29.21 40.64 0)
      (effects (font (size 1.27 1.27)) hide)
    )
    (pin "1" (uuid cabcf4ab-f6b9-4586-af17-b6591a62bd3e))
  )

  (symbol (lib_id "Device:R") (at 85.09 46.99 90) (unit 1)
    (in_bom yes) (on_board yes) (fields_autoplaced)
    (uuid 9d0ebf3f-9b18-4826-931d-a2f72cdf7dca)
    (property "Reference" "ChrgR1" (id 0) (at 85.09 40.64 90))
    (property "Value" "1K" (id 1) (at 85.09 43.18 90))
    (property "Footprint" "" (id 2) (at 85.09 48.768 90)
      (effects (font (size 1.27 1.27)) hide)
    )
    (property "Datasheet" "~" (id 3) (at 85.09 46.99 0)
      (effects (font (size 1.27 1.27)) hide)
    )
    (pin "1" (uuid 32088c94-4090-4568-bc39-e001a9b8dc1c))
    (pin "2" (uuid 6204236f-395d-4989-93d6-a3953e8deab2))
  )

  (symbol (lib_id "Device:D_Zener") (at 153.67 40.64 270) (unit 1)
    (in_bom yes) (on_board yes) (fields_autoplaced)
    (uuid 9f2c5320-d7df-4f4f-b096-26a9b06db3c9)
    (property "Reference" "D?" (id 0) (at 156.21 39.3699 90)
      (effects (font (size 1.27 1.27)) (justify left))
    )
    (property "Value" "D_Zener" (id 1) (at 156.21 41.9099 90)
      (effects (font (size 1.27 1.27)) (justify left))
    )
    (property "Footprint" "" (id 2) (at 153.67 40.64 0)
      (effects (font (size 1.27 1.27)) hide)
    )
    (property "Datasheet" "~" (id 3) (at 153.67 40.64 0)
      (effects (font (size 1.27 1.27)) hide)
    )
    (pin "1" (uuid a3826a70-3e7b-4c7f-96ff-c3c29dfe9658))
    (pin "2" (uuid a1058137-5052-4900-aa24-c19a7f9e9083))
  )

  (symbol (lib_id "Device:R") (at 86.36 59.69 90) (unit 1)
    (in_bom yes) (on_board yes) (fields_autoplaced)
    (uuid a238f090-f325-4492-a852-8ea1be494870)
    (property "Reference" "ChrgR2" (id 0) (at 86.36 53.34 90))
    (property "Value" "1K" (id 1) (at 86.36 55.88 90))
    (property "Footprint" "" (id 2) (at 86.36 61.468 90)
      (effects (font (size 1.27 1.27)) hide)
    )
    (property "Datasheet" "~" (id 3) (at 86.36 59.69 0)
      (effects (font (size 1.27 1.27)) hide)
    )
    (pin "1" (uuid b8743449-b1e3-4d96-bdf6-30a31be7795a))
    (pin "2" (uuid 2561c756-68c6-4c8f-8e8e-e97f64121ce6))
  )

  (symbol (lib_id "power:GND") (at 77.47 80.01 0) (unit 1)
    (in_bom yes) (on_board yes) (fields_autoplaced)
    (uuid a67e1ce0-77ce-4ae7-9a43-8a0c81fa2e96)
    (property "Reference" "#PWR?" (id 0) (at 77.47 86.36 0)
      (effects (font (size 1.27 1.27)) hide)
    )
    (property "Value" "GND" (id 1) (at 77.47 85.09 0))
    (property "Footprint" "" (id 2) (at 77.47 80.01 0)
      (effects (font (size 1.27 1.27)) hide)
    )
    (property "Datasheet" "" (id 3) (at 77.47 80.01 0)
      (effects (font (size 1.27 1.27)) hide)
    )
    (pin "1" (uuid 4047f716-3769-47c9-a63b-782127a9a526))
  )

  (symbol (lib_id "Device:D_Zener") (at 200.66 26.67 270) (unit 1)
    (in_bom yes) (on_board yes) (fields_autoplaced)
    (uuid aa6c1a19-6356-4f7c-85f4-88ba722ad048)
    (property "Reference" "D?" (id 0) (at 203.2 25.3999 90)
      (effects (font (size 1.27 1.27)) (justify left))
    )
    (property "Value" "D_Zener" (id 1) (at 203.2 27.9399 90)
      (effects (font (size 1.27 1.27)) (justify left))
    )
    (property "Footprint" "" (id 2) (at 200.66 26.67 0)
      (effects (font (size 1.27 1.27)) hide)
    )
    (property "Datasheet" "~" (id 3) (at 200.66 26.67 0)
      (effects (font (size 1.27 1.27)) hide)
    )
    (pin "1" (uuid 1406860a-9dbf-436b-be7b-d3b04b6888ca))
    (pin "2" (uuid 350160f0-7417-439a-b27f-a2b8ff5aa420))
  )

  (symbol (lib_id "power:+5V") (at 129.54 22.86 90) (unit 1)
    (in_bom yes) (on_board yes)
    (uuid aaf2b135-fd4e-4859-af2c-b1a1c8075ed2)
    (property "Reference" "#PWR?" (id 0) (at 133.35 22.86 0)
      (effects (font (size 1.27 1.27)) hide)
    )
    (property "Value" "+5V" (id 1) (at 126.2888 22.479 90)
      (effects (font (size 1.27 1.27)) (justify left))
    )
    (property "Footprint" "" (id 2) (at 129.54 22.86 0)
      (effects (font (size 1.27 1.27)) hide)
    )
    (property "Datasheet" "" (id 3) (at 129.54 22.86 0)
      (effects (font (size 1.27 1.27)) hide)
    )
    (pin "1" (uuid f42ca384-79b7-41e3-b215-ef7aa391f70a))
  )

  (symbol (lib_id "Device:R") (at 29.21 35.56 0) (unit 1)
    (in_bom yes) (on_board yes) (fields_autoplaced)
    (uuid af49235d-38c2-4212-ac0a-6b7c9f086a30)
    (property "Reference" "ChrgR5" (id 0) (at 31.75 34.2899 0)
      (effects (font (size 1.27 1.27)) (justify left))
    )
    (property "Value" "R" (id 1) (at 31.75 36.8299 0)
      (effects (font (size 1.27 1.27)) (justify left))
    )
    (property "Footprint" "" (id 2) (at 27.432 35.56 90)
      (effects (font (size 1.27 1.27)) hide)
    )
    (property "Datasheet" "~" (id 3) (at 29.21 35.56 0)
      (effects (font (size 1.27 1.27)) hide)
    )
    (pin "1" (uuid 112aad28-9c7c-415c-b902-6f17359e3c3d))
    (pin "2" (uuid c0e6e831-6a90-4d3e-af35-b19b6a9faa4b))
  )

  (symbol (lib_id "Device:LED") (at 97.79 59.69 0) (unit 1)
    (in_bom yes) (on_board yes) (fields_autoplaced)
    (uuid b0b72470-6660-4c72-aa44-4d5639129975)
    (property "Reference" "GreenLED" (id 0) (at 96.2025 53.34 0))
    (property "Value" "LED" (id 1) (at 96.2025 55.88 0))
    (property "Footprint" "" (id 2) (at 97.79 59.69 0)
      (effects (font (size 1.27 1.27)) hide)
    )
    (property "Datasheet" "~" (id 3) (at 97.79 59.69 0)
      (effects (font (size 1.27 1.27)) hide)
    )
    (pin "1" (uuid d49e5827-9187-4ea1-afdc-94d8db105015))
    (pin "2" (uuid 4e7e5fe9-9195-44d7-87a8-93f5065b082e))
  )

  (symbol (lib_id "power:+5V") (at 88.9 26.67 270) (unit 1)
    (in_bom yes) (on_board yes)
    (uuid b9a1c31e-c82e-47e7-a1cd-aaf9df54ba04)
    (property "Reference" "#PWR?" (id 0) (at 85.09 26.67 0)
      (effects (font (size 1.27 1.27)) hide)
    )
    (property "Value" "+5V" (id 1) (at 92.1512 27.051 90)
      (effects (font (size 1.27 1.27)) (justify left))
    )
    (property "Footprint" "" (id 2) (at 88.9 26.67 0)
      (effects (font (size 1.27 1.27)) hide)
    )
    (property "Datasheet" "" (id 3) (at 88.9 26.67 0)
      (effects (font (size 1.27 1.27)) hide)
    )
    (pin "1" (uuid b06d552c-a77d-41c3-ac40-aed7734746a0))
  )

  (symbol (lib_id "pspice:MPMOS") (at 218.44 25.4 90) (unit 1)
    (in_bom yes) (on_board yes)
    (uuid ba63daf3-ab8c-4257-b762-962b8a9c1c55)
    (property "Reference" "M?" (id 0) (at 220.98 15.24 90))
    (property "Value" "MPMOS" (id 1) (at 220.98 17.78 90))
    (property "Footprint" "" (id 2) (at 218.44 25.4 0)
      (effects (font (size 1.27 1.27)) hide)
    )
    (property "Datasheet" "~" (id 3) (at 218.44 25.4 0)
      (effects (font (size 1.27 1.27)) hide)
    )
    (pin "1" (uuid e55693e2-b64b-4367-8733-63ed51d67996))
    (pin "2" (uuid 454a13e5-16e0-4056-af57-ed63ffe7e5c9))
    (pin "3" (uuid 215eaade-ceab-4751-8b8b-6dc3abf007a9))
    (pin "4" (uuid bb9843ae-1bb2-43a7-bbb5-5a96ded5bf2f))
  )

  (symbol (lib_id "Device:R") (at 140.97 27.94 0) (unit 1)
    (in_bom yes) (on_board yes)
    (uuid c6097820-f33c-47d0-bc18-1a50aabb767a)
    (property "Reference" "VoltReg1" (id 0) (at 142.24 26.67 0)
      (effects (font (size 1.27 1.27)) (justify left))
    )
    (property "Value" "R" (id 1) (at 142.24 29.21 0)
      (effects (font (size 1.27 1.27)) (justify left))
    )
    (property "Footprint" "" (id 2) (at 139.192 27.94 90)
      (effects (font (size 1.27 1.27)) hide)
    )
    (property "Datasheet" "~" (id 3) (at 140.97 27.94 0)
      (effects (font (size 1.27 1.27)) hide)
    )
    (pin "1" (uuid ffd27cc1-4b77-496c-88e9-ef810734ff39))
    (pin "2" (uuid abd4336d-bbd0-40c0-9398-d5b3cb47d8f4))
  )

  (symbol (lib_id "Device:R") (at 29.21 24.13 0) (unit 1)
    (in_bom yes) (on_board yes) (fields_autoplaced)
    (uuid c9753921-7e1a-4cee-9fc2-4b1c1b8166c3)
    (property "Reference" "ChrgR4" (id 0) (at 31.75 22.8599 0)
      (effects (font (size 1.27 1.27)) (justify left))
    )
    (property "Value" "R" (id 1) (at 31.75 25.3999 0)
      (effects (font (size 1.27 1.27)) (justify left))
    )
    (property "Footprint" "" (id 2) (at 27.432 24.13 90)
      (effects (font (size 1.27 1.27)) hide)
    )
    (property "Datasheet" "~" (id 3) (at 29.21 24.13 0)
      (effects (font (size 1.27 1.27)) hide)
    )
    (pin "1" (uuid 1300424e-6041-42c3-8b5e-e32d26b15415))
    (pin "2" (uuid 3fc38021-d9df-404b-b636-9f8b49fb4b3d))
  )

  (symbol (lib_id "pspice:C") (at 86.36 76.2 90) (unit 1)
    (in_bom yes) (on_board yes)
    (uuid cafef3dd-f743-4f9d-926e-ab2162771b8e)
    (property "Reference" "ChrgC1" (id 0) (at 86.36 68.58 90))
    (property "Value" "10uF" (id 1) (at 86.36 71.12 90))
    (property "Footprint" "" (id 2) (at 86.36 76.2 0)
      (effects (font (size 1.27 1.27)) hide)
    )
    (property "Datasheet" "~" (id 3) (at 86.36 76.2 0)
      (effects (font (size 1.27 1.27)) hide)
    )
    (pin "1" (uuid 8ca7a02a-26f6-4f07-98c6-ea95c90817b0))
    (pin "2" (uuid b3cc80be-309a-4bc0-b2ee-8629181fb266))
  )

  (symbol (lib_id "power:GND") (at 20.32 49.53 0) (unit 1)
    (in_bom yes) (on_board yes) (fields_autoplaced)
    (uuid dcaf04fe-8735-49fa-8f70-2a19dc97e0a5)
    (property "Reference" "#PWR?" (id 0) (at 20.32 55.88 0)
      (effects (font (size 1.27 1.27)) hide)
    )
    (property "Value" "GND" (id 1) (at 20.32 54.61 0))
    (property "Footprint" "" (id 2) (at 20.32 49.53 0)
      (effects (font (size 1.27 1.27)) hide)
    )
    (property "Datasheet" "" (id 3) (at 20.32 49.53 0)
      (effects (font (size 1.27 1.27)) hide)
    )
    (pin "1" (uuid 858d9f40-43f1-43f4-8a00-cd120c068f22))
  )

  (symbol (lib_id "power:+5V") (at 109.22 59.69 270) (unit 1)
    (in_bom yes) (on_board yes)
    (uuid e3e286ec-6a28-4346-96fd-9ad88f86da92)
    (property "Reference" "#PWR?" (id 0) (at 105.41 59.69 0)
      (effects (font (size 1.27 1.27)) hide)
    )
    (property "Value" "+5V" (id 1) (at 112.4712 60.071 90)
      (effects (font (size 1.27 1.27)) (justify left))
    )
    (property "Footprint" "" (id 2) (at 109.22 59.69 0)
      (effects (font (size 1.27 1.27)) hide)
    )
    (property "Datasheet" "" (id 3) (at 109.22 59.69 0)
      (effects (font (size 1.27 1.27)) hide)
    )
    (pin "1" (uuid 162ee1c8-fea4-4d5f-8e88-05c47030b834))
  )

  (symbol (lib_id "TP4056:TP4056") (at 40.64 44.45 0) (unit 1)
    (in_bom yes) (on_board yes) (fields_autoplaced)
    (uuid e49de9a1-b419-40d7-af4d-bc001d074cf8)
    (property "Reference" "J?" (id 0) (at 58.42 36.83 0))
    (property "Value" "TP4056" (id 1) (at 58.42 39.37 0))
    (property "Footprint" "SOIC127P600X175-9N" (id 2) (at 72.39 41.91 0)
      (effects (font (size 1.27 1.27)) (justify left) hide)
    )
    (property "Datasheet" "https://dlnmh9ip6v2uc.cloudfront.net/datasheets/Prototyping/TP4056.pdf" (id 3) (at 72.39 44.45 0)
      (effects (font (size 1.27 1.27)) (justify left) hide)
    )
    (property "Description" "1A Standalone Linear Li-lon Battery Charger, SOP-8" (id 4) (at 72.39 46.99 0)
      (effects (font (size 1.27 1.27)) (justify left) hide)
    )
    (property "Height" "1.75" (id 5) (at 72.39 49.53 0)
      (effects (font (size 1.27 1.27)) (justify left) hide)
    )
    (property "Manufacturer_Name" "NanJing Top Power" (id 6) (at 72.39 52.07 0)
      (effects (font (size 1.27 1.27)) (justify left) hide)
    )
    (property "Manufacturer_Part_Number" "TP4056" (id 7) (at 72.39 54.61 0)
      (effects (font (size 1.27 1.27)) (justify left) hide)
    )
    (property "Mouser Part Number" "" (id 8) (at 72.39 57.15 0)
      (effects (font (size 1.27 1.27)) (justify left) hide)
    )
    (property "Mouser Price/Stock" "" (id 9) (at 72.39 59.69 0)
      (effects (font (size 1.27 1.27)) (justify left) hide)
    )
    (property "Arrow Part Number" "" (id 10) (at 72.39 62.23 0)
      (effects (font (size 1.27 1.27)) (justify left) hide)
    )
    (property "Arrow Price/Stock" "" (id 11) (at 72.39 64.77 0)
      (effects (font (size 1.27 1.27)) (justify left) hide)
    )
    (pin "1" (uuid 5c5bab0e-efcd-41ee-b109-5bbff55ffbba))
    (pin "2" (uuid 48a73e12-5fe7-4684-b361-650d52324319))
    (pin "3" (uuid 6f7c3a66-5097-44f2-adef-70ecc418ad02))
    (pin "4" (uuid af155ba9-4794-4bb0-91ad-7bc6e33ac04d))
    (pin "5" (uuid a04bd9fb-b85d-47b8-b8c5-e2fecec868cb))
    (pin "6" (uuid 84872c81-1a5f-4e4e-a82e-016c559061bc))
    (pin "7" (uuid 83f536d7-abc8-465c-836d-5dc8c85d82f2))
    (pin "8" (uuid 6bebbd40-40b3-4065-9121-df87fe5087d2))
    (pin "9" (uuid 76cbbfd4-e84c-476c-bf10-bb8462c0a70f))
  )

  (symbol (lib_id "power:+5V") (at 91.44 38.1 270) (unit 1)
    (in_bom yes) (on_board yes)
    (uuid f9b0ed48-0e4a-4c7f-80b6-373c44208074)
    (property "Reference" "#PWR?" (id 0) (at 87.63 38.1 0)
      (effects (font (size 1.27 1.27)) hide)
    )
    (property "Value" "+5V" (id 1) (at 94.6912 38.481 90)
      (effects (font (size 1.27 1.27)) (justify left))
    )
    (property "Footprint" "" (id 2) (at 91.44 38.1 0)
      (effects (font (size 1.27 1.27)) hide)
    )
    (property "Datasheet" "" (id 3) (at 91.44 38.1 0)
      (effects (font (size 1.27 1.27)) hide)
    )
    (pin "1" (uuid 69c05529-a8ab-4f73-8a86-5513097b3ea4))
  )

  (symbol (lib_id "Device:Q_NPN_BCE") (at 153.67 25.4 90) (unit 1)
    (in_bom yes) (on_board yes) (fields_autoplaced)
    (uuid fbfc598c-b23d-4649-b573-7d99f3b8a121)
    (property "Reference" "Q1" (id 0) (at 153.67 16.51 90))
    (property "Value" "Q_NPN_BCE" (id 1) (at 153.67 19.05 90))
    (property "Footprint" "" (id 2) (at 151.13 20.32 0)
      (effects (font (size 1.27 1.27)) hide)
    )
    (property "Datasheet" "~" (id 3) (at 153.67 25.4 0)
      (effects (font (size 1.27 1.27)) hide)
    )
    (pin "1" (uuid 23023402-7d67-48a7-9792-4e2e1b0e189c))
    (pin "2" (uuid c6b4c1ab-3047-4142-b1ae-023901b3bf3b))
    (pin "3" (uuid 2beabcab-5d78-4ea8-a702-5bf08548c189))
  )

  (sheet_instances
    (path "/" (page "1"))
  )

  (symbol_instances
    (path "/da25bf79-0abb-4fac-a221-ca5c574dfc29"
      (reference "Y?") (unit 1) (value "Resonator") (footprint "")
    )
  )
)
