(kicad_sch (version 20211123) (generator eeschema)

  (uuid ae78189d-79c7-41a0-b77c-3bb766898352)

  (paper "A4")

  (lib_symbols
    (symbol "Device:LED" (pin_numbers hide) (pin_names (offset 1.016) hide) (in_bom yes) (on_board yes)
      (property "Reference" "D" (id 0) (at 0 2.54 0)
        (effects (font (size 1.27 1.27)))
      )
      (property "Value" "LED" (id 1) (at 0 -2.54 0)
        (effects (font (size 1.27 1.27)))
      )
      (property "Footprint" "" (id 2) (at 0 0 0)
        (effects (font (size 1.27 1.27)) hide)
      )
      (property "Datasheet" "~" (id 3) (at 0 0 0)
        (effects (font (size 1.27 1.27)) hide)
      )
      (property "ki_keywords" "LED diode" (id 4) (at 0 0 0)
        (effects (font (size 1.27 1.27)) hide)
      )
      (property "ki_description" "Light emitting diode" (id 5) (at 0 0 0)
        (effects (font (size 1.27 1.27)) hide)
      )
      (property "ki_fp_filters" "LED* LED_SMD:* LED_THT:*" (id 6) (at 0 0 0)
        (effects (font (size 1.27 1.27)) hide)
      )
      (symbol "LED_0_1"
        (polyline
          (pts
            (xy -1.27 -1.27)
            (xy -1.27 1.27)
          )
          (stroke (width 0.254) (type default) (color 0 0 0 0))
          (fill (type none))
        )
        (polyline
          (pts
            (xy -1.27 0)
            (xy 1.27 0)
          )
          (stroke (width 0) (type default) (color 0 0 0 0))
          (fill (type none))
        )
        (polyline
          (pts
            (xy 1.27 -1.27)
            (xy 1.27 1.27)
            (xy -1.27 0)
            (xy 1.27 -1.27)
          )
          (stroke (width 0.254) (type default) (color 0 0 0 0))
          (fill (type none))
        )
        (polyline
          (pts
            (xy -3.048 -0.762)
            (xy -4.572 -2.286)
            (xy -3.81 -2.286)
            (xy -4.572 -2.286)
            (xy -4.572 -1.524)
          )
          (stroke (width 0) (type default) (color 0 0 0 0))
          (fill (type none))
        )
        (polyline
          (pts
            (xy -1.778 -0.762)
            (xy -3.302 -2.286)
            (xy -2.54 -2.286)
            (xy -3.302 -2.286)
            (xy -3.302 -1.524)
          )
          (stroke (width 0) (type default) (color 0 0 0 0))
          (fill (type none))
        )
      )
      (symbol "LED_1_1"
        (pin passive line (at -3.81 0 0) (length 2.54)
          (name "K" (effects (font (size 1.27 1.27))))
          (number "1" (effects (font (size 1.27 1.27))))
        )
        (pin passive line (at 3.81 0 180) (length 2.54)
          (name "A" (effects (font (size 1.27 1.27))))
          (number "2" (effects (font (size 1.27 1.27))))
        )
      )
    )
    (symbol "Device:R_Small_US" (pin_numbers hide) (pin_names (offset 0.254) hide) (in_bom yes) (on_board yes)
      (property "Reference" "R" (id 0) (at 0.762 0.508 0)
        (effects (font (size 1.27 1.27)) (justify left))
      )
      (property "Value" "R_Small_US" (id 1) (at 0.762 -1.016 0)
        (effects (font (size 1.27 1.27)) (justify left))
      )
      (property "Footprint" "" (id 2) (at 0 0 0)
        (effects (font (size 1.27 1.27)) hide)
      )
      (property "Datasheet" "~" (id 3) (at 0 0 0)
        (effects (font (size 1.27 1.27)) hide)
      )
      (property "ki_keywords" "r resistor" (id 4) (at 0 0 0)
        (effects (font (size 1.27 1.27)) hide)
      )
      (property "ki_description" "Resistor, small US symbol" (id 5) (at 0 0 0)
        (effects (font (size 1.27 1.27)) hide)
      )
      (property "ki_fp_filters" "R_*" (id 6) (at 0 0 0)
        (effects (font (size 1.27 1.27)) hide)
      )
      (symbol "R_Small_US_1_1"
        (polyline
          (pts
            (xy 0 0)
            (xy 1.016 -0.381)
            (xy 0 -0.762)
            (xy -1.016 -1.143)
            (xy 0 -1.524)
          )
          (stroke (width 0) (type default) (color 0 0 0 0))
          (fill (type none))
        )
        (polyline
          (pts
            (xy 0 1.524)
            (xy 1.016 1.143)
            (xy 0 0.762)
            (xy -1.016 0.381)
            (xy 0 0)
          )
          (stroke (width 0) (type default) (color 0 0 0 0))
          (fill (type none))
        )
        (pin passive line (at 0 2.54 270) (length 1.016)
          (name "~" (effects (font (size 1.27 1.27))))
          (number "1" (effects (font (size 1.27 1.27))))
        )
        (pin passive line (at 0 -2.54 90) (length 1.016)
          (name "~" (effects (font (size 1.27 1.27))))
          (number "2" (effects (font (size 1.27 1.27))))
        )
      )
    )
    (symbol "EEE3088_Library:ADXL345BCCZ-RL7" (pin_names (offset 0.762)) (in_bom yes) (on_board yes)
      (property "Reference" "AC?" (id 0) (at 27.4194 20.32 0)
        (effects (font (size 1.27 1.27)) (justify left))
      )
      (property "Value" "ADXL345BCCZ-RL7" (id 1) (at 27.4194 17.78 0)
        (effects (font (size 1.27 1.27)) (justify left))
      )
      (property "Footprint" "CC-14-1" (id 2) (at 46.99 15.24 0)
        (effects (font (size 1.27 1.27)) (justify left) hide)
      )
      (property "Datasheet" "https://www.analog.com/media/en/technical-documentation/data-sheets/ADXL345.pdf" (id 3) (at 46.99 12.7 0)
        (effects (font (size 1.27 1.27)) (justify left) hide)
      )
      (property "Description" "ADXL345BCCZ-RL7 Analog Devices, 3-Axis Accelerometer, I2C, SPI, 14-Pin LGA" (id 4) (at 46.99 10.16 0)
        (effects (font (size 1.27 1.27)) (justify left) hide)
      )
      (property "Height" "" (id 5) (at 46.99 7.62 0)
        (effects (font (size 1.27 1.27)) (justify left) hide)
      )
      (property "Manufacturer_Name" "Analog Devices" (id 6) (at 46.99 5.08 0)
        (effects (font (size 1.27 1.27)) (justify left) hide)
      )
      (property "Manufacturer_Part_Number" "ADXL345BCCZ-RL7" (id 7) (at 46.99 2.54 0)
        (effects (font (size 1.27 1.27)) (justify left) hide)
      )
      (property "Mouser Part Number" "584-ADXL345BCCZ-R7" (id 8) (at 46.99 0 0)
        (effects (font (size 1.27 1.27)) (justify left) hide)
      )
      (property "Mouser Price/Stock" "https://www.mouser.co.uk/ProductDetail/Analog-Devices/ADXL345BCCZ-RL7?qs=WIvQP4zGaninp9Gc%252BCsJzQ%3D%3D" (id 9) (at 46.99 -2.54 0)
        (effects (font (size 1.27 1.27)) (justify left) hide)
      )
      (property "Arrow Part Number" "ADXL345BCCZ-RL7" (id 10) (at 46.99 -5.08 0)
        (effects (font (size 1.27 1.27)) (justify left) hide)
      )
      (property "Arrow Price/Stock" "https://www.arrow.com/en/products/adxl345bccz-rl7/analog-devices?region=nac" (id 11) (at 46.99 -7.62 0)
        (effects (font (size 1.27 1.27)) (justify left) hide)
      )
      (property "ki_description" "ADXL345BCCZ-RL7 Analog Devices, 3-Axis Accelerometer, I2C, SPI, 14-Pin LGA" (id 12) (at 0 0 0)
        (effects (font (size 1.27 1.27)) hide)
      )
      (symbol "ADXL345BCCZ-RL7_0_0"
        (pin passive line (at 0 0 0) (length 5.08)
          (name "VDD_I/O" (effects (font (size 1.27 1.27))))
          (number "1" (effects (font (size 1.27 1.27))))
        )
        (pin no_connect line (at 50.8 -7.62 180) (length 5.08)
          (name "NC" (effects (font (size 1.27 1.27))))
          (number "10" (effects (font (size 1.27 1.27))))
        )
        (pin passive line (at 50.8 -5.08 180) (length 5.08)
          (name "RESERVED_2" (effects (font (size 1.27 1.27))))
          (number "11" (effects (font (size 1.27 1.27))))
        )
        (pin passive line (at 50.8 -2.54 180) (length 5.08)
          (name "SDO/ALT_ADDRESS" (effects (font (size 1.27 1.27))))
          (number "12" (effects (font (size 1.27 1.27))))
        )
        (pin passive line (at 50.8 0 180) (length 5.08)
          (name "SDA/SDI/SDIO" (effects (font (size 1.27 1.27))))
          (number "13" (effects (font (size 1.27 1.27))))
        )
        (pin passive line (at 25.4 20.32 270) (length 5.08)
          (name "SCL/SCLK" (effects (font (size 1.27 1.27))))
          (number "14" (effects (font (size 1.27 1.27))))
        )
        (pin passive line (at 0 -2.54 0) (length 5.08)
          (name "GND_1" (effects (font (size 1.27 1.27))))
          (number "2" (effects (font (size 1.27 1.27))))
        )
        (pin passive line (at 0 -5.08 0) (length 5.08)
          (name "RESERVED_1" (effects (font (size 1.27 1.27))))
          (number "3" (effects (font (size 1.27 1.27))))
        )
        (pin passive line (at 0 -7.62 0) (length 5.08)
          (name "GND_2" (effects (font (size 1.27 1.27))))
          (number "4" (effects (font (size 1.27 1.27))))
        )
        (pin passive line (at 0 -10.16 0) (length 5.08)
          (name "GND_3" (effects (font (size 1.27 1.27))))
          (number "5" (effects (font (size 1.27 1.27))))
        )
        (pin passive line (at 0 -12.7 0) (length 5.08)
          (name "VS" (effects (font (size 1.27 1.27))))
          (number "6" (effects (font (size 1.27 1.27))))
        )
        (pin passive line (at 25.4 -27.94 90) (length 5.08)
          (name "~{CS}" (effects (font (size 1.27 1.27))))
          (number "7" (effects (font (size 1.27 1.27))))
        )
        (pin passive line (at 50.8 -12.7 180) (length 5.08)
          (name "INT1" (effects (font (size 1.27 1.27))))
          (number "8" (effects (font (size 1.27 1.27))))
        )
        (pin passive line (at 50.8 -10.16 180) (length 5.08)
          (name "INT2" (effects (font (size 1.27 1.27))))
          (number "9" (effects (font (size 1.27 1.27))))
        )
      )
      (symbol "ADXL345BCCZ-RL7_0_1"
        (polyline
          (pts
            (xy 5.08 15.24)
            (xy 45.72 15.24)
            (xy 45.72 -22.86)
            (xy 5.08 -22.86)
            (xy 5.08 15.24)
          )
          (stroke (width 0.1524) (type default) (color 0 0 0 0))
          (fill (type background))
        )
      )
    )
    (symbol "EEE3088_Library:Vibration_Sensor" (in_bom yes) (on_board yes)
      (property "Reference" "T" (id 0) (at 0 -5.08 0)
        (effects (font (size 1.27 1.27)))
      )
      (property "Value" "Vibration_Sensor" (id 1) (at 0 -8.89 0)
        (effects (font (size 1.27 1.27)))
      )
      (property "Footprint" "" (id 2) (at 0 0 0)
        (effects (font (size 1.27 1.27)) hide)
      )
      (property "Datasheet" "" (id 3) (at 0 0 0)
        (effects (font (size 1.27 1.27)) hide)
      )
      (symbol "Vibration_Sensor_0_1"
        (rectangle (start 7.62 -7.62) (end -7.62 -2.54)
          (stroke (width 0) (type default) (color 0 0 0 0))
          (fill (type background))
        )
      )
      (symbol "Vibration_Sensor_1_1"
        (pin input line (at -10.16 -3.81 0) (length 2.54)
          (name "IN" (effects (font (size 1.27 1.27))))
          (number "1" (effects (font (size 1.27 1.27))))
        )
        (pin bidirectional line (at -10.16 -6.35 0) (length 2.54)
          (name "OUT" (effects (font (size 1.27 1.27))))
          (number "2" (effects (font (size 1.27 1.27))))
        )
      )
    )
    (symbol "power:+3.3V" (power) (pin_names (offset 0)) (in_bom yes) (on_board yes)
      (property "Reference" "#PWR" (id 0) (at 0 -3.81 0)
        (effects (font (size 1.27 1.27)) hide)
      )
      (property "Value" "+3.3V" (id 1) (at 0 3.556 0)
        (effects (font (size 1.27 1.27)))
      )
      (property "Footprint" "" (id 2) (at 0 0 0)
        (effects (font (size 1.27 1.27)) hide)
      )
      (property "Datasheet" "" (id 3) (at 0 0 0)
        (effects (font (size 1.27 1.27)) hide)
      )
      (property "ki_keywords" "power-flag" (id 4) (at 0 0 0)
        (effects (font (size 1.27 1.27)) hide)
      )
      (property "ki_description" "Power symbol creates a global label with name \"+3.3V\"" (id 5) (at 0 0 0)
        (effects (font (size 1.27 1.27)) hide)
      )
      (symbol "+3.3V_0_1"
        (polyline
          (pts
            (xy -0.762 1.27)
            (xy 0 2.54)
          )
          (stroke (width 0) (type default) (color 0 0 0 0))
          (fill (type none))
        )
        (polyline
          (pts
            (xy 0 0)
            (xy 0 2.54)
          )
          (stroke (width 0) (type default) (color 0 0 0 0))
          (fill (type none))
        )
        (polyline
          (pts
            (xy 0 2.54)
            (xy 0.762 1.27)
          )
          (stroke (width 0) (type default) (color 0 0 0 0))
          (fill (type none))
        )
      )
      (symbol "+3.3V_1_1"
        (pin power_in line (at 0 0 90) (length 0) hide
          (name "+3V3" (effects (font (size 1.27 1.27))))
          (number "1" (effects (font (size 1.27 1.27))))
        )
      )
    )
    (symbol "power:GND" (power) (pin_names (offset 0)) (in_bom yes) (on_board yes)
      (property "Reference" "#PWR" (id 0) (at 0 -6.35 0)
        (effects (font (size 1.27 1.27)) hide)
      )
      (property "Value" "GND" (id 1) (at 0 -3.81 0)
        (effects (font (size 1.27 1.27)))
      )
      (property "Footprint" "" (id 2) (at 0 0 0)
        (effects (font (size 1.27 1.27)) hide)
      )
      (property "Datasheet" "" (id 3) (at 0 0 0)
        (effects (font (size 1.27 1.27)) hide)
      )
      (property "ki_keywords" "power-flag" (id 4) (at 0 0 0)
        (effects (font (size 1.27 1.27)) hide)
      )
      (property "ki_description" "Power symbol creates a global label with name \"GND\" , ground" (id 5) (at 0 0 0)
        (effects (font (size 1.27 1.27)) hide)
      )
      (symbol "GND_0_1"
        (polyline
          (pts
            (xy 0 0)
            (xy 0 -1.27)
            (xy 1.27 -1.27)
            (xy 0 -2.54)
            (xy -1.27 -1.27)
            (xy 0 -1.27)
          )
          (stroke (width 0) (type default) (color 0 0 0 0))
          (fill (type none))
        )
      )
      (symbol "GND_1_1"
        (pin power_in line (at 0 0 270) (length 0) hide
          (name "GND" (effects (font (size 1.27 1.27))))
          (number "1" (effects (font (size 1.27 1.27))))
        )
      )
    )
  )

  (junction (at 81.28 52.07) (diameter 0) (color 0 0 0 0)
    (uuid 04d830c0-6812-4c62-9f90-98f1c234297c)
  )
  (junction (at 24.13 39.37) (diameter 0) (color 0 0 0 0)
    (uuid 5f4fc5b2-13e2-4c23-83e3-88c1242bfce9)
  )
  (junction (at 81.28 54.61) (diameter 0) (color 0 0 0 0)
    (uuid b82d2b77-ad0f-445f-82dd-d2e04d370a46)
  )

  (no_connect (at 100.33 44.45) (uuid 105bfe58-8b7c-45b6-8ea9-a4efaeaa17a1))
  (no_connect (at 100.33 49.53) (uuid 750f8582-8bfb-4016-97e2-72f889f28164))
  (no_connect (at 151.13 54.61) (uuid aea14d64-1431-48a6-8b32-fa8de9578f8f))
  (no_connect (at 151.13 57.15) (uuid aea14d64-1431-48a6-8b32-fa8de9578f8f))
  (no_connect (at 151.13 49.53) (uuid aea14d64-1431-48a6-8b32-fa8de9578f8f))
  (no_connect (at 125.73 72.39) (uuid aea14d64-1431-48a6-8b32-fa8de9578f8f))
  (no_connect (at 125.73 24.13) (uuid aea14d64-1431-48a6-8b32-fa8de9578f8f))

  (polyline (pts (xy 68.58 20.32) (xy 68.58 77.47))
    (stroke (width 0) (type default) (color 0 0 0 0))
    (uuid 0468a65f-7040-4c1f-8767-32d239f24f9b)
  )
  (polyline (pts (xy 198.12 20.32) (xy 180.34 20.32))
    (stroke (width 0) (type default) (color 0 0 0 0))
    (uuid 2269127d-4420-4ccb-b213-09ea6e531e87)
  )

  (wire (pts (xy 81.28 46.99) (xy 81.28 52.07))
    (stroke (width 0) (type default) (color 0 0 0 0))
    (uuid 34e33af2-bf11-4378-8f73-d671527fa30c)
  )
  (wire (pts (xy 24.13 39.37) (xy 24.13 43.18))
    (stroke (width 0) (type default) (color 0 0 0 0))
    (uuid 39ed0671-8565-44cb-ba45-ef009152e16d)
  )
  (wire (pts (xy 81.28 54.61) (xy 81.28 63.5))
    (stroke (width 0) (type default) (color 0 0 0 0))
    (uuid 446bb6e5-bc90-43ac-8026-8ee9feb2f8e1)
  )
  (polyline (pts (xy 175.26 77.47) (xy 68.58 77.47))
    (stroke (width 0) (type default) (color 0 0 0 0))
    (uuid 4a8aa543-afc5-4b90-9f02-2b0be2d2bc8d)
  )
  (polyline (pts (xy 63.5 20.32) (xy 63.5 63.5))
    (stroke (width 0) (type default) (color 0 0 0 0))
    (uuid 58efc853-3902-41c2-b365-3c0038d72f54)
  )
  (polyline (pts (xy 68.58 20.32) (xy 175.26 20.32))
    (stroke (width 0) (type default) (color 0 0 0 0))
    (uuid 5e5458a0-ac7c-4e74-af75-b69453f7c25c)
  )
  (polyline (pts (xy 63.5 63.5) (xy 17.78 63.5))
    (stroke (width 0) (type default) (color 0 0 0 0))
    (uuid 6a58d1a0-1b8c-49c9-93a1-0b8e4e6c238f)
  )
  (polyline (pts (xy 180.34 44.45) (xy 198.12 44.45))
    (stroke (width 0) (type default) (color 0 0 0 0))
    (uuid 8b321981-7361-460c-bc0e-ab6a059fcc0d)
  )
  (polyline (pts (xy 17.78 20.32) (xy 17.78 63.5))
    (stroke (width 0) (type default) (color 0 0 0 0))
    (uuid 8c948694-2fcf-4a71-ad0e-36263bd2b582)
  )

  (wire (pts (xy 100.33 46.99) (xy 81.28 46.99))
    (stroke (width 0) (type default) (color 0 0 0 0))
    (uuid 8d40be96-5314-4195-a0ee-9938a62bb100)
  )
  (wire (pts (xy 24.13 39.37) (xy 34.29 39.37))
    (stroke (width 0) (type default) (color 0 0 0 0))
    (uuid 906468b9-4686-49ce-8b59-1b595f2e98b8)
  )
  (wire (pts (xy 81.28 54.61) (xy 100.33 54.61))
    (stroke (width 0) (type default) (color 0 0 0 0))
    (uuid 963ac034-4021-46cc-8a98-e6d29ef8a957)
  )
  (polyline (pts (xy 17.78 20.32) (xy 63.5 20.32))
    (stroke (width 0) (type default) (color 0 0 0 0))
    (uuid 99cc41a3-4c67-4ed5-98ed-fee76f168e81)
  )
  (polyline (pts (xy 180.34 20.32) (xy 180.34 21.59))
    (stroke (width 0) (type default) (color 0 0 0 0))
    (uuid 9bd2c554-f6c1-444e-a16b-f0b80664a4ea)
  )

  (wire (pts (xy 24.13 35.56) (xy 24.13 39.37))
    (stroke (width 0) (type default) (color 0 0 0 0))
    (uuid a03f354a-8b42-48ee-acbe-3b6630a8b0a2)
  )
  (wire (pts (xy 24.13 26.67) (xy 24.13 30.48))
    (stroke (width 0) (type default) (color 0 0 0 0))
    (uuid a4271df6-846a-42c1-ba82-bfaf04a0bf87)
  )
  (wire (pts (xy 100.33 52.07) (xy 81.28 52.07))
    (stroke (width 0) (type default) (color 0 0 0 0))
    (uuid a89c32fa-3e09-45da-af5b-ea723b2f675b)
  )
  (wire (pts (xy 24.13 50.8) (xy 24.13 54.61))
    (stroke (width 0) (type default) (color 0 0 0 0))
    (uuid de1d0e45-910a-4dc4-ac6b-0417d2352477)
  )
  (wire (pts (xy 81.28 52.07) (xy 81.28 54.61))
    (stroke (width 0) (type default) (color 0 0 0 0))
    (uuid f59111d0-8a91-4d7a-ba8a-8905984dfdf9)
  )
  (wire (pts (xy 29.21 26.67) (xy 24.13 26.67))
    (stroke (width 0) (type default) (color 0 0 0 0))
    (uuid f609630a-8df8-4586-9519-debe457e01b6)
  )
  (polyline (pts (xy 198.12 44.45) (xy 198.12 20.32))
    (stroke (width 0) (type default) (color 0 0 0 0))
    (uuid f7f662c1-e872-419f-aa7a-d895cdf518db)
  )
  (polyline (pts (xy 180.34 21.59) (xy 180.34 44.45))
    (stroke (width 0) (type default) (color 0 0 0 0))
    (uuid faf841b3-5aa6-458a-bd7a-08baddd98d85)
  )
  (polyline (pts (xy 175.26 20.32) (xy 175.26 77.47))
    (stroke (width 0) (type default) (color 0 0 0 0))
    (uuid fc280188-ef26-495a-bcd9-b217562aff22)
  )

  (wire (pts (xy 189.23 27.94) (xy 189.23 36.83))
    (stroke (width 0) (type default) (color 0 0 0 0))
    (uuid fe17052e-2d14-4853-96ca-d92a42ff849b)
  )

  (text "LED to show status of Vibration Sensor" (at 33.02 48.26 0)
    (effects (font (size 1 1)) (justify left bottom))
    (uuid 1204d493-1901-442c-ad59-4ed01db6af91)
  )
  (text "Vibration Sensor Module" (at 17.78 20.32 0)
    (effects (font (size 1.27 1.27)) (justify left bottom))
    (uuid 4bea7c7a-3147-40d3-856e-5a16d45575c4)
  )
  (text "Not sure about pins here" (at 96.52 31.75 180)
    (effects (font (size 1.27 1.27)) (justify right bottom))
    (uuid 7b4c334d-ebc9-416e-84da-75ab84a6a80f)
  )
  (text "Sensors and supporting analog components, decoupling, pin assignments"
    (at 115.57 86.36 0)
    (effects (font (size 1.27 1.27)) (justify left bottom))
    (uuid 84913913-2b70-4e7e-8a04-f59dc46fbc82)
  )
  (text "Accelerometer Module" (at 90.17 20.32 180)
    (effects (font (size 1.27 1.27)) (justify right bottom))
    (uuid b1b5a96a-18b7-497f-b5a4-47fea9c568a6)
  )
  (text "3.3Vin Label" (at 191.77 20.32 180)
    (effects (font (size 1.27 1.27)) (justify right bottom))
    (uuid f2843db2-0ac7-4830-8c49-de818f6a7e8a)
  )

  (label "3.3Vin" (at 100.33 57.15 180)
    (effects (font (size 1.27 1.27)) (justify right bottom))
    (uuid 1d054a40-7586-43a8-9fc4-7ab9afeb9aee)
  )
  (label "SerialOut" (at 151.13 46.99 0)
    (effects (font (size 1.27 1.27)) (justify left bottom))
    (uuid 25c1e75d-c271-4d3f-869c-3f711ce1df89)
  )
  (label "SerialIN" (at 151.13 44.45 0)
    (effects (font (size 1.27 1.27)) (justify left bottom))
    (uuid 2db00a1a-bce0-4569-8496-997763523885)
  )
  (label "3.3Vin" (at 29.21 24.13 180)
    (effects (font (size 1.27 1.27)) (justify right bottom))
    (uuid 482caf92-2e42-45cf-b631-e07fc034935c)
  )
  (label "3.3Vin" (at 189.23 34.29 180)
    (effects (font (size 1.27 1.27)) (justify right bottom))
    (uuid 4a741306-22b0-41c7-893c-fbe8e692874e)
  )
  (label "VtoPin" (at 34.29 39.37 0)
    (effects (font (size 1.27 1.27)) (justify left bottom))
    (uuid c20b1379-bb7e-47c7-bf13-9b97e968039b)
  )

  (symbol (lib_id "EEE3088_Library:ADXL345BCCZ-RL7") (at 100.33 44.45 0) (unit 1)
    (in_bom yes) (on_board yes) (fields_autoplaced)
    (uuid 3e49f5cd-5275-48c2-87e0-4b8a7fe3f81a)
    (property "Reference" "AC?" (id 0) (at 127.7494 24.13 0)
      (effects (font (size 1.27 1.27)) (justify left))
    )
    (property "Value" "ADXL345BCCZ-RL7" (id 1) (at 127.7494 26.67 0)
      (effects (font (size 1.27 1.27)) (justify left))
    )
    (property "Footprint" "CC-14-1" (id 2) (at 147.32 29.21 0)
      (effects (font (size 1.27 1.27)) (justify left) hide)
    )
    (property "Datasheet" "https://www.analog.com/media/en/technical-documentation/data-sheets/ADXL345.pdf" (id 3) (at 147.32 31.75 0)
      (effects (font (size 1.27 1.27)) (justify left) hide)
    )
    (property "Description" "ADXL345BCCZ-RL7 Analog Devices, 3-Axis Accelerometer, I2C, SPI, 14-Pin LGA" (id 4) (at 147.32 34.29 0)
      (effects (font (size 1.27 1.27)) (justify left) hide)
    )
    (property "Height" "" (id 5) (at 147.32 36.83 0)
      (effects (font (size 1.27 1.27)) (justify left) hide)
    )
    (property "Manufacturer_Name" "Analog Devices" (id 6) (at 147.32 39.37 0)
      (effects (font (size 1.27 1.27)) (justify left) hide)
    )
    (property "Manufacturer_Part_Number" "ADXL345BCCZ-RL7" (id 7) (at 147.32 41.91 0)
      (effects (font (size 1.27 1.27)) (justify left) hide)
    )
    (property "Mouser Part Number" "584-ADXL345BCCZ-R7" (id 8) (at 147.32 44.45 0)
      (effects (font (size 1.27 1.27)) (justify left) hide)
    )
    (property "Mouser Price/Stock" "https://www.mouser.co.uk/ProductDetail/Analog-Devices/ADXL345BCCZ-RL7?qs=WIvQP4zGaninp9Gc%252BCsJzQ%3D%3D" (id 9) (at 147.32 46.99 0)
      (effects (font (size 1.27 1.27)) (justify left) hide)
    )
    (property "Arrow Part Number" "ADXL345BCCZ-RL7" (id 10) (at 147.32 49.53 0)
      (effects (font (size 1.27 1.27)) (justify left) hide)
    )
    (property "Arrow Price/Stock" "https://www.arrow.com/en/products/adxl345bccz-rl7/analog-devices?region=nac" (id 11) (at 147.32 52.07 0)
      (effects (font (size 1.27 1.27)) (justify left) hide)
    )
    (pin "1" (uuid 32b2b32f-cf53-430b-86a3-48ff32f9a264))
    (pin "10" (uuid e93853ac-73d0-42c2-836f-493788ccab1a))
    (pin "11" (uuid 3b07811b-d4e4-44c0-8284-4b65112ce40a))
    (pin "12" (uuid d8a63b6d-ff75-4cc3-a547-920b92a86c1f))
    (pin "13" (uuid 9581d001-bb27-410b-ba4d-0eed6be0d4e2))
    (pin "14" (uuid 318e7ca0-bc76-4f86-8b55-855dc8de9da1))
    (pin "2" (uuid 98263d76-e27d-4e15-a995-b49916ef3bc7))
    (pin "3" (uuid 2c7ce49e-429e-417c-9da0-4274c00e5058))
    (pin "4" (uuid 1bcc8d44-e661-4c69-a037-afe0643e9d07))
    (pin "5" (uuid 26141879-2388-4c89-87cf-9d2ed34cd1ab))
    (pin "6" (uuid a7e27450-fd7b-40b6-9505-8ab57cb8a15e))
    (pin "7" (uuid 207c0cf1-7438-4d77-95a9-49c47a7d2e60))
    (pin "8" (uuid 70afd946-4e66-48a3-b3a1-94f7b6c5ed9b))
    (pin "9" (uuid c2216d80-5534-4314-9a55-9fb2e80cb27c))
  )

  (symbol (lib_id "Device:LED") (at 24.13 46.99 90) (unit 1)
    (in_bom yes) (on_board yes) (fields_autoplaced)
    (uuid 756810d2-0540-48a2-bda3-4cf017337263)
    (property "Reference" "D?" (id 0) (at 27.94 47.3074 90)
      (effects (font (size 1.27 1.27)) (justify right))
    )
    (property "Value" "LED" (id 1) (at 27.94 49.8474 90)
      (effects (font (size 1.27 1.27)) (justify right))
    )
    (property "Footprint" "" (id 2) (at 24.13 46.99 0)
      (effects (font (size 1.27 1.27)) hide)
    )
    (property "Datasheet" "~" (id 3) (at 24.13 46.99 0)
      (effects (font (size 1.27 1.27)) hide)
    )
    (pin "1" (uuid 4b6a912e-82d1-434c-b26e-b20269291223))
    (pin "2" (uuid b75c5e2e-4f32-452b-85e7-ed29ab61d805))
  )

  (symbol (lib_id "power:GND") (at 81.28 63.5 0) (unit 1)
    (in_bom yes) (on_board yes) (fields_autoplaced)
    (uuid 8fb25831-091e-49c1-9633-b0fed0ca3f92)
    (property "Reference" "#PWR?" (id 0) (at 81.28 69.85 0)
      (effects (font (size 1.27 1.27)) hide)
    )
    (property "Value" "GND" (id 1) (at 81.28 68.58 0))
    (property "Footprint" "" (id 2) (at 81.28 63.5 0)
      (effects (font (size 1.27 1.27)) hide)
    )
    (property "Datasheet" "" (id 3) (at 81.28 63.5 0)
      (effects (font (size 1.27 1.27)) hide)
    )
    (pin "1" (uuid a8b3a963-f072-400a-9255-b395b4a41641))
  )

  (symbol (lib_id "power:+3.3V") (at 189.23 27.94 0) (unit 1)
    (in_bom yes) (on_board yes) (fields_autoplaced)
    (uuid 96285444-49e4-4b0b-986d-f14e4de4ad37)
    (property "Reference" "#PWR?" (id 0) (at 189.23 31.75 0)
      (effects (font (size 1.27 1.27)) hide)
    )
    (property "Value" "+3.3V" (id 1) (at 189.23 22.86 0))
    (property "Footprint" "" (id 2) (at 189.23 27.94 0)
      (effects (font (size 1.27 1.27)) hide)
    )
    (property "Datasheet" "" (id 3) (at 189.23 27.94 0)
      (effects (font (size 1.27 1.27)) hide)
    )
    (pin "1" (uuid 168f436e-3dc4-4310-b29b-8ec0c4c5eb17))
  )

  (symbol (lib_id "Device:R_Small_US") (at 24.13 33.02 0) (unit 1)
    (in_bom yes) (on_board yes) (fields_autoplaced)
    (uuid 9cc08547-0478-4733-be25-b54c9abddb10)
    (property "Reference" "R?" (id 0) (at 26.67 31.7499 0)
      (effects (font (size 1.27 1.27)) (justify left))
    )
    (property "Value" "R_Small_US" (id 1) (at 26.67 34.2899 0)
      (effects (font (size 1.27 1.27)) (justify left))
    )
    (property "Footprint" "" (id 2) (at 24.13 33.02 0)
      (effects (font (size 1.27 1.27)) hide)
    )
    (property "Datasheet" "~" (id 3) (at 24.13 33.02 0)
      (effects (font (size 1.27 1.27)) hide)
    )
    (pin "1" (uuid 0bef0c8b-87c2-4d18-bad6-7ba5efa283af))
    (pin "2" (uuid a5c3abf5-fc2a-4803-bf4c-630e8aee7a92))
  )

  (symbol (lib_id "EEE3088_Library:Vibration_Sensor") (at 39.37 20.32 0) (unit 1)
    (in_bom yes) (on_board yes) (fields_autoplaced)
    (uuid ae951773-ccf8-4bf2-a52e-6b4d2f1dbfba)
    (property "Reference" "T?" (id 0) (at 48.26 24.1299 0)
      (effects (font (size 1.27 1.27)) (justify left))
    )
    (property "Value" "Vibration_Sensor" (id 1) (at 48.26 26.6699 0)
      (effects (font (size 1.27 1.27)) (justify left))
    )
    (property "Footprint" "" (id 2) (at 39.37 20.32 0)
      (effects (font (size 1.27 1.27)) hide)
    )
    (property "Datasheet" "" (id 3) (at 39.37 20.32 0)
      (effects (font (size 1.27 1.27)) hide)
    )
    (pin "1" (uuid 431ec8a8-4576-45d4-8031-992d58427885))
    (pin "2" (uuid 0e361449-0597-45d8-951e-ba44a7567985))
  )

  (symbol (lib_id "power:GND") (at 24.13 54.61 0) (unit 1)
    (in_bom yes) (on_board yes) (fields_autoplaced)
    (uuid bd1269b1-51af-48ea-a7d9-a2ebc8365fdc)
    (property "Reference" "#PWR?" (id 0) (at 24.13 60.96 0)
      (effects (font (size 1.27 1.27)) hide)
    )
    (property "Value" "GND" (id 1) (at 24.13 59.69 0))
    (property "Footprint" "" (id 2) (at 24.13 54.61 0)
      (effects (font (size 1.27 1.27)) hide)
    )
    (property "Datasheet" "" (id 3) (at 24.13 54.61 0)
      (effects (font (size 1.27 1.27)) hide)
    )
    (pin "1" (uuid 8a854c8e-5970-45f2-9894-874ac3b44bc7))
  )

  (symbol (lib_id "power:GND") (at 189.23 36.83 0) (unit 1)
    (in_bom yes) (on_board yes) (fields_autoplaced)
    (uuid cd548e95-95bb-4a0d-ad4b-2931deee8f9f)
    (property "Reference" "#PWR?" (id 0) (at 189.23 43.18 0)
      (effects (font (size 1.27 1.27)) hide)
    )
    (property "Value" "GND" (id 1) (at 189.23 41.91 0))
    (property "Footprint" "" (id 2) (at 189.23 36.83 0)
      (effects (font (size 1.27 1.27)) hide)
    )
    (property "Datasheet" "" (id 3) (at 189.23 36.83 0)
      (effects (font (size 1.27 1.27)) hide)
    )
    (pin "1" (uuid 1cf1c37e-a9bf-49fb-9244-7505ba6b6186))
  )
)
