!PADS-POWERPCB-V9.5-METRIC! DESIGN DATABASE ASCII FILE 1.0
*PARTDECAL*  ITEMS

RESC2013X65N M 0 0 3 2 1 0 2
CLOSED 5 0.05 0 20
-1.7 1
1.7 1
1.7 -1
-1.7 -1
-1.7 1
CLOSED 5 0.1 0 27
-1 0.638
1 0.638
1 -0.638
-1 -0.638
-1 0.638
OPEN 2 0.2 0 26
0 0.538
0 -0.538
VALUE 0 0 0 1 1.27 0.127 N LEFT DOWN
Regular <Romansim Stroke Font>
Ref.Des.
VALUE 0 0 0 1 1.27 0.127 N LEFT UP
Regular <Romansim Stroke Font>
Part Type
T-0.95 0 -0.95 0 1
T0.95 0 0.95 0 2
PAD 0 3
-2 1 RF 90 1.45 0 0 0 N
-1 0 R
0 0 R

*END*     OF ASCII OUTPUT FILE
