(Source "DipTrace-ElementLibrary")
  (Library
    (Name "MICROXNJ")
    (Hint "MICROXNJ")
    (Subfolders
    )
    (Categories 0
    )
    (Components
      (Component
        (Part "MICROXNJ" "J"
          (Enabled "Y")
          (PartType 0)
          (PartName "MICROXNJ")
          (ShowNumbers 1)
          (Type 0)
          (Number1 0)
          (Number2 0)
          (Width 60.96)
          (Height 91.44)
          (Value "")
          (LockProperties "N")
          (OriginX 0)
          (OriginY 0)
          (Datasheet "https://datasheet.lcsc.com/szlcsc/1912111437_SHOU-HAN-MicroXNJ_C404969.pdf")
          (ModelType 0)
          (ModelString "")
          (ModelBody
          )
          (Manufacturer "Shou Han")
          (CategoryName "")
          (CategoryIndex -1)
          (CategoryTypes 0
          )
          (SubfolderIndex 0)
          (Verification "N" "N" "N" "N" "N" "N" "N")
          (Pins
            (Pin 0 15.24 -0
              (Enabled "Y")
              (Locked "N")
              (ModelSig "")
              (Type 0)
              (Orientation 0)
              (Number 1)
              (Length 15.24)
              (Name "1")
              (StringNumber "1")
              (ShowName "Y")
              (PinNumXShift 0)
              (PinNumYShift 0)
              (PinNamexShift 0)
              (PinNameYShift 0)
              (ElectricType 0)
              (NameFontSize 5)
              (NameFontWidth -2)
              (NameFontScale 1)
              (SignalDelay 0)
            )
            (Pin 1 15.24 7.62
              (Enabled "Y")
              (Locked "N")
              (ModelSig "")
              (Type 0)
              (Orientation 0)
              (Number 2)
              (Length 15.24)
              (Name "2")
              (StringNumber "2")
              (ShowName "Y")
              (PinNumXShift 0)
              (PinNumYShift 0)
              (PinNamexShift 0)
              (PinNameYShift 0)
              (ElectricType 0)
              (NameFontSize 5)
              (NameFontWidth -2)
              (NameFontScale 1)
              (SignalDelay 0)
            )
            (Pin 2 15.24 15.24
              (Enabled "Y")
              (Locked "N")
              (ModelSig "")
              (Type 0)
              (Orientation 0)
              (Number 3)
              (Length 15.24)
              (Name "3")
              (StringNumber "3")
              (ShowName "Y")
              (PinNumXShift 0)
              (PinNumYShift 0)
              (PinNamexShift 0)
              (PinNameYShift 0)
              (ElectricType 0)
              (NameFontSize 5)
              (NameFontWidth -2)
              (NameFontScale 1)
              (SignalDelay 0)
            )
            (Pin 3 15.24 22.86
              (Enabled "Y")
              (Locked "N")
              (ModelSig "")
              (Type 0)
              (Orientation 0)
              (Number 4)
              (Length 15.24)
              (Name "4")
              (StringNumber "4")
              (ShowName "Y")
              (PinNumXShift 0)
              (PinNumYShift 0)
              (PinNamexShift 0)
              (PinNameYShift 0)
              (ElectricType 0)
              (NameFontSize 5)
              (NameFontWidth -2)
              (NameFontScale 1)
              (SignalDelay 0)
            )
            (Pin 4 15.24 30.48
              (Enabled "Y")
              (Locked "N")
              (ModelSig "")
              (Type 0)
              (Orientation 0)
              (Number 5)
              (Length 15.24)
              (Name "5")
              (StringNumber "5")
              (ShowName "Y")
              (PinNumXShift 0)
              (PinNumYShift 0)
              (PinNamexShift 0)
              (PinNameYShift 0)
              (ElectricType 0)
              (NameFontSize 5)
              (NameFontWidth -2)
              (NameFontScale 1)
              (SignalDelay 0)
            )
            (Pin 5 15.24 38.1
              (Enabled "Y")
              (Locked "N")
              (ModelSig "")
              (Type 0)
              (Orientation 0)
              (Number 6)
              (Length 15.24)
              (Name "MH1")
              (StringNumber "MH1")
              (ShowName "Y")
              (PinNumXShift 0)
              (PinNumYShift 0)
              (PinNamexShift 0)
              (PinNameYShift 0)
              (ElectricType 0)
              (NameFontSize 5)
              (NameFontWidth -2)
              (NameFontScale 1)
              (SignalDelay 0)
            )
            (Pin 6 60.96 -0
              (Enabled "Y")
              (Locked "N")
              (ModelSig "")
              (Type 0)
              (Orientation 2)
              (Number 7)
              (Length 15.24)
              (Name "MH2")
              (StringNumber "MH2")
              (ShowName "Y")
              (PinNumXShift 0)
              (PinNumYShift 0)
              (PinNamexShift 0)
              (PinNameYShift 0)
              (ElectricType 0)
              (NameFontSize 5)
              (NameFontWidth -2)
              (NameFontScale 1)
              (SignalDelay 0)
            )
            (Pin 7 60.96 7.62
              (Enabled "Y")
              (Locked "N")
              (ModelSig "")
              (Type 0)
              (Orientation 2)
              (Number 8)
              (Length 15.24)
              (Name "MH3")
              (StringNumber "MH3")
              (ShowName "Y")
              (PinNumXShift 0)
              (PinNumYShift 0)
              (PinNamexShift 0)
              (PinNameYShift 0)
              (ElectricType 0)
              (NameFontSize 5)
              (NameFontWidth -2)
              (NameFontScale 1)
              (SignalDelay 0)
            )
            (Pin 8 60.96 15.24
              (Enabled "Y")
              (Locked "N")
              (ModelSig "")
              (Type 0)
              (Orientation 2)
              (Number 9)
              (Length 15.24)
              (Name "MH4")
              (StringNumber "MH4")
              (ShowName "Y")
              (PinNumXShift 0)
              (PinNumYShift 0)
              (PinNamexShift 0)
              (PinNameYShift 0)
              (ElectricType 0)
              (NameFontSize 5)
              (NameFontWidth -2)
              (NameFontScale 1)
              (SignalDelay 0)
            )
            (Pin 9 60.96 22.86
              (Enabled "Y")
              (Locked "N")
              (ModelSig "")
              (Type 0)
              (Orientation 2)
              (Number 10)
              (Length 15.24)
              (Name "MP1")
              (StringNumber "MP1")
              (ShowName "Y")
              (PinNumXShift 0)
              (PinNumYShift 0)
              (PinNamexShift 0)
              (PinNameYShift 0)
              (ElectricType 0)
              (NameFontSize 5)
              (NameFontWidth -2)
              (NameFontScale 1)
              (SignalDelay 0)
            )
            (Pin 10 60.96 30.48
              (Enabled "Y")
              (Locked "N")
              (ModelSig "")
              (Type 0)
              (Orientation 2)
              (Number 11)
              (Length 15.24)
              (Name "MP2")
              (StringNumber "MP2")
              (ShowName "Y")
              (PinNumXShift 0)
              (PinNumYShift 0)
              (PinNamexShift 0)
              (PinNameYShift 0)
              (ElectricType 0)
              (NameFontSize 5)
              (NameFontWidth -2)
              (NameFontScale 1)
              (SignalDelay 0)
            )
          )
          (Shapes
            (Shape 0
              (Enabled "Y")
              (Locked "N")
              (VectorFont "N")
              (FontWidth 0)
              (FontScale 0)
              (Orientation 0)
              (Type 1)
              (FontSize 0)
              (FontColor 0)
              (FontType 0)
              (FontName "")
              (Name "")
              (Width 0.762)
              (Points
                (pt 15.24 -7.62)
                (pt 60.96 -7.62)
              )
            )
            (Shape 1
              (Enabled "Y")
              (Locked "N")
              (VectorFont "N")
              (FontWidth 0)
              (FontScale 0)
              (Orientation 0)
              (Type 1)
              (FontSize 0)
              (FontColor 0)
              (FontType 0)
              (FontName "")
              (Name "")
              (Width 0.762)
              (Points
                (pt 60.96 45.72)
                (pt 60.96 -7.62)
              )
            )
            (Shape 2
              (Enabled "Y")
              (Locked "N")
              (VectorFont "N")
              (FontWidth 0)
              (FontScale 0)
              (Orientation 0)
              (Type 1)
              (FontSize 0)
              (FontColor 0)
              (FontType 0)
              (FontName "")
              (Name "")
              (Width 0.762)
              (Points
                (pt 60.96 45.72)
                (pt 15.24 45.72)
              )
            )
            (Shape 3
              (Enabled "Y")
              (Locked "N")
              (VectorFont "N")
              (FontWidth 0)
              (FontScale 0)
              (Orientation 0)
              (Type 1)
              (FontSize 0)
              (FontColor 0)
              (FontType 0)
              (FontName "")
              (Name "")
              (Width 0.762)
              (Points
                (pt 15.24 -7.62)
                (pt 15.24 45.72)
              )
            )
          )
          (UserFields
            (UserField "Manufacturer_Name" "Shou Han" 0)
            (UserField "Manufacturer_Part_Number" "MICROXNJ" 0)
            (UserField "Mouser Part Number" "" 0)
            (UserField "Mouser Price/Stock" "" 0)
            (UserField "Arrow Part Number" "" 0)
            (UserField "Arrow Price/Stock" "" 0)
            (UserField "Height" "2.425 mm" 0)
            (UserField "Description" "MICRO-USB-SMD_MICROXNJ" 0)
          )
        )
        (Pattern "MICROXNJ"
          (Type 0)
          (VariableParameter1 "N")
          (VariableParameter2 "N")
          (VariableParameter3 "N")
          (VariableParameter4 "N")
          (InternalConnections
          )
          (Number1 0)
          (Number2 0)
          (Spacing1 0)
          (Spacing2 0)
          (VariableParameter5 "N")
          (Spacing3 0)
          (LockProperties "N")
          (PatternOrientation 0)
          (Width 21.6)
          (Height 18)
          (PadWidth 1.2)
          (PadHeight 3.75)
          (PadShape 2)
          (PadHole 0)
          (PadHoleH 0)
          (PadHoleType 0)
          (SurfacePad "Y")
          (OriginX 0)
          (OriginY 0)
          (PadPoints
          )
          (Pads
            (Pad 0 "" "" 0 0
              (Number 0)
              (Inverted "N")
              (Locked "N")
              (Sided "N")
              (DisableTopMask "N" 0)
              (DisableBottomMask "N" 0)
              (DisableTopPaste "N" 0)
              (DisableBottomPaste "N" 0)
              (CustomSwell 0)
              (CustomShrink 0)
              (PadWidth 0)
              (PadHeight 0)
              (PadHole 0)
              (PadHoleH 0)
              (PadHoleType 0)
              (SurfacePad "N")
              (PadShape 0)
              (Standard "N")
              (Point
              )
            )
            (Pad 1 "1" "" 3.9 14.325
              (Number 1)
              (Inverted "N")
              (Locked "N")
              (Sided "N")
              (DisableTopMask "N" 0)
              (DisableBottomMask "N" 0)
              (DisableTopPaste "N" 0)
              (DisableBottomPaste "N" 0)
              (CustomSwell -1000)
              (CustomShrink -1000)
              (PadWidth 1.2)
              (PadHeight 3.75)
              (PadHole 0)
              (PadHoleH 0)
              (PadHoleType 0)
              (SurfacePad "Y")
              (PadShape 2)
              (Standard "N")
              (Point
              )
            )
            (Pad 2 "2" "" 1.95 14.325
              (Number 2)
              (Inverted "N")
              (Locked "N")
              (Sided "N")
              (DisableTopMask "N" 0)
              (DisableBottomMask "N" 0)
              (DisableTopPaste "N" 0)
              (DisableBottomPaste "N" 0)
              (CustomSwell -1000)
              (CustomShrink -1000)
              (PadWidth 1.2)
              (PadHeight 3.75)
              (PadHole 0)
              (PadHoleH 0)
              (PadHoleType 0)
              (SurfacePad "Y")
              (PadShape 2)
              (Standard "N")
              (Point
              )
            )
            (Pad 3 "3" "" 0 14.325
              (Number 3)
              (Inverted "N")
              (Locked "N")
              (Sided "N")
              (DisableTopMask "N" 0)
              (DisableBottomMask "N" 0)
              (DisableTopPaste "N" 0)
              (DisableBottomPaste "N" 0)
              (CustomSwell -1000)
              (CustomShrink -1000)
              (PadWidth 1.2)
              (PadHeight 3.75)
              (PadHole 0)
              (PadHoleH 0)
              (PadHoleType 0)
              (SurfacePad "Y")
              (PadShape 2)
              (Standard "N")
              (Point
              )
            )
            (Pad 4 "4" "" -1.95 14.325
              (Number 4)
              (Inverted "N")
              (Locked "N")
              (Sided "N")
              (DisableTopMask "N" 0)
              (DisableBottomMask "N" 0)
              (DisableTopPaste "N" 0)
              (DisableBottomPaste "N" 0)
              (CustomSwell -1000)
              (CustomShrink -1000)
              (PadWidth 1.2)
              (PadHeight 3.75)
              (PadHole 0)
              (PadHoleH 0)
              (PadHoleType 0)
              (SurfacePad "Y")
              (PadShape 2)
              (Standard "N")
              (Point
              )
            )
            (Pad 5 "5" "" -3.9 14.325
              (Number 5)
              (Inverted "N")
              (Locked "N")
              (Sided "N")
              (DisableTopMask "N" 0)
              (DisableBottomMask "N" 0)
              (DisableTopPaste "N" 0)
              (DisableBottomPaste "N" 0)
              (CustomSwell -1000)
              (CustomShrink -1000)
              (PadWidth 1.2)
              (PadHeight 3.75)
              (PadHole 0)
              (PadHoleH 0)
              (PadHoleType 0)
              (SurfacePad "Y")
              (PadShape 2)
              (Standard "N")
              (Point
              )
            )
            (Pad 6 "MH1" "" 7.275 14.4
              (Number 6)
              (Inverted "N")
              (Locked "N")
              (Sided "N")
              (DisableTopMask "N" 0)
              (DisableBottomMask "N" 0)
              (DisableTopPaste "N" 0)
              (DisableBottomPaste "N" 0)
              (CustomSwell -1000)
              (CustomShrink -1000)
              (PadWidth 3.9)
              (PadHeight 3.9)
              (PadHole 2.1)
              (PadHoleH 0)
              (PadHoleType 0)
              (SurfacePad "N")
              (PadShape 0)
              (Standard "N")
              (Point
              )
            )
            (Pad 7 "MH2" "" -7.275 14.4
              (Number 7)
              (Inverted "N")
              (Locked "N")
              (Sided "N")
              (DisableTopMask "N" 0)
              (DisableBottomMask "N" 0)
              (DisableTopPaste "N" 0)
              (DisableBottomPaste "N" 0)
              (CustomSwell -1000)
              (CustomShrink -1000)
              (PadWidth 3.9)
              (PadHeight 3.9)
              (PadHole 2.1)
              (PadHoleH 0)
              (PadHoleType 0)
              (SurfacePad "N")
              (PadShape 0)
              (Standard "N")
              (Point
              )
            )
            (Pad 8 "MH3" "" 10.8 6.39
              (Number 8)
              (Inverted "N")
              (Locked "N")
              (Sided "N")
              (DisableTopMask "N" 0)
              (DisableBottomMask "N" 0)
              (DisableTopPaste "N" 0)
              (DisableBottomPaste "N" 0)
              (CustomSwell -1000)
              (CustomShrink -1000)
              (PadWidth 5.7)
              (PadHeight 5.7)
              (PadHole 3.9)
              (PadHoleH 0)
              (PadHoleType 0)
              (SurfacePad "N")
              (PadShape 0)
              (Standard "N")
              (Point
              )
            )
            (Pad 9 "MH4" "" -10.8 6.39
              (Number 9)
              (Inverted "N")
              (Locked "N")
              (Sided "N")
              (DisableTopMask "N" 0)
              (DisableBottomMask "N" 0)
              (DisableTopPaste "N" 0)
              (DisableBottomPaste "N" 0)
              (CustomSwell -1000)
              (CustomShrink -1000)
              (PadWidth 5.7)
              (PadHeight 5.7)
              (PadHole 3.9)
              (PadHoleH 0)
              (PadHoleType 0)
              (SurfacePad "N")
              (PadShape 0)
              (Standard "N")
              (Point
              )
            )
            (Pad 10 "MP1" "" 2.4 6.375
              (Number 10)
              (Inverted "N")
              (Locked "N")
              (Sided "N")
              (DisableTopMask "N" 0)
              (DisableBottomMask "N" 0)
              (DisableTopPaste "N" 0)
              (DisableBottomPaste "N" 0)
              (CustomSwell -1000)
              (CustomShrink -1000)
              (PadWidth 1.8)
              (PadHeight 4.05)
              (PadHole 0)
              (PadHoleH 0)
              (PadHoleType 0)
              (SurfacePad "Y")
              (PadShape 2)
              (Standard "N")
              (Point
              )
            )
            (Pad 11 "MP2" "" -2.4 6.375
              (Number 11)
              (Inverted "N")
              (Locked "N")
              (Sided "N")
              (DisableTopMask "N" 0)
              (DisableBottomMask "N" 0)
              (DisableTopPaste "N" 0)
              (DisableBottomPaste "N" 0)
              (CustomSwell -1000)
              (CustomShrink -1000)
              (PadWidth 1.8)
              (PadHeight 4.05)
              (PadHole 0)
              (PadHoleH 0)
              (PadHoleType 0)
              (SurfacePad "Y")
              (PadShape 2)
              (Standard "N")
              (Point
              )
            )
            (Pad 12 "" "" 0 0
              (Number 0)
              (Inverted "N")
              (Locked "N")
              (Sided "N")
              (DisableTopMask "N" 0)
              (DisableBottomMask "N" 0)
              (DisableTopPaste "N" 0)
              (DisableBottomPaste "N" 0)
              (CustomSwell 0)
              (CustomShrink 0)
              (PadWidth 0)
              (PadHeight 0)
              (PadHole 0)
              (PadHoleH 0)
              (PadHoleType 0)
              (SurfacePad "N")
              (PadShape 0)
              (Standard "N")
              (Point
              )
            )
          )
          (Shapes
            (Shape 0 "N" 0 0 0 0 0 0 0 "" "" "N" 0 0 0 0 0 0)
            (Shape 8 "N" 1 0 0 0 0 0 0 "" "Tahoma" "Y" 4 1 -2 0 0.6 0)
              (Point
                (pt -0.5 0)
                (pt 0.5 0)
              )
            (Shape 8 "N" 1 0 0 0 0 0 0 "" "Tahoma" "Y" 4 1 -2 0 0.6 0)
              (Point
                (pt 0.5 0)
                (pt 0.5 0.843)
              )
            (Shape 8 "N" 1 0 0 0 0 0 0 "" "Tahoma" "Y" 4 1 -2 0 0.6 0)
              (Point
                (pt 0.5 0.843)
                (pt -0.5 0.843)
              )
            (Shape 8 "N" 1 0 0 0 0 0 0 "" "Tahoma" "Y" 4 1 -2 0 0.6 0)
              (Point
                (pt -0.5 0.843)
                (pt -0.5 0)
              )
            (Shape 8 "N" 0 0 0 0 0 0 0 "" "Tahoma" "Y" 4 1 -2 0 0.6 0)
              (Point
                (pt 0.167 0.983)
                (pt 0.167 0.983)
              )
            (Shape 6 "N" 0 0.167 0.983 0.181 1 0.194 0.983 "" "Tahoma" "Y" 4 1 -2 0 0.6 0)
            (Shape 8 "N" 0 0 0 0 0 0 0 "" "Tahoma" "Y" 4 1 -2 0 0.6 0)
              (Point
                (pt 0.194 0.983)
                (pt 0.194 0.983)
              )
            (Shape 6 "N" 0 0.194 0.983 0.181 0.967 0.167 0.983 "" "Tahoma" "Y" 4 1 -2 0 0.6 0)
            (Shape 8 "N" 0 0 0 0 0 0 0 "" "Tahoma" "Y" 4 1 -2 0 0.3 0)
              (Point
                (pt -0.5 0.583)
                (pt -0.5 0.843)
              )
            (Shape 8 "N" 0 0 0 0 0 0 0 "" "Tahoma" "Y" 4 1 -2 0 0.3 0)
              (Point
                (pt -0.5 0.843)
                (pt -0.5 0.843)
              )
            (Shape 8 "N" 0 0 0 0 0 0 0 "" "Tahoma" "Y" 4 1 -2 0 0.3 0)
              (Point
                (pt -0.5 0.843)
                (pt -0.486 0.843)
              )
            (Shape 8 "N" 0 0 0 0 0 0 0 "" "Tahoma" "Y" 4 1 -2 0 0.3 0)
              (Point
                (pt 0.5 0.583)
                (pt 0.5 0.843)
              )
            (Shape 8 "N" 0 0 0 0 0 0 0 "" "Tahoma" "Y" 4 1 -2 0 0.3 0)
              (Point
                (pt 0.5 0.843)
                (pt 0.486 0.843)
              )
            (Shape 8 "N" 0 0 0 0 0 0 0 "" "Tahoma" "Y" 4 1 -2 0 0.3 0)
              (Point
                (pt -0.5 0.083)
                (pt -0.5 0)
              )
            (Shape 8 "N" 0 0 0 0 0 0 0 "" "Tahoma" "Y" 4 1 -2 0 0.3 0)
              (Point
                (pt -0.5 0)
                (pt 0.5 0)
              )
            (Shape 8 "N" 0 0 0 0 0 0 0 "" "Tahoma" "Y" 4 1 -2 0 0.3 0)
              (Point
                (pt 0.5 0)
                (pt 0.5 0.083)
              )
            (Shape 0 "N" 0 0 0 0 0 0 0 "" "" "N" 0 0 0 0 0 0)
          )
          (Model3D
            (Model3DFile "MICROXNJ.stp")
            (pt 0 0 0 0 0 0 1 1 1 "N" "N" 0)
          )
        )
      )
    )
  )
()

