<?xml version="1.0" encoding="utf-8"?>
<!--/10859/775245/2.49/8/3/Integrated Circuit/-->
<!DOCTYPE curve SYSTEM "eagle.dtd">
<eagle version="7.7.0">
<drawing>
<settings>
<setting alwaysvectorfont="no"/>
<setting verticaltext="up"/>
</settings>
<grid distance="0.1" unitdist="inch" unit="inch" style="lines" multiple="1" display="no" altdistance="0.01" altunitdist="inch" altunit="inch"/>
<layers>
<layer number="1" name="Top" color="4" fill="1" visible="yes" active="yes"/>
<layer number="16" name="Bottom" color="1" fill="1" visible="yes" active="yes"/>
<layer number="17" name="Pads" color="2" fill="1" visible="yes" active="yes"/>
<layer number="18" name="Vias" color="2" fill="1" visible="yes" active="yes"/>
<layer number="19" name="Unrouted" color="6" fill="1" visible="yes" active="yes"/>
<layer number="20" name="Dimension" color="15" fill="1" visible="yes" active="yes"/>
<layer number="21" name="tPlace" color="7" fill="1" visible="yes" active="yes"/>
<layer number="22" name="bPlace" color="7" fill="1" visible="yes" active="yes"/>
<layer number="23" name="tOrigins" color="15" fill="1" visible="yes" active="yes"/>
<layer number="24" name="bOrigins" color="15" fill="1" visible="yes" active="yes"/>
<layer number="25" name="tNames" color="7" fill="1" visible="yes" active="yes"/>
<layer number="26" name="bNames" color="7" fill="1" visible="yes" active="yes"/>
<layer number="27" name="tValues" color="7" fill="1" visible="yes" active="yes"/>
<layer number="28" name="bValues" color="7" fill="1" visible="yes" active="yes"/>
<layer number="29" name="tStop" color="7" fill="3" visible="no" active="yes"/>
<layer number="30" name="bStop" color="7" fill="6" visible="no" active="yes"/>
<layer number="31" name="tCream" color="7" fill="4" visible="no" active="yes"/>
<layer number="32" name="bCream" color="7" fill="5" visible="no" active="yes"/>
<layer number="33" name="tFinish" color="6" fill="3" visible="no" active="yes"/>
<layer number="34" name="bFinish" color="6" fill="6" visible="no" active="yes"/>
<layer number="35" name="tGlue" color="7" fill="4" visible="no" active="yes"/>
<layer number="36" name="bGlue" color="7" fill="5" visible="no" active="yes"/>
<layer number="37" name="tTest" color="7" fill="1" visible="no" active="yes"/>
<layer number="38" name="bTest" color="7" fill="1" visible="no" active="yes"/>
<layer number="39" name="tKeepout" color="4" fill="11" visible="yes" active="yes"/>
<layer number="40" name="bKeepout" color="1" fill="11" visible="yes" active="yes"/>
<layer number="41" name="tRestrict" color="4" fill="10" visible="yes" active="yes"/>
<layer number="42" name="bRestrict" color="1" fill="10" visible="yes" active="yes"/>
<layer number="43" name="vRestrict" color="2" fill="10" visible="yes" active="yes"/>
<layer number="44" name="Drills" color="7" fill="1" visible="no" active="yes"/>
<layer number="45" name="Holes" color="7" fill="1" visible="no" active="yes"/>
<layer number="46" name="Milling" color="3" fill="1" visible="no" active="yes"/>
<layer number="47" name="Measures" color="7" fill="1" visible="no" active="yes"/>
<layer number="48" name="Document" color="7" fill="1" visible="yes" active="yes"/>
<layer number="49" name="Reference" color="7" fill="1" visible="yes" active="yes"/>
<layer number="51" name="tDocu" color="7" fill="1" visible="yes" active="yes"/>
<layer number="52" name="bDocu" color="7" fill="1" visible="yes" active="yes"/>
<layer number="90" name="Modules" color="5" fill="1" visible="yes" active="yes"/>
<layer number="91" name="Nets" color="2" fill="1" visible="yes" active="yes"/>
<layer number="92" name="Busses" color="1" fill="1" visible="yes" active="yes"/>
<layer number="93" name="Pins" color="2" fill="1" visible="no" active="yes"/>
<layer number="94" name="Symbols" color="4" fill="1" visible="yes" active="yes"/>
<layer number="95" name="Names" color="7" fill="1" visible="yes" active="yes"/>
<layer number="96" name="Values" color="7" fill="1" visible="yes" active="yes"/>
<layer number="97" name="Info" color="7" fill="1" visible="yes" active="yes"/>
<layer number="98" name="Guide" color="6" fill="1" visible="yes" active="yes"/>
</layers>
<library>
<description>&lt;LM393DR2G, Dual Comparator Open Collector 1.3??s 12 V, 15 V, 18 V, 24 V, 28 V, 3 V, 5 V, 9 V 8-Pin SOIC N&lt;/b&gt;&lt;p&gt;
&lt;author&gt;Created by SamacSys&lt;/author&gt;</description>
<packages>
<package name="SOIC127P600X175-8N">
<description>&lt;b&gt;LM393DR2G&lt;/b&gt;&lt;br&gt;
</description>
<smd name="1" x="-2.712" y="1.905" dx="1.525" dy="0.7" layer="1" rot="R0"/>
<smd name="2" x="-2.712" y="0.635" dx="1.525" dy="0.7" layer="1" rot="R0"/>
<smd name="3" x="-2.712" y="-0.635" dx="1.525" dy="0.7" layer="1" rot="R0"/>
<smd name="4" x="-2.712" y="-1.905" dx="1.525" dy="0.7" layer="1" rot="R0"/>
<smd name="5" x="2.712" y="-1.905" dx="1.525" dy="0.7" layer="1" rot="R0"/>
<smd name="6" x="2.712" y="-0.635" dx="1.525" dy="0.7" layer="1" rot="R0"/>
<smd name="7" x="2.712" y="0.635" dx="1.525" dy="0.7" layer="1" rot="R0"/>
<smd name="8" x="2.712" y="1.905" dx="1.525" dy="0.7" layer="1" rot="R0"/>
<text x="0" y="0" align="center" size="1.27" layer="25" rot="R0" >&gt;NAME</text>
<text x="0" y="0" align="center" size="1.27" layer="27" rot="R0" >&gt;VALUE</text>
<wire x1="-3.725" y1="2.75" x2="3.725" y2="2.75" width="0.05" layer="51"/>
<wire x1="3.725" y1="2.75" x2="3.725" y2="-2.75" width="0.05" layer="51"/>
<wire x1="3.725" y1="-2.75" x2="-3.725" y2="-2.75" width="0.05" layer="51"/>
<wire x1="-3.725" y1="-2.75" x2="-3.725" y2="2.75" width="0.05" layer="51"/>
<wire x1="-1.95" y1="2.45" x2="1.95" y2="2.45" width="0.1" layer="51"/>
<wire x1="1.95" y1="2.45" x2="1.95" y2="-2.45" width="0.1" layer="51"/>
<wire x1="1.95" y1="-2.45" x2="-1.95" y2="-2.45" width="0.1" layer="51"/>
<wire x1="-1.95" y1="-2.45" x2="-1.95" y2="2.45" width="0.1" layer="51"/>
<wire x1="-1.95" y1="1.18" x2="-0.68" y2="2.45" width="0.1" layer="51"/>
<wire x1="-1.6" y1="2.45" x2="1.6" y2="2.45" width="0.2" layer="21"/>
<wire x1="1.6" y1="2.45" x2="1.6" y2="-2.45" width="0.2" layer="21"/>
<wire x1="1.6" y1="-2.45" x2="-1.6" y2="-2.45" width="0.2" layer="21"/>
<wire x1="-1.6" y1="-2.45" x2="-1.6" y2="2.45" width="0.2" layer="21"/>
<wire x1="-3.475" y1="2.605" x2="-1.95" y2="2.605" width="0.2" layer="21"/>
</package>
</packages>
<symbols>
<symbol name="LM393DR2G">
<wire x1="5.08" y1="2.54" x2="35.56" y2="2.54" width="0.254" layer="94"/>
<wire x1="35.56" y1="-10.16" x2="35.56" y2="2.54" width="0.254" layer="94"/>
<wire x1="35.56" y1="-10.16" x2="5.08" y2="-10.16" width="0.254" layer="94"/>
<wire x1="5.08" y1="2.54" x2="5.08" y2="-10.16" width="0.254" layer="94"/>
<text x="36.83" y="7.62" align="center-left" size="1.778" layer="95">&gt;NAME</text>
<text x="36.83" y="5.08" align="center-left" size="1.778" layer="96">&gt;VALUE</text>
<pin name="OUTPUTA" x="0" y="0" length="middle" direction="io" rot="R0"/>
<pin name="INPUTSA_1" x="0" y="-2.54" length="middle" direction="io" rot="R0"/>
<pin name="INPUTSA_2" x="0" y="-5.08" length="middle" direction="io" rot="R0"/>
<pin name="GND" x="0" y="-7.62" length="middle" direction="io" rot="R0"/>
<pin name="VCC" x="40.64" y="0" length="middle" direction="io" rot="R180"/>
<pin name="OUTPUTB" x="40.64" y="-2.54" length="middle" direction="io" rot="R180"/>
<pin name="INPUTSB_2" x="40.64" y="-5.08" length="middle" direction="io" rot="R180"/>
<pin name="INPUTSB_1" x="40.64" y="-7.62" length="middle" direction="io" rot="R180"/>
</symbol>
</symbols>
<devicesets>
<deviceset name="LM393DR2G" prefix="IC">
<description>&lt;b&gt;LM393DR2G, Dual Comparator Open Collector 1.3??s 12 V, 15 V, 18 V, 24 V, 28 V, 3 V, 5 V, 9 V 8-Pin SOIC N&lt;/b&gt;&lt;p&gt;
Source: &lt;a href="http://www.onsemi.com/pub/Collateral/LM393-D.PDF"&gt; Datasheet &lt;/a&gt;</description>
<gates>
<gate name="G$1" symbol="LM393DR2G" x="0" y="0"/>
</gates>
<devices>
<device name="" package="SOIC127P600X175-8N">
<connects>
<connect gate="G$1" pin="OUTPUTA" pad="1"/>
<connect gate="G$1" pin="INPUTSA_1" pad="2"/>
<connect gate="G$1" pin="INPUTSA_2" pad="3"/>
<connect gate="G$1" pin="GND" pad="4"/>
<connect gate="G$1" pin="INPUTSB_1" pad="5"/>
<connect gate="G$1" pin="INPUTSB_2" pad="6"/>
<connect gate="G$1" pin="OUTPUTB" pad="7"/>
<connect gate="G$1" pin="VCC" pad="8"/>
</connects>
<technologies>
<technology name="">
<attribute name="Manufacturer_Name" value="ON Semiconductor" constant="no"/>
<attribute name="Manufacturer_Part_Number" value="LM393DR2G" constant="no"/>
<attribute name="Mouser_Part_Number" value="863-LM393DR2G" constant="no"/>
<attribute name="Mouser_Price-Stock" value="https://www.mouser.co.uk/ProductDetail/onsemi/LM393DR2G?qs=2OtswVQKCOG5xGitOOiP7w%3D%3D" constant="no"/>
<attribute name="Arrow_Part_Number" value="LM393DR2G" constant="no"/>
<attribute name="Arrow_Price-Stock" value="https://www.arrow.com/en/products/lm393dr2g/on-semiconductor?region=europe" constant="no"/>
<attribute name="Description" value="LM393DR2G, Dual Comparator Open Collector 1.3??s 12 V, 15 V, 18 V, 24 V, 28 V, 3 V, 5 V, 9 V 8-Pin SOIC N" constant="no"/>
<attribute name="Height" value="1.75mm" constant="no"/>
</technology>
</technologies>
</device>
</devices>
</deviceset>
</devicesets>
</library>
</drawing>
</eagle>
