(kicad_symbol_lib (version 20211014) (generator kicad_symbol_editor)
  (symbol "AT24C256C-SSHL-T" (pin_names (offset 0.762)) (in_bom yes) (on_board yes)
    (property "Reference" "IC" (id 0) (at 21.59 7.62 0)
      (effects (font (size 1.27 1.27)) (justify left))
    )
    (property "Value" "AT24C256C-SSHL-T" (id 1) (at 21.59 5.08 0)
      (effects (font (size 1.27 1.27)) (justify left))
    )
    (property "Footprint" "SOIC127P600X175-8N" (id 2) (at 21.59 2.54 0)
      (effects (font (size 1.27 1.27)) (justify left) hide)
    )
    (property "Datasheet" "http://www.atmel.com/Images/Atmel-8568-SEEPROM-AT24C256C-Datasheet.pdf" (id 3) (at 21.59 0 0)
      (effects (font (size 1.27 1.27)) (justify left) hide)
    )
    (property "Description" "EEPROM 256K (32K X 8), 2-WI 1.8V" (id 4) (at 21.59 -2.54 0)
      (effects (font (size 1.27 1.27)) (justify left) hide)
    )
    (property "Height" "1.75" (id 5) (at 21.59 -5.08 0)
      (effects (font (size 1.27 1.27)) (justify left) hide)
    )
    (property "Manufacturer_Name" "Microchip" (id 6) (at 21.59 -7.62 0)
      (effects (font (size 1.27 1.27)) (justify left) hide)
    )
    (property "Manufacturer_Part_Number" "AT24C256C-SSHL-T" (id 7) (at 21.59 -10.16 0)
      (effects (font (size 1.27 1.27)) (justify left) hide)
    )
    (property "Mouser Part Number" "556-AT24C256C-SSHL-T" (id 8) (at 21.59 -12.7 0)
      (effects (font (size 1.27 1.27)) (justify left) hide)
    )
    (property "Mouser Price/Stock" "https://www.mouser.co.uk/ProductDetail/Microchip-Technology-Atmel/AT24C256C-SSHL-T?qs=fzsaQExJLyR3ptk4tHE3tA%3D%3D" (id 9) (at 21.59 -15.24 0)
      (effects (font (size 1.27 1.27)) (justify left) hide)
    )
    (property "Arrow Part Number" "AT24C256C-SSHL-T" (id 10) (at 21.59 -17.78 0)
      (effects (font (size 1.27 1.27)) (justify left) hide)
    )
    (property "Arrow Price/Stock" "https://www.arrow.com/en/products/at24c256c-sshl-t/microchip-technology?region=nac" (id 11) (at 21.59 -20.32 0)
      (effects (font (size 1.27 1.27)) (justify left) hide)
    )
    (property "ki_description" "EEPROM 256K (32K X 8), 2-WI 1.8V" (id 12) (at 0 0 0)
      (effects (font (size 1.27 1.27)) hide)
    )
    (symbol "AT24C256C-SSHL-T_0_0"
      (pin passive line (at 0 0 0) (length 5.08)
        (name "A0" (effects (font (size 1.27 1.27))))
        (number "1" (effects (font (size 1.27 1.27))))
      )
      (pin passive line (at 0 -2.54 0) (length 5.08)
        (name "A1" (effects (font (size 1.27 1.27))))
        (number "2" (effects (font (size 1.27 1.27))))
      )
      (pin passive line (at 0 -5.08 0) (length 5.08)
        (name "A2" (effects (font (size 1.27 1.27))))
        (number "3" (effects (font (size 1.27 1.27))))
      )
      (pin power_in line (at 0 -7.62 0) (length 5.08)
        (name "GND" (effects (font (size 1.27 1.27))))
        (number "4" (effects (font (size 1.27 1.27))))
      )
      (pin passive line (at 25.4 -7.62 180) (length 5.08)
        (name "SDA" (effects (font (size 1.27 1.27))))
        (number "5" (effects (font (size 1.27 1.27))))
      )
      (pin passive line (at 25.4 -5.08 180) (length 5.08)
        (name "SCL" (effects (font (size 1.27 1.27))))
        (number "6" (effects (font (size 1.27 1.27))))
      )
      (pin passive line (at 25.4 -2.54 180) (length 5.08)
        (name "WP" (effects (font (size 1.27 1.27))))
        (number "7" (effects (font (size 1.27 1.27))))
      )
      (pin power_in line (at 25.4 0 180) (length 5.08)
        (name "VCC" (effects (font (size 1.27 1.27))))
        (number "8" (effects (font (size 1.27 1.27))))
      )
    )
    (symbol "AT24C256C-SSHL-T_0_1"
      (polyline
        (pts
          (xy 5.08 2.54)
          (xy 20.32 2.54)
          (xy 20.32 -10.16)
          (xy 5.08 -10.16)
          (xy 5.08 2.54)
        )
        (stroke (width 0.1524) (type default) (color 0 0 0 0))
        (fill (type none))
      )
    )
  )
)
