PCBNEW-LibModule-V1  2022-03-17 08:09:56
# encoding utf-8
Units mm
$INDEX
LEDC1608X50N
$EndINDEX
$MODULE LEDC1608X50N
Po 0 0 0 15 6232ecd4 00000000 ~~
Li LEDC1608X50N
Cd 19-217/GHC-YR1S2/3T
Kw LED
Sc 0
At SMD
AR 
Op 0 0 0
T0 0 0 1.27 1.27 0 0.254 N V 21 N "LED**"
T1 0 0 1.27 1.27 0 0.254 N I 21 N "LEDC1608X50N"
DS -1.65 -0.925 1.65 -0.925 0.05 24
DS 1.65 -0.925 1.65 0.925 0.05 24
DS 1.65 0.925 -1.65 0.925 0.05 24
DS -1.65 0.925 -1.65 -0.925 0.05 24
DS -0.8 -0.4 0.8 -0.4 0.1 24
DS 0.8 -0.4 0.8 0.4 0.1 24
DS 0.8 0.4 -0.8 0.4 0.1 24
DS -0.8 0.4 -0.8 -0.4 0.1 24
DS -0.8 -0.133 -0.533 -0.4 0.1 24
DS 0.75 -0.825 -1.55 -0.825 0.2 21
DS -1.55 -0.825 -1.55 0.825 0.2 21
DS -1.55 0.825 0.75 0.825 0.2 21
$PAD
Po -0.75 0
Sh "1" R 0.9 0.95 0 0 0
At SMD N 00888000
Ne 0 ""
$EndPAD
$PAD
Po 0.75 0
Sh "2" R 0.9 0.95 0 0 0
At SMD N 00888000
Ne 0 ""
$EndPAD
$EndMODULE LEDC1608X50N
$EndLIBRARY
