PCBNEW-LibModule-V1  2022-03-17 08:15:25
# encoding utf-8
Units mm
$INDEX
SOT95P280X125-3N
$EndINDEX
$MODULE SOT95P280X125-3N
Po 0 0 0 15 6232ee1d 00000000 ~~
Li SOT95P280X125-3N
Cd SOT23
Kw MOSFET (P-Channel)
Sc 0
At SMD
AR 
Op 0 0 0
T0 0 0 1.27 1.27 0 0.254 N V 21 N "Q**"
T1 0 0 1.27 1.27 0 0.254 N I 21 N "SOT95P280X125-3N"
DS -2.1 -1.8 2.1 -1.8 0.05 24
DS 2.1 -1.8 2.1 1.8 0.05 24
DS 2.1 1.8 -2.1 1.8 0.05 24
DS -2.1 1.8 -2.1 -1.8 0.05 24
DS -0.8 -1.475 0.8 -1.475 0.1 24
DS 0.8 -1.475 0.8 1.475 0.1 24
DS 0.8 1.475 -0.8 1.475 0.1 24
DS -0.8 1.475 -0.8 -1.475 0.1 24
DS -0.8 -0.525 0.15 -1.475 0.1 24
DS -0.3 -1.475 0.3 -1.475 0.2 21
DS 0.3 -1.475 0.3 1.475 0.2 21
DS 0.3 1.475 -0.3 1.475 0.2 21
DS -0.3 1.475 -0.3 -1.475 0.2 21
DS -1.85 -1.5 -0.65 -1.5 0.2 21
$PAD
Po -1.25 -0.95
Sh "1" R 0.6 1.2 0 0 900
At SMD N 00888000
Ne 0 ""
$EndPAD
$PAD
Po -1.25 0.95
Sh "2" R 0.6 1.2 0 0 900
At SMD N 00888000
Ne 0 ""
$EndPAD
$PAD
Po 1.25 0
Sh "3" R 0.6 1.2 0 0 900
At SMD N 00888000
Ne 0 ""
$EndPAD
$EndMODULE SOT95P280X125-3N
$EndLIBRARY
