PCBNEW-LibModule-V1  2022-03-02 19:24:22
# encoding utf-8
Units mm
$INDEX
MICROXNJ
$EndINDEX
$MODULE MICROXNJ
Po 0 0 0 15 621fc466 00000000 ~~
Li MICROXNJ
Cd MICROXNJ-1
Kw Connector
Sc 0
At STD
AR 
Op 0 0 0
T0 0.000 3 1.27 1.27 0 0.254 N V 21 N "J**"
T1 0.000 3 1.27 1.27 0 0.254 N I 21 N "MICROXNJ"
DS -3.6 -0 3.6 -0 0.2 24
DS 3.6 -0 3.6 5.06 0.2 24
DS 3.6 5.06 -3.6 5.06 0.2 24
DS -3.6 5.06 -3.6 -0 0.2 24
DS -5.05 -0.5 5.05 -0.5 0.1 24
DS 5.05 -0.5 5.05 6.5 0.1 24
DS 5.05 6.5 -5.05 6.5 0.1 24
DS -5.05 6.5 -5.05 -0.5 0.1 24
DS 1.2 5.9 1.2 5.9 0.2 21
DS 1.4 5.9 1.4 5.9 0.2 21
DS -3.6 3.5 -3.6 5.06 0.1 21
DS -3.6 5.06 -3.6 5.06 0.1 21
DS -3.6 5.06 -3.5 5.06 0.1 21
DS 3.6 3.5 3.6 5.06 0.1 21
DS 3.6 5.06 3.5 5.06 0.1 21
DS -3.6 0.5 -3.6 -0 0.1 21
DS -3.6 -0 3.6 -0 0.1 21
DS 3.6 -0 3.6 0.5 0.1 21
DA 1.3 5.9 1.200 5.9 -1800 0.2 21
DA 1.3 5.9 1.400 5.9 -1800 0.2 21
$PAD
Po 1.300 4.775
Sh "1" R 0.400 1.250 0 0 0
At SMD N 00888000
Ne 0 ""
$EndPAD
$PAD
Po 0.650 4.775
Sh "2" R 0.400 1.250 0 0 0
At SMD N 00888000
Ne 0 ""
$EndPAD
$PAD
Po 0.000 4.775
Sh "3" R 0.400 1.250 0 0 0
At SMD N 00888000
Ne 0 ""
$EndPAD
$PAD
Po -0.650 4.775
Sh "4" R 0.400 1.250 0 0 0
At SMD N 00888000
Ne 0 ""
$EndPAD
$PAD
Po -1.300 4.775
Sh "5" R 0.400 1.250 0 0 0
At SMD N 00888000
Ne 0 ""
$EndPAD
$PAD
Po 2.425 4.8
Sh "MH1" C 1.300 1.300 0 0 900
Dr 0.7 0 0
At STD N 00E0FFFF
Ne 0 ""
$EndPAD
$PAD
Po -2.425 4.8
Sh "MH2" C 1.300 1.300 0 0 900
Dr 0.7 0 0
At STD N 00E0FFFF
Ne 0 ""
$EndPAD
$PAD
Po 3.600 2.13
Sh "MH3" C 1.900 1.900 0 0 900
Dr 1.3 0 0
At STD N 00E0FFFF
Ne 0 ""
$EndPAD
$PAD
Po -3.600 2.13
Sh "MH4" C 1.900 1.900 0 0 900
Dr 1.3 0 0
At STD N 00E0FFFF
Ne 0 ""
$EndPAD
$PAD
Po 0.800 2.125
Sh "MP1" R 0.600 1.350 0 0 0
At SMD N 00888000
Ne 0 ""
$EndPAD
$PAD
Po -0.800 2.125
Sh "MP2" R 0.600 1.350 0 0 0
At SMD N 00888000
Ne 0 ""
$EndPAD
$EndMODULE MICROXNJ
$EndLIBRARY
