PCBNEW-LibModule-V1  2022-03-10 06:42:55
# encoding utf-8
Units mm
$INDEX
SOT65P210X110-6N
$EndINDEX
$MODULE SOT65P210X110-6N
Po 0 0 0 15 62299def 00000000 ~~
Li SOT65P210X110-6N
Cd SC_88
Kw Integrated Circuit
Sc 0
At SMD
AR 
Op 0 0 0
T0 0 0 1.27 1.27 0 0.254 N V 21 N "IC**"
T1 0 0 1.27 1.27 0 0.254 N I 21 N "SOT65P210X110-6N"
DS -1.725 -1.35 1.725 -1.35 0.05 24
DS 1.725 -1.35 1.725 1.35 0.05 24
DS 1.725 1.35 -1.725 1.35 0.05 24
DS -1.725 1.35 -1.725 -1.35 0.05 24
DS -0.625 -1 0.625 -1 0.1 24
DS 0.625 -1 0.625 1 0.1 24
DS 0.625 1 -0.625 1 0.1 24
DS -0.625 1 -0.625 -1 0.1 24
DS -0.625 -0.35 0.025 -1 0.1 24
DS -0.075 -1 0.075 -1 0.2 21
DS 0.075 -1 0.075 1 0.2 21
DS 0.075 1 -0.075 1 0.2 21
DS -0.075 1 -0.075 -1 0.2 21
DS -1.475 -1.2 -0.425 -1.2 0.2 21
$PAD
Po -0.95 -0.65
Sh "1" R 0.4 1.05 0 0 900
At SMD N 00888000
Ne 0 ""
$EndPAD
$PAD
Po -0.95 0
Sh "2" R 0.4 1.05 0 0 900
At SMD N 00888000
Ne 0 ""
$EndPAD
$PAD
Po -0.95 0.65
Sh "3" R 0.4 1.05 0 0 900
At SMD N 00888000
Ne 0 ""
$EndPAD
$PAD
Po 0.95 0.65
Sh "4" R 0.4 1.05 0 0 900
At SMD N 00888000
Ne 0 ""
$EndPAD
$PAD
Po 0.95 0
Sh "5" R 0.4 1.05 0 0 900
At SMD N 00888000
Ne 0 ""
$EndPAD
$PAD
Po 0.95 -0.65
Sh "6" R 0.4 1.05 0 0 900
At SMD N 00888000
Ne 0 ""
$EndPAD
$EndMODULE SOT65P210X110-6N
$EndLIBRARY
