(module "CAPC1005X55N" (layer F.Cu)
  (descr "0402CG300J500NT")
  (tags "Capacitor")
  (attr smd)
  (fp_text reference C** (at 0 0) (layer F.SilkS)
    (effects (font (size 1.27 1.27) (thickness 0.254)))
  )
  (fp_text user %R (at 0 0) (layer F.Fab)
    (effects (font (size 1.27 1.27) (thickness 0.254)))
  )
  (fp_text value "CAPC1005X55N" (at 0 0) (layer F.SilkS) hide
    (effects (font (size 1.27 1.27) (thickness 0.254)))
  )
  (fp_line (start -0.91 -0.46) (end 0.91 -0.46) (layer F.CrtYd) (width 0.05))
  (fp_line (start 0.91 -0.46) (end 0.91 0.46) (layer F.CrtYd) (width 0.05))
  (fp_line (start 0.91 0.46) (end -0.91 0.46) (layer F.CrtYd) (width 0.05))
  (fp_line (start -0.91 0.46) (end -0.91 -0.46) (layer F.CrtYd) (width 0.05))
  (fp_line (start -0.5 -0.25) (end 0.5 -0.25) (layer F.Fab) (width 0.1))
  (fp_line (start 0.5 -0.25) (end 0.5 0.25) (layer F.Fab) (width 0.1))
  (fp_line (start 0.5 0.25) (end -0.5 0.25) (layer F.Fab) (width 0.1))
  (fp_line (start -0.5 0.25) (end -0.5 -0.25) (layer F.Fab) (width 0.1))
  (pad 1 smd rect (at -0.46 0 0) (size 0.6 0.62) (layers F.Cu F.Paste F.Mask))
  (pad 2 smd rect (at 0.46 0 0) (size 0.6 0.62) (layers F.Cu F.Paste F.Mask))
  (model 0402CG300J500NT.stp
    (at (xyz 0 0 0))
    (scale (xyz 1 1 1))
    (rotate (xyz 0 0 0))
  )
)
