(module "CAPC1608X90N" (layer F.Cu)
  (descr "0603")
  (tags "Capacitor")
  (attr smd)
  (fp_text reference C** (at 0 0) (layer F.SilkS)
    (effects (font (size 1.27 1.27) (thickness 0.254)))
  )
  (fp_text user %R (at 0 0) (layer F.Fab)
    (effects (font (size 1.27 1.27) (thickness 0.254)))
  )
  (fp_text value "CAPC1608X90N" (at 0 0) (layer F.SilkS) hide
    (effects (font (size 1.27 1.27) (thickness 0.254)))
  )
  (fp_line (start -1.225 -0.62) (end 1.225 -0.62) (layer F.CrtYd) (width 0.05))
  (fp_line (start 1.225 -0.62) (end 1.225 0.62) (layer F.CrtYd) (width 0.05))
  (fp_line (start 1.225 0.62) (end -1.225 0.62) (layer F.CrtYd) (width 0.05))
  (fp_line (start -1.225 0.62) (end -1.225 -0.62) (layer F.CrtYd) (width 0.05))
  (fp_line (start -0.8 -0.4) (end 0.8 -0.4) (layer F.Fab) (width 0.1))
  (fp_line (start 0.8 -0.4) (end 0.8 0.4) (layer F.Fab) (width 0.1))
  (fp_line (start 0.8 0.4) (end -0.8 0.4) (layer F.Fab) (width 0.1))
  (fp_line (start -0.8 0.4) (end -0.8 -0.4) (layer F.Fab) (width 0.1))
  (pad 1 smd rect (at -0.71 0 0) (size 0.73 0.94) (layers F.Cu F.Paste F.Mask))
  (pad 2 smd rect (at 0.71 0 0) (size 0.73 0.94) (layers F.Cu F.Paste F.Mask))
  (model CL10A475KO8NNNC.stp
    (at (xyz 0 0 0))
    (scale (xyz 1 1 1))
    (rotate (xyz 0 0 0))
  )
)
