PCBNEW-LibModule-V1  2022-03-17 11:10:56
# encoding utf-8
Units mm
$INDEX
CAPC1608X90N
$EndINDEX
$MODULE CAPC1608X90N
Po 0 0 0 15 62331740 00000000 ~~
Li CAPC1608X90N
Cd 0603
Kw Capacitor
Sc 0
At SMD
AR 
Op 0 0 0
T0 0 0 1.27 1.27 0 0.254 N V 21 N "C**"
T1 0 0 1.27 1.27 0 0.254 N I 21 N "CAPC1608X90N"
DS -1.225 -0.62 1.225 -0.62 0.05 24
DS 1.225 -0.62 1.225 0.62 0.05 24
DS 1.225 0.62 -1.225 0.62 0.05 24
DS -1.225 0.62 -1.225 -0.62 0.05 24
DS -0.8 -0.4 0.8 -0.4 0.1 24
DS 0.8 -0.4 0.8 0.4 0.1 24
DS 0.8 0.4 -0.8 0.4 0.1 24
DS -0.8 0.4 -0.8 -0.4 0.1 24
$PAD
Po -0.71 0
Sh "1" R 0.73 0.94 0 0 0
At SMD N 00888000
Ne 0 ""
$EndPAD
$PAD
Po 0.71 0
Sh "2" R 0.73 0.94 0 0 0
At SMD N 00888000
Ne 0 ""
$EndPAD
$EndMODULE CAPC1608X90N
$EndLIBRARY
