(kicad_symbol_lib (version 20211014) (generator kicad_symbol_editor)
  (symbol "CP2102-GMR" (pin_names (offset 0.762)) (in_bom yes) (on_board yes)
    (property "Reference" "IC" (id 0) (at 29.21 17.78 0)
      (effects (font (size 1.27 1.27)) (justify left))
    )
    (property "Value" "CP2102-GMR" (id 1) (at 29.21 15.24 0)
      (effects (font (size 1.27 1.27)) (justify left))
    )
    (property "Footprint" "QFN50P500X500X100-29N-D" (id 2) (at 29.21 12.7 0)
      (effects (font (size 1.27 1.27)) (justify left) hide)
    )
    (property "Datasheet" "https://www.silabs.com/Support%20Documents/TechnicalDocs/CP2102-9.pdf" (id 3) (at 29.21 10.16 0)
      (effects (font (size 1.27 1.27)) (justify left) hide)
    )
    (property "Description" "I/O Controller Interface IC USB-TO-UART BRIDGE, qfn-28" (id 4) (at 29.21 7.62 0)
      (effects (font (size 1.27 1.27)) (justify left) hide)
    )
    (property "Height" "1" (id 5) (at 29.21 5.08 0)
      (effects (font (size 1.27 1.27)) (justify left) hide)
    )
    (property "Manufacturer_Name" "Silicon Labs" (id 6) (at 29.21 2.54 0)
      (effects (font (size 1.27 1.27)) (justify left) hide)
    )
    (property "Manufacturer_Part_Number" "CP2102-GMR" (id 7) (at 29.21 0 0)
      (effects (font (size 1.27 1.27)) (justify left) hide)
    )
    (property "Mouser Part Number" "634-CP2102-GMR" (id 8) (at 29.21 -2.54 0)
      (effects (font (size 1.27 1.27)) (justify left) hide)
    )
    (property "Mouser Price/Stock" "https://www.mouser.co.uk/ProductDetail/Silicon-Labs/CP2102-GMR?qs=cNyzPCcHMUWu%2FiPhR8KQAw%3D%3D" (id 9) (at 29.21 -5.08 0)
      (effects (font (size 1.27 1.27)) (justify left) hide)
    )
    (property "Arrow Part Number" "CP2102-GMR" (id 10) (at 29.21 -7.62 0)
      (effects (font (size 1.27 1.27)) (justify left) hide)
    )
    (property "Arrow Price/Stock" "https://www.arrow.com/en/products/cp2102-gmr/silicon-labs?region=nac" (id 11) (at 29.21 -10.16 0)
      (effects (font (size 1.27 1.27)) (justify left) hide)
    )
    (property "ki_description" "I/O Controller Interface IC USB-TO-UART BRIDGE, qfn-28" (id 12) (at 0 0 0)
      (effects (font (size 1.27 1.27)) hide)
    )
    (symbol "CP2102-GMR_0_0"
      (pin passive line (at 0 0 0) (length 5.08)
        (name "DCD" (effects (font (size 1.27 1.27))))
        (number "1" (effects (font (size 1.27 1.27))))
      )
      (pin passive line (at 12.7 -35.56 90) (length 5.08)
        (name "NC_1" (effects (font (size 1.27 1.27))))
        (number "10" (effects (font (size 1.27 1.27))))
      )
      (pin passive line (at 15.24 -35.56 90) (length 5.08)
        (name "~{SUSPEND}" (effects (font (size 1.27 1.27))))
        (number "11" (effects (font (size 1.27 1.27))))
      )
      (pin passive line (at 17.78 -35.56 90) (length 5.08)
        (name "SUSPEND" (effects (font (size 1.27 1.27))))
        (number "12" (effects (font (size 1.27 1.27))))
      )
      (pin passive line (at 20.32 -35.56 90) (length 5.08)
        (name "NC_2" (effects (font (size 1.27 1.27))))
        (number "13" (effects (font (size 1.27 1.27))))
      )
      (pin passive line (at 22.86 -35.56 90) (length 5.08)
        (name "NC_3" (effects (font (size 1.27 1.27))))
        (number "14" (effects (font (size 1.27 1.27))))
      )
      (pin passive line (at 33.02 -15.24 180) (length 5.08)
        (name "NC_4" (effects (font (size 1.27 1.27))))
        (number "15" (effects (font (size 1.27 1.27))))
      )
      (pin passive line (at 33.02 -12.7 180) (length 5.08)
        (name "NC_5" (effects (font (size 1.27 1.27))))
        (number "16" (effects (font (size 1.27 1.27))))
      )
      (pin passive line (at 33.02 -10.16 180) (length 5.08)
        (name "NC_6" (effects (font (size 1.27 1.27))))
        (number "17" (effects (font (size 1.27 1.27))))
      )
      (pin passive line (at 33.02 -7.62 180) (length 5.08)
        (name "NC/VPP" (effects (font (size 1.27 1.27))))
        (number "18" (effects (font (size 1.27 1.27))))
      )
      (pin passive line (at 33.02 -5.08 180) (length 5.08)
        (name "NC_7" (effects (font (size 1.27 1.27))))
        (number "19" (effects (font (size 1.27 1.27))))
      )
      (pin passive line (at 0 -2.54 0) (length 5.08)
        (name "RI" (effects (font (size 1.27 1.27))))
        (number "2" (effects (font (size 1.27 1.27))))
      )
      (pin passive line (at 33.02 -2.54 180) (length 5.08)
        (name "NC_8" (effects (font (size 1.27 1.27))))
        (number "20" (effects (font (size 1.27 1.27))))
      )
      (pin passive line (at 33.02 0 180) (length 5.08)
        (name "NC_9" (effects (font (size 1.27 1.27))))
        (number "21" (effects (font (size 1.27 1.27))))
      )
      (pin passive line (at 25.4 17.78 270) (length 5.08)
        (name "NC_10" (effects (font (size 1.27 1.27))))
        (number "22" (effects (font (size 1.27 1.27))))
      )
      (pin passive line (at 22.86 17.78 270) (length 5.08)
        (name "CTS" (effects (font (size 1.27 1.27))))
        (number "23" (effects (font (size 1.27 1.27))))
      )
      (pin passive line (at 20.32 17.78 270) (length 5.08)
        (name "RTS" (effects (font (size 1.27 1.27))))
        (number "24" (effects (font (size 1.27 1.27))))
      )
      (pin passive line (at 17.78 17.78 270) (length 5.08)
        (name "RXD" (effects (font (size 1.27 1.27))))
        (number "25" (effects (font (size 1.27 1.27))))
      )
      (pin passive line (at 15.24 17.78 270) (length 5.08)
        (name "TXD" (effects (font (size 1.27 1.27))))
        (number "26" (effects (font (size 1.27 1.27))))
      )
      (pin passive line (at 12.7 17.78 270) (length 5.08)
        (name "DSR" (effects (font (size 1.27 1.27))))
        (number "27" (effects (font (size 1.27 1.27))))
      )
      (pin passive line (at 10.16 17.78 270) (length 5.08)
        (name "DTR" (effects (font (size 1.27 1.27))))
        (number "28" (effects (font (size 1.27 1.27))))
      )
      (pin passive line (at 7.62 17.78 270) (length 5.08)
        (name "TPAD" (effects (font (size 1.27 1.27))))
        (number "29" (effects (font (size 1.27 1.27))))
      )
      (pin passive line (at 0 -5.08 0) (length 5.08)
        (name "GND" (effects (font (size 1.27 1.27))))
        (number "3" (effects (font (size 1.27 1.27))))
      )
      (pin passive line (at 0 -7.62 0) (length 5.08)
        (name "D+" (effects (font (size 1.27 1.27))))
        (number "4" (effects (font (size 1.27 1.27))))
      )
      (pin passive line (at 0 -10.16 0) (length 5.08)
        (name "D-" (effects (font (size 1.27 1.27))))
        (number "5" (effects (font (size 1.27 1.27))))
      )
      (pin passive line (at 0 -12.7 0) (length 5.08)
        (name "VDD" (effects (font (size 1.27 1.27))))
        (number "6" (effects (font (size 1.27 1.27))))
      )
      (pin passive line (at 0 -15.24 0) (length 5.08)
        (name "REGIN" (effects (font (size 1.27 1.27))))
        (number "7" (effects (font (size 1.27 1.27))))
      )
      (pin passive line (at 7.62 -35.56 90) (length 5.08)
        (name "VBUS" (effects (font (size 1.27 1.27))))
        (number "8" (effects (font (size 1.27 1.27))))
      )
      (pin passive line (at 10.16 -35.56 90) (length 5.08)
        (name "~{RST}" (effects (font (size 1.27 1.27))))
        (number "9" (effects (font (size 1.27 1.27))))
      )
    )
    (symbol "CP2102-GMR_0_1"
      (polyline
        (pts
          (xy 5.08 12.7)
          (xy 27.94 12.7)
          (xy 27.94 -30.48)
          (xy 5.08 -30.48)
          (xy 5.08 12.7)
        )
        (stroke (width 0.1524) (type default) (color 0 0 0 0))
        (fill (type none))
      )
    )
  )
)
