<?xml version="1.0" encoding="utf-8"?>
<!--/236911/775093/2.49/29/0/Integrated Circuit/-->
<!DOCTYPE curve SYSTEM "eagle.dtd">
<eagle version="7.7.0">
<drawing>
<settings>
<setting alwaysvectorfont="no"/>
<setting verticaltext="up"/>
</settings>
<grid distance="0.1" unitdist="inch" unit="inch" style="lines" multiple="1" display="no" altdistance="0.01" altunitdist="inch" altunit="inch"/>
<layers>
<layer number="1" name="Top" color="4" fill="1" visible="yes" active="yes"/>
<layer number="16" name="Bottom" color="1" fill="1" visible="yes" active="yes"/>
<layer number="17" name="Pads" color="2" fill="1" visible="yes" active="yes"/>
<layer number="18" name="Vias" color="2" fill="1" visible="yes" active="yes"/>
<layer number="19" name="Unrouted" color="6" fill="1" visible="yes" active="yes"/>
<layer number="20" name="Dimension" color="15" fill="1" visible="yes" active="yes"/>
<layer number="21" name="tPlace" color="7" fill="1" visible="yes" active="yes"/>
<layer number="22" name="bPlace" color="7" fill="1" visible="yes" active="yes"/>
<layer number="23" name="tOrigins" color="15" fill="1" visible="yes" active="yes"/>
<layer number="24" name="bOrigins" color="15" fill="1" visible="yes" active="yes"/>
<layer number="25" name="tNames" color="7" fill="1" visible="yes" active="yes"/>
<layer number="26" name="bNames" color="7" fill="1" visible="yes" active="yes"/>
<layer number="27" name="tValues" color="7" fill="1" visible="yes" active="yes"/>
<layer number="28" name="bValues" color="7" fill="1" visible="yes" active="yes"/>
<layer number="29" name="tStop" color="7" fill="3" visible="no" active="yes"/>
<layer number="30" name="bStop" color="7" fill="6" visible="no" active="yes"/>
<layer number="31" name="tCream" color="7" fill="4" visible="no" active="yes"/>
<layer number="32" name="bCream" color="7" fill="5" visible="no" active="yes"/>
<layer number="33" name="tFinish" color="6" fill="3" visible="no" active="yes"/>
<layer number="34" name="bFinish" color="6" fill="6" visible="no" active="yes"/>
<layer number="35" name="tGlue" color="7" fill="4" visible="no" active="yes"/>
<layer number="36" name="bGlue" color="7" fill="5" visible="no" active="yes"/>
<layer number="37" name="tTest" color="7" fill="1" visible="no" active="yes"/>
<layer number="38" name="bTest" color="7" fill="1" visible="no" active="yes"/>
<layer number="39" name="tKeepout" color="4" fill="11" visible="yes" active="yes"/>
<layer number="40" name="bKeepout" color="1" fill="11" visible="yes" active="yes"/>
<layer number="41" name="tRestrict" color="4" fill="10" visible="yes" active="yes"/>
<layer number="42" name="bRestrict" color="1" fill="10" visible="yes" active="yes"/>
<layer number="43" name="vRestrict" color="2" fill="10" visible="yes" active="yes"/>
<layer number="44" name="Drills" color="7" fill="1" visible="no" active="yes"/>
<layer number="45" name="Holes" color="7" fill="1" visible="no" active="yes"/>
<layer number="46" name="Milling" color="3" fill="1" visible="no" active="yes"/>
<layer number="47" name="Measures" color="7" fill="1" visible="no" active="yes"/>
<layer number="48" name="Document" color="7" fill="1" visible="yes" active="yes"/>
<layer number="49" name="Reference" color="7" fill="1" visible="yes" active="yes"/>
<layer number="51" name="tDocu" color="7" fill="1" visible="yes" active="yes"/>
<layer number="52" name="bDocu" color="7" fill="1" visible="yes" active="yes"/>
<layer number="90" name="Modules" color="5" fill="1" visible="yes" active="yes"/>
<layer number="91" name="Nets" color="2" fill="1" visible="yes" active="yes"/>
<layer number="92" name="Busses" color="1" fill="1" visible="yes" active="yes"/>
<layer number="93" name="Pins" color="2" fill="1" visible="no" active="yes"/>
<layer number="94" name="Symbols" color="4" fill="1" visible="yes" active="yes"/>
<layer number="95" name="Names" color="7" fill="1" visible="yes" active="yes"/>
<layer number="96" name="Values" color="7" fill="1" visible="yes" active="yes"/>
<layer number="97" name="Info" color="7" fill="1" visible="yes" active="yes"/>
<layer number="98" name="Guide" color="6" fill="1" visible="yes" active="yes"/>
</layers>
<library>
<description>&lt;I/O Controller Interface IC USB-TO-UART BRIDGE, qfn-28&lt;/b&gt;&lt;p&gt;
&lt;author&gt;Created by SamacSys&lt;/author&gt;</description>
<packages>
<package name="QFN50P500X500X100-29N">
<description>&lt;b&gt;QFN-28_1&lt;/b&gt;&lt;br&gt;
</description>
<smd name="1" x="-2.4" y="1.5" dx="1" dy="0.3" layer="1" rot="R0"/>
<smd name="2" x="-2.4" y="1" dx="1" dy="0.3" layer="1" rot="R0"/>
<smd name="3" x="-2.4" y="0.5" dx="1" dy="0.3" layer="1" rot="R0"/>
<smd name="4" x="-2.4" y="0" dx="1" dy="0.3" layer="1" rot="R0"/>
<smd name="5" x="-2.4" y="-0.5" dx="1" dy="0.3" layer="1" rot="R0"/>
<smd name="6" x="-2.4" y="-1" dx="1" dy="0.3" layer="1" rot="R0"/>
<smd name="7" x="-2.4" y="-1.5" dx="1" dy="0.3" layer="1" rot="R0"/>
<smd name="8" x="-1.5" y="-2.4" dx="1" dy="0.3" layer="1" rot="R90"/>
<smd name="9" x="-1" y="-2.4" dx="1" dy="0.3" layer="1" rot="R90"/>
<smd name="10" x="-0.5" y="-2.4" dx="1" dy="0.3" layer="1" rot="R90"/>
<smd name="11" x="0" y="-2.4" dx="1" dy="0.3" layer="1" rot="R90"/>
<smd name="12" x="0.5" y="-2.4" dx="1" dy="0.3" layer="1" rot="R90"/>
<smd name="13" x="1" y="-2.4" dx="1" dy="0.3" layer="1" rot="R90"/>
<smd name="14" x="1.5" y="-2.4" dx="1" dy="0.3" layer="1" rot="R90"/>
<smd name="15" x="2.4" y="-1.5" dx="1" dy="0.3" layer="1" rot="R0"/>
<smd name="16" x="2.4" y="-1" dx="1" dy="0.3" layer="1" rot="R0"/>
<smd name="17" x="2.4" y="-0.5" dx="1" dy="0.3" layer="1" rot="R0"/>
<smd name="18" x="2.4" y="0" dx="1" dy="0.3" layer="1" rot="R0"/>
<smd name="19" x="2.4" y="0.5" dx="1" dy="0.3" layer="1" rot="R0"/>
<smd name="20" x="2.4" y="1" dx="1" dy="0.3" layer="1" rot="R0"/>
<smd name="21" x="2.4" y="1.5" dx="1" dy="0.3" layer="1" rot="R0"/>
<smd name="22" x="1.5" y="2.4" dx="1" dy="0.3" layer="1" rot="R90"/>
<smd name="23" x="1" y="2.4" dx="1" dy="0.3" layer="1" rot="R90"/>
<smd name="24" x="0.5" y="2.4" dx="1" dy="0.3" layer="1" rot="R90"/>
<smd name="25" x="0" y="2.4" dx="1" dy="0.3" layer="1" rot="R90"/>
<smd name="26" x="-0.5" y="2.4" dx="1" dy="0.3" layer="1" rot="R90"/>
<smd name="27" x="-1" y="2.4" dx="1" dy="0.3" layer="1" rot="R90"/>
<smd name="28" x="-1.5" y="2.4" dx="1" dy="0.3" layer="1" rot="R90"/>
<smd name="29" x="0" y="0" dx="3.35" dy="3.35" layer="1" rot="R90"/>
<text x="0" y="0" align="center" size="1.27" layer="25" rot="R0" >&gt;NAME</text>
<text x="0" y="0" align="center" size="1.27" layer="27" rot="R0" >&gt;VALUE</text>
<wire x1="-3.15" y1="3.15" x2="3.15" y2="3.15" width="0.05" layer="51"/>
<wire x1="3.15" y1="3.15" x2="3.15" y2="-3.15" width="0.05" layer="51"/>
<wire x1="3.15" y1="-3.15" x2="-3.15" y2="-3.15" width="0.05" layer="51"/>
<wire x1="-3.15" y1="-3.15" x2="-3.15" y2="3.15" width="0.05" layer="51"/>
<wire x1="-2.5" y1="2.5" x2="2.5" y2="2.5" width="0.1" layer="51"/>
<wire x1="2.5" y1="2.5" x2="2.5" y2="-2.5" width="0.1" layer="51"/>
<wire x1="2.5" y1="-2.5" x2="-2.5" y2="-2.5" width="0.1" layer="51"/>
<wire x1="-2.5" y1="-2.5" x2="-2.5" y2="2.5" width="0.1" layer="51"/>
<wire x1="-2.5" y1="2" x2="-2" y2="2.5" width="0.1" layer="51"/>
<circle x="-2.9" y="2.25" radius="0.125" width="0.25" layer="25"/>
</package>
</packages>
<symbols>
<symbol name="CP2102-GMR">
<wire x1="5.08" y1="12.7" x2="27.94" y2="12.7" width="0.254" layer="94"/>
<wire x1="27.94" y1="-30.48" x2="27.94" y2="12.7" width="0.254" layer="94"/>
<wire x1="27.94" y1="-30.48" x2="5.08" y2="-30.48" width="0.254" layer="94"/>
<wire x1="5.08" y1="12.7" x2="5.08" y2="-30.48" width="0.254" layer="94"/>
<text x="29.21" y="17.78" align="center-left" size="1.778" layer="95">&gt;NAME</text>
<text x="29.21" y="15.24" align="center-left" size="1.778" layer="96">&gt;VALUE</text>
<pin name="DCD" x="0" y="0" length="middle" direction="io" rot="R0"/>
<pin name="RI" x="0" y="-2.54" length="middle" direction="io" rot="R0"/>
<pin name="GND" x="0" y="-5.08" length="middle" direction="io" rot="R0"/>
<pin name="D+" x="0" y="-7.62" length="middle" direction="io" rot="R0"/>
<pin name="D-" x="0" y="-10.16" length="middle" direction="io" rot="R0"/>
<pin name="VDD" x="0" y="-12.7" length="middle" direction="io" rot="R0"/>
<pin name="REGIN" x="0" y="-15.24" length="middle" direction="io" rot="R0"/>
<pin name="VBUS" x="7.62" y="-35.56" length="middle" direction="io" rot="R90"/>
<pin name="!RST" x="10.16" y="-35.56" length="middle" direction="io" rot="R90"/>
<pin name="NC_1" x="12.7" y="-35.56" length="middle" direction="io" rot="R90"/>
<pin name="!SUSPEND" x="15.24" y="-35.56" length="middle" direction="io" rot="R90"/>
<pin name="SUSPEND" x="17.78" y="-35.56" length="middle" direction="io" rot="R90"/>
<pin name="NC_2" x="20.32" y="-35.56" length="middle" direction="io" rot="R90"/>
<pin name="NC_3" x="22.86" y="-35.56" length="middle" direction="io" rot="R90"/>
<pin name="NC_9" x="33.02" y="0" length="middle" direction="io" rot="R180"/>
<pin name="NC_8" x="33.02" y="-2.54" length="middle" direction="io" rot="R180"/>
<pin name="NC_7" x="33.02" y="-5.08" length="middle" direction="io" rot="R180"/>
<pin name="NC/VPP" x="33.02" y="-7.62" length="middle" direction="io" rot="R180"/>
<pin name="NC_6" x="33.02" y="-10.16" length="middle" direction="io" rot="R180"/>
<pin name="NC_5" x="33.02" y="-12.7" length="middle" direction="io" rot="R180"/>
<pin name="NC_4" x="33.02" y="-15.24" length="middle" direction="io" rot="R180"/>
<pin name="TPAD" x="7.62" y="17.78" length="middle" direction="io" rot="R270"/>
<pin name="DTR" x="10.16" y="17.78" length="middle" direction="io" rot="R270"/>
<pin name="DSR" x="12.7" y="17.78" length="middle" direction="io" rot="R270"/>
<pin name="TXD" x="15.24" y="17.78" length="middle" direction="io" rot="R270"/>
<pin name="RXD" x="17.78" y="17.78" length="middle" direction="io" rot="R270"/>
<pin name="RTS" x="20.32" y="17.78" length="middle" direction="io" rot="R270"/>
<pin name="CTS" x="22.86" y="17.78" length="middle" direction="io" rot="R270"/>
<pin name="NC_10" x="25.4" y="17.78" length="middle" direction="io" rot="R270"/>
</symbol>
</symbols>
<devicesets>
<deviceset name="CP2102-GMR" prefix="IC">
<description>&lt;b&gt;I/O Controller Interface IC USB-TO-UART BRIDGE, qfn-28&lt;/b&gt;&lt;p&gt;
Source: &lt;a href="https://www.silabs.com/Support Documents/TechnicalDocs/CP2102-9.pdf"&gt; Datasheet &lt;/a&gt;</description>
<gates>
<gate name="G$1" symbol="CP2102-GMR" x="0" y="0"/>
</gates>
<devices>
<device name="" package="QFN50P500X500X100-29N">
<connects>
<connect gate="G$1" pin="DCD" pad="1"/>
<connect gate="G$1" pin="RI" pad="2"/>
<connect gate="G$1" pin="GND" pad="3"/>
<connect gate="G$1" pin="D+" pad="4"/>
<connect gate="G$1" pin="D-" pad="5"/>
<connect gate="G$1" pin="VDD" pad="6"/>
<connect gate="G$1" pin="REGIN" pad="7"/>
<connect gate="G$1" pin="VBUS" pad="8"/>
<connect gate="G$1" pin="!RST" pad="9"/>
<connect gate="G$1" pin="NC_1" pad="10"/>
<connect gate="G$1" pin="!SUSPEND" pad="11"/>
<connect gate="G$1" pin="SUSPEND" pad="12"/>
<connect gate="G$1" pin="NC_2" pad="13"/>
<connect gate="G$1" pin="NC_3" pad="14"/>
<connect gate="G$1" pin="NC_4" pad="15"/>
<connect gate="G$1" pin="NC_5" pad="16"/>
<connect gate="G$1" pin="NC_6" pad="17"/>
<connect gate="G$1" pin="NC/VPP" pad="18"/>
<connect gate="G$1" pin="NC_7" pad="19"/>
<connect gate="G$1" pin="NC_8" pad="20"/>
<connect gate="G$1" pin="NC_9" pad="21"/>
<connect gate="G$1" pin="NC_10" pad="22"/>
<connect gate="G$1" pin="CTS" pad="23"/>
<connect gate="G$1" pin="RTS" pad="24"/>
<connect gate="G$1" pin="RXD" pad="25"/>
<connect gate="G$1" pin="TXD" pad="26"/>
<connect gate="G$1" pin="DSR" pad="27"/>
<connect gate="G$1" pin="DTR" pad="28"/>
<connect gate="G$1" pin="TPAD" pad="29"/>
</connects>
<technologies>
<technology name="">
<attribute name="Manufacturer_Name" value="Silicon Labs" constant="no"/>
<attribute name="Manufacturer_Part_Number" value="CP2102-GMR" constant="no"/>
<attribute name="Mouser_Part_Number" value="634-CP2102-GMR" constant="no"/>
<attribute name="Mouser_Price-Stock" value="https://www.mouser.co.uk/ProductDetail/Silicon-Labs/CP2102-GMR?qs=cNyzPCcHMUWu%2FiPhR8KQAw%3D%3D" constant="no"/>
<attribute name="Arrow_Part_Number" value="CP2102-GMR" constant="no"/>
<attribute name="Arrow_Price-Stock" value="https://www.arrow.com/en/products/cp2102-gmr/silicon-labs?region=nac" constant="no"/>
<attribute name="Description" value="I/O Controller Interface IC USB-TO-UART BRIDGE, qfn-28" constant="no"/>
<attribute name="Height" value="1mm" constant="no"/>
</technology>
</technologies>
</device>
</devices>
</deviceset>
</devicesets>
</library>
</drawing>
</eagle>
