<?xml version="1.0" encoding="utf-8"?>
<!--/241139/775093/2.49/48/3/Integrated Circuit/-->
<!DOCTYPE curve SYSTEM "eagle.dtd">
<eagle version="7.7.0">
<drawing>
<settings>
<setting alwaysvectorfont="no"/>
<setting verticaltext="up"/>
</settings>
<grid distance="0.1" unitdist="inch" unit="inch" style="lines" multiple="1" display="no" altdistance="0.01" altunitdist="inch" altunit="inch"/>
<layers>
<layer number="1" name="Top" color="4" fill="1" visible="yes" active="yes"/>
<layer number="16" name="Bottom" color="1" fill="1" visible="yes" active="yes"/>
<layer number="17" name="Pads" color="2" fill="1" visible="yes" active="yes"/>
<layer number="18" name="Vias" color="2" fill="1" visible="yes" active="yes"/>
<layer number="19" name="Unrouted" color="6" fill="1" visible="yes" active="yes"/>
<layer number="20" name="Dimension" color="15" fill="1" visible="yes" active="yes"/>
<layer number="21" name="tPlace" color="7" fill="1" visible="yes" active="yes"/>
<layer number="22" name="bPlace" color="7" fill="1" visible="yes" active="yes"/>
<layer number="23" name="tOrigins" color="15" fill="1" visible="yes" active="yes"/>
<layer number="24" name="bOrigins" color="15" fill="1" visible="yes" active="yes"/>
<layer number="25" name="tNames" color="7" fill="1" visible="yes" active="yes"/>
<layer number="26" name="bNames" color="7" fill="1" visible="yes" active="yes"/>
<layer number="27" name="tValues" color="7" fill="1" visible="yes" active="yes"/>
<layer number="28" name="bValues" color="7" fill="1" visible="yes" active="yes"/>
<layer number="29" name="tStop" color="7" fill="3" visible="no" active="yes"/>
<layer number="30" name="bStop" color="7" fill="6" visible="no" active="yes"/>
<layer number="31" name="tCream" color="7" fill="4" visible="no" active="yes"/>
<layer number="32" name="bCream" color="7" fill="5" visible="no" active="yes"/>
<layer number="33" name="tFinish" color="6" fill="3" visible="no" active="yes"/>
<layer number="34" name="bFinish" color="6" fill="6" visible="no" active="yes"/>
<layer number="35" name="tGlue" color="7" fill="4" visible="no" active="yes"/>
<layer number="36" name="bGlue" color="7" fill="5" visible="no" active="yes"/>
<layer number="37" name="tTest" color="7" fill="1" visible="no" active="yes"/>
<layer number="38" name="bTest" color="7" fill="1" visible="no" active="yes"/>
<layer number="39" name="tKeepout" color="4" fill="11" visible="yes" active="yes"/>
<layer number="40" name="bKeepout" color="1" fill="11" visible="yes" active="yes"/>
<layer number="41" name="tRestrict" color="4" fill="10" visible="yes" active="yes"/>
<layer number="42" name="bRestrict" color="1" fill="10" visible="yes" active="yes"/>
<layer number="43" name="vRestrict" color="2" fill="10" visible="yes" active="yes"/>
<layer number="44" name="Drills" color="7" fill="1" visible="no" active="yes"/>
<layer number="45" name="Holes" color="7" fill="1" visible="no" active="yes"/>
<layer number="46" name="Milling" color="3" fill="1" visible="no" active="yes"/>
<layer number="47" name="Measures" color="7" fill="1" visible="no" active="yes"/>
<layer number="48" name="Document" color="7" fill="1" visible="yes" active="yes"/>
<layer number="49" name="Reference" color="7" fill="1" visible="yes" active="yes"/>
<layer number="51" name="tDocu" color="7" fill="1" visible="yes" active="yes"/>
<layer number="52" name="bDocu" color="7" fill="1" visible="yes" active="yes"/>
<layer number="90" name="Modules" color="5" fill="1" visible="yes" active="yes"/>
<layer number="91" name="Nets" color="2" fill="1" visible="yes" active="yes"/>
<layer number="92" name="Busses" color="1" fill="1" visible="yes" active="yes"/>
<layer number="93" name="Pins" color="2" fill="1" visible="no" active="yes"/>
<layer number="94" name="Symbols" color="4" fill="1" visible="yes" active="yes"/>
<layer number="95" name="Names" color="7" fill="1" visible="yes" active="yes"/>
<layer number="96" name="Values" color="7" fill="1" visible="yes" active="yes"/>
<layer number="97" name="Info" color="7" fill="1" visible="yes" active="yes"/>
<layer number="98" name="Guide" color="6" fill="1" visible="yes" active="yes"/>
</layers>
<library>
<description>&lt;USB 2.0 to UART/FIFO Interface, LQFP48 FTDI Chip FT232HL-REEL Universal Asynchronous Receiver &amp; Transmitter RS232, RS422, RS485 UART 12Mbit/s, 1.8 V, 3.3 V&lt;/b&gt;&lt;p&gt;
&lt;author&gt;Created by SamacSys&lt;/author&gt;</description>
<packages>
<package name="QFP50P900X900X160-48N">
<description>&lt;b&gt;48 pinout&lt;/b&gt;&lt;br&gt;
</description>
<smd name="1" x="-4.238" y="2.75" dx="1.475" dy="0.3" layer="1" rot="R0"/>
<smd name="2" x="-4.238" y="2.25" dx="1.475" dy="0.3" layer="1" rot="R0"/>
<smd name="3" x="-4.238" y="1.75" dx="1.475" dy="0.3" layer="1" rot="R0"/>
<smd name="4" x="-4.238" y="1.25" dx="1.475" dy="0.3" layer="1" rot="R0"/>
<smd name="5" x="-4.238" y="0.75" dx="1.475" dy="0.3" layer="1" rot="R0"/>
<smd name="6" x="-4.238" y="0.25" dx="1.475" dy="0.3" layer="1" rot="R0"/>
<smd name="7" x="-4.238" y="-0.25" dx="1.475" dy="0.3" layer="1" rot="R0"/>
<smd name="8" x="-4.238" y="-0.75" dx="1.475" dy="0.3" layer="1" rot="R0"/>
<smd name="9" x="-4.238" y="-1.25" dx="1.475" dy="0.3" layer="1" rot="R0"/>
<smd name="10" x="-4.238" y="-1.75" dx="1.475" dy="0.3" layer="1" rot="R0"/>
<smd name="11" x="-4.238" y="-2.25" dx="1.475" dy="0.3" layer="1" rot="R0"/>
<smd name="12" x="-4.238" y="-2.75" dx="1.475" dy="0.3" layer="1" rot="R0"/>
<smd name="13" x="-2.75" y="-4.238" dx="1.475" dy="0.3" layer="1" rot="R90"/>
<smd name="14" x="-2.25" y="-4.238" dx="1.475" dy="0.3" layer="1" rot="R90"/>
<smd name="15" x="-1.75" y="-4.238" dx="1.475" dy="0.3" layer="1" rot="R90"/>
<smd name="16" x="-1.25" y="-4.238" dx="1.475" dy="0.3" layer="1" rot="R90"/>
<smd name="17" x="-0.75" y="-4.238" dx="1.475" dy="0.3" layer="1" rot="R90"/>
<smd name="18" x="-0.25" y="-4.238" dx="1.475" dy="0.3" layer="1" rot="R90"/>
<smd name="19" x="0.25" y="-4.238" dx="1.475" dy="0.3" layer="1" rot="R90"/>
<smd name="20" x="0.75" y="-4.238" dx="1.475" dy="0.3" layer="1" rot="R90"/>
<smd name="21" x="1.25" y="-4.238" dx="1.475" dy="0.3" layer="1" rot="R90"/>
<smd name="22" x="1.75" y="-4.238" dx="1.475" dy="0.3" layer="1" rot="R90"/>
<smd name="23" x="2.25" y="-4.238" dx="1.475" dy="0.3" layer="1" rot="R90"/>
<smd name="24" x="2.75" y="-4.238" dx="1.475" dy="0.3" layer="1" rot="R90"/>
<smd name="25" x="4.238" y="-2.75" dx="1.475" dy="0.3" layer="1" rot="R0"/>
<smd name="26" x="4.238" y="-2.25" dx="1.475" dy="0.3" layer="1" rot="R0"/>
<smd name="27" x="4.238" y="-1.75" dx="1.475" dy="0.3" layer="1" rot="R0"/>
<smd name="28" x="4.238" y="-1.25" dx="1.475" dy="0.3" layer="1" rot="R0"/>
<smd name="29" x="4.238" y="-0.75" dx="1.475" dy="0.3" layer="1" rot="R0"/>
<smd name="30" x="4.238" y="-0.25" dx="1.475" dy="0.3" layer="1" rot="R0"/>
<smd name="31" x="4.238" y="0.25" dx="1.475" dy="0.3" layer="1" rot="R0"/>
<smd name="32" x="4.238" y="0.75" dx="1.475" dy="0.3" layer="1" rot="R0"/>
<smd name="33" x="4.238" y="1.25" dx="1.475" dy="0.3" layer="1" rot="R0"/>
<smd name="34" x="4.238" y="1.75" dx="1.475" dy="0.3" layer="1" rot="R0"/>
<smd name="35" x="4.238" y="2.25" dx="1.475" dy="0.3" layer="1" rot="R0"/>
<smd name="36" x="4.238" y="2.75" dx="1.475" dy="0.3" layer="1" rot="R0"/>
<smd name="37" x="2.75" y="4.238" dx="1.475" dy="0.3" layer="1" rot="R90"/>
<smd name="38" x="2.25" y="4.238" dx="1.475" dy="0.3" layer="1" rot="R90"/>
<smd name="39" x="1.75" y="4.238" dx="1.475" dy="0.3" layer="1" rot="R90"/>
<smd name="40" x="1.25" y="4.238" dx="1.475" dy="0.3" layer="1" rot="R90"/>
<smd name="41" x="0.75" y="4.238" dx="1.475" dy="0.3" layer="1" rot="R90"/>
<smd name="42" x="0.25" y="4.238" dx="1.475" dy="0.3" layer="1" rot="R90"/>
<smd name="43" x="-0.25" y="4.238" dx="1.475" dy="0.3" layer="1" rot="R90"/>
<smd name="44" x="-0.75" y="4.238" dx="1.475" dy="0.3" layer="1" rot="R90"/>
<smd name="45" x="-1.25" y="4.238" dx="1.475" dy="0.3" layer="1" rot="R90"/>
<smd name="46" x="-1.75" y="4.238" dx="1.475" dy="0.3" layer="1" rot="R90"/>
<smd name="47" x="-2.25" y="4.238" dx="1.475" dy="0.3" layer="1" rot="R90"/>
<smd name="48" x="-2.75" y="4.238" dx="1.475" dy="0.3" layer="1" rot="R90"/>
<text x="0" y="0" align="center" size="1.27" layer="25" rot="R0" >&gt;NAME</text>
<text x="0" y="0" align="center" size="1.27" layer="27" rot="R0" >&gt;VALUE</text>
<wire x1="-5.225" y1="5.225" x2="5.225" y2="5.225" width="0.05" layer="51"/>
<wire x1="5.225" y1="5.225" x2="5.225" y2="-5.225" width="0.05" layer="51"/>
<wire x1="5.225" y1="-5.225" x2="-5.225" y2="-5.225" width="0.05" layer="51"/>
<wire x1="-5.225" y1="-5.225" x2="-5.225" y2="5.225" width="0.05" layer="51"/>
<wire x1="-3.5" y1="3.5" x2="3.5" y2="3.5" width="0.1" layer="51"/>
<wire x1="3.5" y1="3.5" x2="3.5" y2="-3.5" width="0.1" layer="51"/>
<wire x1="3.5" y1="-3.5" x2="-3.5" y2="-3.5" width="0.1" layer="51"/>
<wire x1="-3.5" y1="-3.5" x2="-3.5" y2="3.5" width="0.1" layer="51"/>
<wire x1="-3.5" y1="3" x2="-3" y2="3.5" width="0.1" layer="51"/>
<wire x1="-3.15" y1="3.15" x2="3.15" y2="3.15" width="0.2" layer="21"/>
<wire x1="3.15" y1="3.15" x2="3.15" y2="-3.15" width="0.2" layer="21"/>
<wire x1="3.15" y1="-3.15" x2="-3.15" y2="-3.15" width="0.2" layer="21"/>
<wire x1="-3.15" y1="-3.15" x2="-3.15" y2="3.15" width="0.2" layer="21"/>
<circle x="-4.725" y="3.5" radius="0.125" width="0.25" layer="25"/>
</package>
</packages>
<symbols>
<symbol name="FT232HL-REEL">
<wire x1="5.08" y1="15.24" x2="38.1" y2="15.24" width="0.254" layer="94"/>
<wire x1="38.1" y1="-43.18" x2="38.1" y2="15.24" width="0.254" layer="94"/>
<wire x1="38.1" y1="-43.18" x2="5.08" y2="-43.18" width="0.254" layer="94"/>
<wire x1="5.08" y1="15.24" x2="5.08" y2="-43.18" width="0.254" layer="94"/>
<text x="39.37" y="20.32" align="center-left" size="1.778" layer="95">&gt;NAME</text>
<text x="39.37" y="17.78" align="center-left" size="1.778" layer="96">&gt;VALUE</text>
<pin name="XCSI" x="0" y="0" length="middle" direction="io" rot="R0"/>
<pin name="XCSO" x="0" y="-2.54" length="middle" direction="io" rot="R0"/>
<pin name="VPHY" x="0" y="-5.08" length="middle" direction="io" rot="R0"/>
<pin name="AGND_1" x="0" y="-7.62" length="middle" direction="io" rot="R0"/>
<pin name="REF" x="0" y="-10.16" length="middle" direction="io" rot="R0"/>
<pin name="DM" x="0" y="-12.7" length="middle" direction="io" rot="R0"/>
<pin name="DP" x="0" y="-15.24" length="middle" direction="io" rot="R0"/>
<pin name="VPLL" x="0" y="-17.78" length="middle" direction="io" rot="R0"/>
<pin name="AGND_2" x="0" y="-20.32" length="middle" direction="io" rot="R0"/>
<pin name="GND_1" x="0" y="-22.86" length="middle" direction="io" rot="R0"/>
<pin name="GND_2" x="0" y="-25.4" length="middle" direction="io" rot="R0"/>
<pin name="VCCIO_1" x="0" y="-27.94" length="middle" direction="io" rot="R0"/>
<pin name="ADBUS0" x="7.62" y="-48.26" length="middle" direction="io" rot="R90"/>
<pin name="ADBUS1" x="10.16" y="-48.26" length="middle" direction="io" rot="R90"/>
<pin name="ADBUS2" x="12.7" y="-48.26" length="middle" direction="io" rot="R90"/>
<pin name="ADBUS3" x="15.24" y="-48.26" length="middle" direction="io" rot="R90"/>
<pin name="ADBUS4" x="17.78" y="-48.26" length="middle" direction="io" rot="R90"/>
<pin name="ADBUS5" x="20.32" y="-48.26" length="middle" direction="io" rot="R90"/>
<pin name="ADBUS6" x="22.86" y="-48.26" length="middle" direction="io" rot="R90"/>
<pin name="ADBUS7" x="25.4" y="-48.26" length="middle" direction="io" rot="R90"/>
<pin name="ACBUS0" x="27.94" y="-48.26" length="middle" direction="io" rot="R90"/>
<pin name="GND_3" x="30.48" y="-48.26" length="middle" direction="io" rot="R90"/>
<pin name="GND_4" x="33.02" y="-48.26" length="middle" direction="io" rot="R90"/>
<pin name="VCCIO_2" x="35.56" y="-48.26" length="middle" direction="io" rot="R90"/>
<pin name="GND_6" x="43.18" y="0" length="middle" direction="io" rot="R180"/>
<pin name="GND_5" x="43.18" y="-2.54" length="middle" direction="io" rot="R180"/>
<pin name="!RESET" x="43.18" y="-5.08" length="middle" direction="io" rot="R180"/>
<pin name="ACBUS9" x="43.18" y="-7.62" length="middle" direction="io" rot="R180"/>
<pin name="ACBUS8" x="43.18" y="-10.16" length="middle" direction="io" rot="R180"/>
<pin name="ACBUS7" x="43.18" y="-12.7" length="middle" direction="io" rot="R180"/>
<pin name="ACBUS6" x="43.18" y="-15.24" length="middle" direction="io" rot="R180"/>
<pin name="ACBUS5" x="43.18" y="-17.78" length="middle" direction="io" rot="R180"/>
<pin name="ACBUS4" x="43.18" y="-20.32" length="middle" direction="io" rot="R180"/>
<pin name="ACBUS3" x="43.18" y="-22.86" length="middle" direction="io" rot="R180"/>
<pin name="ACBUS2" x="43.18" y="-25.4" length="middle" direction="io" rot="R180"/>
<pin name="ACBUS1" x="43.18" y="-27.94" length="middle" direction="io" rot="R180"/>
<pin name="GND_8" x="7.62" y="20.32" length="middle" direction="io" rot="R270"/>
<pin name="GND_7" x="10.16" y="20.32" length="middle" direction="io" rot="R270"/>
<pin name="VCCIO_3" x="12.7" y="20.32" length="middle" direction="io" rot="R270"/>
<pin name="EECS" x="15.24" y="20.32" length="middle" direction="io" rot="R270"/>
<pin name="EECLK" x="17.78" y="20.32" length="middle" direction="io" rot="R270"/>
<pin name="EEDATA" x="20.32" y="20.32" length="middle" direction="io" rot="R270"/>
<pin name="TEST" x="22.86" y="20.32" length="middle" direction="io" rot="R270"/>
<pin name="AGND_3" x="25.4" y="20.32" length="middle" direction="io" rot="R270"/>
<pin name="VREGIN" x="27.94" y="20.32" length="middle" direction="io" rot="R270"/>
<pin name="VCCD" x="30.48" y="20.32" length="middle" direction="io" rot="R270"/>
<pin name="VCCCORE" x="33.02" y="20.32" length="middle" direction="io" rot="R270"/>
<pin name="VCCA" x="35.56" y="20.32" length="middle" direction="io" rot="R270"/>
</symbol>
</symbols>
<devicesets>
<deviceset name="FT232HL-REEL" prefix="IC">
<description>&lt;b&gt;USB 2.0 to UART/FIFO Interface, LQFP48 FTDI Chip FT232HL-REEL Universal Asynchronous Receiver &amp; Transmitter RS232, RS422, RS485 UART 12Mbit/s, 1.8 V, 3.3 V&lt;/b&gt;&lt;p&gt;
Source: &lt;a href="http://www.ftdichip.com/Support/Documents/DataSheets/ICs/DS_FT232H.pdf"&gt; Datasheet &lt;/a&gt;</description>
<gates>
<gate name="G$1" symbol="FT232HL-REEL" x="0" y="0"/>
</gates>
<devices>
<device name="" package="QFP50P900X900X160-48N">
<connects>
<connect gate="G$1" pin="XCSI" pad="1"/>
<connect gate="G$1" pin="XCSO" pad="2"/>
<connect gate="G$1" pin="VPHY" pad="3"/>
<connect gate="G$1" pin="AGND_1" pad="4"/>
<connect gate="G$1" pin="REF" pad="5"/>
<connect gate="G$1" pin="DM" pad="6"/>
<connect gate="G$1" pin="DP" pad="7"/>
<connect gate="G$1" pin="VPLL" pad="8"/>
<connect gate="G$1" pin="AGND_2" pad="9"/>
<connect gate="G$1" pin="GND_1" pad="10"/>
<connect gate="G$1" pin="GND_2" pad="11"/>
<connect gate="G$1" pin="VCCIO_1" pad="12"/>
<connect gate="G$1" pin="ADBUS0" pad="13"/>
<connect gate="G$1" pin="ADBUS1" pad="14"/>
<connect gate="G$1" pin="ADBUS2" pad="15"/>
<connect gate="G$1" pin="ADBUS3" pad="16"/>
<connect gate="G$1" pin="ADBUS4" pad="17"/>
<connect gate="G$1" pin="ADBUS5" pad="18"/>
<connect gate="G$1" pin="ADBUS6" pad="19"/>
<connect gate="G$1" pin="ADBUS7" pad="20"/>
<connect gate="G$1" pin="ACBUS0" pad="21"/>
<connect gate="G$1" pin="GND_3" pad="22"/>
<connect gate="G$1" pin="GND_4" pad="23"/>
<connect gate="G$1" pin="VCCIO_2" pad="24"/>
<connect gate="G$1" pin="ACBUS1" pad="25"/>
<connect gate="G$1" pin="ACBUS2" pad="26"/>
<connect gate="G$1" pin="ACBUS3" pad="27"/>
<connect gate="G$1" pin="ACBUS4" pad="28"/>
<connect gate="G$1" pin="ACBUS5" pad="29"/>
<connect gate="G$1" pin="ACBUS6" pad="30"/>
<connect gate="G$1" pin="ACBUS7" pad="31"/>
<connect gate="G$1" pin="ACBUS8" pad="32"/>
<connect gate="G$1" pin="ACBUS9" pad="33"/>
<connect gate="G$1" pin="!RESET" pad="34"/>
<connect gate="G$1" pin="GND_5" pad="35"/>
<connect gate="G$1" pin="GND_6" pad="36"/>
<connect gate="G$1" pin="VCCA" pad="37"/>
<connect gate="G$1" pin="VCCCORE" pad="38"/>
<connect gate="G$1" pin="VCCD" pad="39"/>
<connect gate="G$1" pin="VREGIN" pad="40"/>
<connect gate="G$1" pin="AGND_3" pad="41"/>
<connect gate="G$1" pin="TEST" pad="42"/>
<connect gate="G$1" pin="EEDATA" pad="43"/>
<connect gate="G$1" pin="EECLK" pad="44"/>
<connect gate="G$1" pin="EECS" pad="45"/>
<connect gate="G$1" pin="VCCIO_3" pad="46"/>
<connect gate="G$1" pin="GND_7" pad="47"/>
<connect gate="G$1" pin="GND_8" pad="48"/>
</connects>
<technologies>
<technology name="">
<attribute name="Manufacturer_Name" value="FTDI Chip" constant="no"/>
<attribute name="Manufacturer_Part_Number" value="FT232HL-REEL" constant="no"/>
<attribute name="Mouser_Part_Number" value="895-FT232HL-REEL" constant="no"/>
<attribute name="Mouser_Price-Stock" value="https://www.mouser.co.uk/ProductDetail/FTDI/FT232HL-REEL?qs=rzPzygjq8vIanTFlYsBQCw%3D%3D" constant="no"/>
<attribute name="Arrow_Part_Number" value="FT232HL-REEL" constant="no"/>
<attribute name="Arrow_Price-Stock" value="https://www.arrow.com/en/products/ft232hl-reel/ftdi-chip" constant="no"/>
<attribute name="Description" value="USB 2.0 to UART/FIFO Interface, LQFP48 FTDI Chip FT232HL-REEL Universal Asynchronous Receiver &amp; Transmitter RS232, RS422, RS485 UART 12Mbit/s, 1.8 V, 3.3 V" constant="no"/>
<attribute name="Height" value="1.6mm" constant="no"/>
</technology>
</technologies>
</device>
</devices>
</deviceset>
</devicesets>
</library>
</drawing>
</eagle>
